%!PS-Adobe-3.0 EPSF-3.0
%%Creator: cairo 1.15.12 (http://cairographics.org)
%%CreationDate: Sat Nov  2 14:21:25 2019
%%Pages: 1
%%DocumentData: Clean7Bit
%%LanguageLevel: 2
%%BoundingBox: 0 0 361 361
%%EndComments
%%BeginProlog
50 dict begin
/q { gsave } bind def
/Q { grestore } bind def
/cm { 6 array astore concat } bind def
/w { setlinewidth } bind def
/J { setlinecap } bind def
/j { setlinejoin } bind def
/M { setmiterlimit } bind def
/d { setdash } bind def
/m { moveto } bind def
/l { lineto } bind def
/c { curveto } bind def
/h { closepath } bind def
/re { exch dup neg 3 1 roll 5 3 roll moveto 0 rlineto
      0 exch rlineto 0 rlineto closepath } bind def
/S { stroke } bind def
/f { fill } bind def
/f* { eofill } bind def
/n { newpath } bind def
/W { clip } bind def
/W* { eoclip } bind def
/BT { } bind def
/ET { } bind def
/BDC { mark 3 1 roll /BDC pdfmark } bind def
/EMC { mark /EMC pdfmark } bind def
/cairo_store_point { /cairo_point_y exch def /cairo_point_x exch def } def
/Tj { show currentpoint cairo_store_point } bind def
/TJ {
  {
    dup
    type /stringtype eq
    { show } { -0.001 mul 0 cairo_font_matrix dtransform rmoveto } ifelse
  } forall
  currentpoint cairo_store_point
} bind def
/cairo_selectfont { cairo_font_matrix aload pop pop pop 0 0 6 array astore
    cairo_font exch selectfont cairo_point_x cairo_point_y moveto } bind def
/Tf { pop /cairo_font exch def /cairo_font_matrix where
      { pop cairo_selectfont } if } bind def
/Td { matrix translate cairo_font_matrix matrix concatmatrix dup
      /cairo_font_matrix exch def dup 4 get exch 5 get cairo_store_point
      /cairo_font where { pop cairo_selectfont } if } bind def
/Tm { 2 copy 8 2 roll 6 array astore /cairo_font_matrix exch def
      cairo_store_point /cairo_font where { pop cairo_selectfont } if } bind def
/g { setgray } bind def
/rg { setrgbcolor } bind def
/d1 { setcachedevice } bind def
/cairo_data_source {
  CairoDataIndex CairoData length lt
    { CairoData CairoDataIndex get /CairoDataIndex CairoDataIndex 1 add def }
    { () } ifelse
} def
/cairo_flush_ascii85_file { cairo_ascii85_file status { cairo_ascii85_file flushfile } if } def
/cairo_image { image cairo_flush_ascii85_file } def
/cairo_imagemask { imagemask cairo_flush_ascii85_file } def
%%EndProlog
%%BeginSetup
%%EndSetup
%%Page: 1 1
%%BeginPageSetup
%%PageBoundingBox: 0 0 361 361
%%EndPageSetup
q 0 0 361 361 rectclip
1 0 0 -1 0 361 cm q
0 g
150.137 24.078 m 80.547 24.078 24.137 80.492 24.137 150.078 c 24.137 219.668
 80.547 276.078 150.137 276.078 c 219.723 276.078 276.137 219.668 276.137
 150.078 c 276.062 80.523 219.691 24.156 150.137 24.078 c h
150.137 36.078 m 187.199 36.109 221.93 54.172 243.234 84.5 c 228.234 99.5
 l 224.582 97.289 220.402 96.109 216.137 96.078 c 202.883 96.078 192.137
 106.824 192.137 120.078 c 192.156 124.352 193.332 128.535 195.539 132.195
 c 156.25 171.48 l 148.812 166.945 139.461 166.945 132.023 171.48 c 104.734
 144.195 l 106.941 140.535 108.117 136.352 108.137 132.078 c 108.152 118.852
 97.441 108.113 84.215 108.098 c 73.273 108.086 63.715 115.484 60.988 126.078
 c 38.727 126.078 l 50.09 73.621 96.461 36.16 150.137 36.078 c h
228.137 120.078 m 228.137 126.707 222.766 132.078 216.137 132.078 c 209.508
 132.078 204.137 126.707 204.137 120.078 c 204.137 113.453 209.508 108.078
 216.137 108.078 c 222.766 108.078 228.137 113.453 228.137 120.078 c h
156.137 192.078 m 156.137 198.707 150.766 204.078 144.137 204.078 c 137.508
 204.078 132.137 198.707 132.137 192.078 c 132.137 185.453 137.508 180.078
 144.137 180.078 c 150.766 180.078 156.137 185.453 156.137 192.078 c h
96.137 132.078 m 96.137 138.707 90.766 144.078 84.137 144.078 c 77.508 
144.078 72.137 138.707 72.137 132.078 c 72.137 125.453 77.508 120.078 84.137
 120.078 c 90.766 120.078 96.137 125.453 96.137 132.078 c h
205.527 249.758 m 188.582 259.168 169.52 264.098 150.137 264.078 c 87.219
 264.121 36.18 213.152 36.137 150.234 c 36.133 146.176 36.348 142.117 36.777
 138.078 c 60.988 138.078 l 63.715 148.641 73.227 156.039 84.137 156.078
 c 88.406 156.059 92.594 154.883 96.25 152.676 c 123.539 179.965 l 121.332
 183.621 120.156 187.809 120.137 192.078 c 120.137 205.332 130.883 216.078
 144.137 216.078 c 157.391 216.078 168.137 205.332 168.137 192.078 c 168.117
 187.809 166.941 183.621 164.734 179.965 c 204.023 140.676 l 207.68 142.883
 211.867 144.059 216.137 144.078 c 229.391 144.078 240.137 133.332 240.137
 120.078 c 240.117 115.809 238.941 111.621 236.734 107.965 c 249.816 94.891
 l 280.352 149.887 260.523 219.223 205.527 249.758 c h
205.527 249.758 m f
300.137 60.078 m 311.047 60.039 320.559 52.645 323.285 42.078 c 360.137
 42.078 l 360.137 30.078 l 323.285 30.078 l 320.559 19.516 311.047 12.121
 300.137 12.078 c 286.883 12.078 276.137 22.824 276.137 36.078 c 276.156
 40.352 277.332 44.535 279.539 48.195 c 268.996 58.734 l 218.555 -6.98 124.391
 -19.363 58.676 31.078 c -7.039 81.52 -19.422 175.684 31.02 241.398 c 78.633
 303.43 165.91 318.477 231.543 275.973 c 249.652 294.078 l 306.438 350.863
 l 318.723 363.148 338.637 363.148 350.922 350.863 c 363.203 338.578 363.203
 318.664 350.922 306.379 c 294.137 249.594 l 276.027 231.488 l 308.172 181.977
 308.172 118.184 276.027 68.672 c 288.027 56.672 l 291.684 58.879 295.867
 60.055 300.137 60.078 c h
300.137 24.078 m 306.766 24.078 312.137 29.453 312.137 36.078 c 312.137
 42.707 306.766 48.078 300.137 48.078 c 293.508 48.078 288.137 42.707 288.137
 36.078 c 288.137 29.453 293.508 24.078 300.137 24.078 c h
342.438 314.863 m 350.121 322.375 350.262 334.695 342.75 342.379 c 335.238
 350.062 322.918 350.203 315.234 342.691 c 315.129 342.59 315.023 342.484
 314.922 342.379 c 266.621 294.078 l 294.137 266.562 l h
285.652 258.078 m 258.137 285.594 l 241.527 268.988 l 242.375 268.34 243.168
 267.625 244 266.961 c 244.836 266.293 245.801 265.496 246.695 264.746 c
 248.008 263.641 249.305 262.527 250.578 261.379 c 251.23 260.781 251.855
 260.18 252.496 259.578 c 254.957 257.277 257.34 254.895 259.641 252.434
 c 260.242 251.793 260.844 251.168 261.441 250.512 c 262.59 249.242 263.703
 247.945 264.809 246.633 c 265.562 245.742 266.297 244.848 267.023 243.938
 c 267.684 243.109 268.398 242.316 269.043 241.473 c h
262.383 230.211 m 260.496 232.848 258.543 235.434 256.488 237.926 c 255.887
 238.652 255.246 239.352 254.625 240.066 c 252.789 242.203 250.895 244.277
 248.938 246.285 c 248.086 247.164 247.219 248.031 246.34 248.883 c 244.34
 250.836 242.27 252.734 240.125 254.57 c 239.41 255.168 238.707 255.824 
237.984 256.43 c 235.492 258.488 232.906 260.438 230.266 262.328 c 168.156
 306.703 81.832 292.32 37.457 230.211 c -6.918 168.098 7.461 81.773 69.574
 37.398 c 131.688 -6.973 218.012 7.406 262.383 69.516 c 296.719 117.578 
296.719 182.148 262.383 230.211 c h
262.383 230.211 m f
Q Q
showpage
%%Trailer
end
%%EOF
