%!PS-Adobe-3.0 EPSF-3.0
%%Creator: cairo 1.15.12 (http://cairographics.org)
%%CreationDate: Sat Nov  2 14:21:25 2019
%%Pages: 1
%%DocumentData: Clean7Bit
%%LanguageLevel: 2
%%BoundingBox: 0 3 384 381
%%EndComments
%%BeginProlog
50 dict begin
/q { gsave } bind def
/Q { grestore } bind def
/cm { 6 array astore concat } bind def
/w { setlinewidth } bind def
/J { setlinecap } bind def
/j { setlinejoin } bind def
/M { setmiterlimit } bind def
/d { setdash } bind def
/m { moveto } bind def
/l { lineto } bind def
/c { curveto } bind def
/h { closepath } bind def
/re { exch dup neg 3 1 roll 5 3 roll moveto 0 rlineto
      0 exch rlineto 0 rlineto closepath } bind def
/S { stroke } bind def
/f { fill } bind def
/f* { eofill } bind def
/n { newpath } bind def
/W { clip } bind def
/W* { eoclip } bind def
/BT { } bind def
/ET { } bind def
/BDC { mark 3 1 roll /BDC pdfmark } bind def
/EMC { mark /EMC pdfmark } bind def
/cairo_store_point { /cairo_point_y exch def /cairo_point_x exch def } def
/Tj { show currentpoint cairo_store_point } bind def
/TJ {
  {
    dup
    type /stringtype eq
    { show } { -0.001 mul 0 cairo_font_matrix dtransform rmoveto } ifelse
  } forall
  currentpoint cairo_store_point
} bind def
/cairo_selectfont { cairo_font_matrix aload pop pop pop 0 0 6 array astore
    cairo_font exch selectfont cairo_point_x cairo_point_y moveto } bind def
/Tf { pop /cairo_font exch def /cairo_font_matrix where
      { pop cairo_selectfont } if } bind def
/Td { matrix translate cairo_font_matrix matrix concatmatrix dup
      /cairo_font_matrix exch def dup 4 get exch 5 get cairo_store_point
      /cairo_font where { pop cairo_selectfont } if } bind def
/Tm { 2 copy 8 2 roll 6 array astore /cairo_font_matrix exch def
      cairo_store_point /cairo_font where { pop cairo_selectfont } if } bind def
/g { setgray } bind def
/rg { setrgbcolor } bind def
/d1 { setcachedevice } bind def
/cairo_data_source {
  CairoDataIndex CairoData length lt
    { CairoData CairoDataIndex get /CairoDataIndex CairoDataIndex 1 add def }
    { () } ifelse
} def
/cairo_flush_ascii85_file { cairo_ascii85_file status { cairo_ascii85_file flushfile } if } def
/cairo_image { image cairo_flush_ascii85_file } def
/cairo_imagemask { imagemask cairo_flush_ascii85_file } def
%%EndProlog
%%BeginSetup
%%EndSetup
%%Page: 1 1
%%BeginPageSetup
%%PageBoundingBox: 0 3 384 381
%%EndPageSetup
q 0 3 384 378 rectclip
1 0 0 -1 0 384 cm q
0 g
316.879 202.961 m 313.789 202.961 311.289 205.461 311.289 208.547 c 311.289
 212.461 308.105 215.645 304.191 215.645 c 300.281 215.645 297.098 212.461
 297.098 208.547 c 297.098 205.461 294.594 202.961 291.508 202.961 c 288.422
 202.961 285.922 205.461 285.922 208.547 c 285.922 218.625 294.117 226.82
 304.191 226.82 c 314.27 226.82 322.465 218.621 322.465 208.547 c 322.465
 205.461 319.965 202.961 316.879 202.961 c h
316.879 202.961 m f
369.332 203.871 m 353.605 198.836 l 351.59 198.188 350 196.582 349.359 
194.531 c 346.043 183.992 341.039 174.098 334.488 165.121 c 331.504 161.031
 328.184 157.125 324.555 153.402 c 326.875 143.223 328.137 131.703 327.973
 121.75 c 327.742 107.512 324.895 99.16 319.277 96.219 c 316.25 94.629 307.039
 89.809 257.188 112.629 c 256.008 113.168 254.906 113.836 253.887 114.598
 c 250.523 113.691 247.09 112.859 243.633 112.109 c 243.219 112.016 242.789
 111.938 242.371 111.848 c 246.41 103.023 248.766 93.441 249.211 83.547 
c 249.348 80.461 246.961 77.852 243.879 77.711 c 240.801 77.559 238.184 
79.961 238.043 83.047 c 237.316 99.312 230.566 114.621 219.043 126.145 c
 212.156 133.031 204.094 138.031 195.504 141.184 c 180.602 139.094 165.422
 139.094 150.52 141.184 c 141.926 138.031 133.867 133.031 126.98 126.145
 c 114.684 113.852 107.914 97.504 107.914 80.113 c 107.914 62.723 114.684
 46.379 126.98 34.082 c 139.273 21.785 155.625 15.012 173.012 15.012 c 190.398
 15.012 206.746 21.785 219.043 34.082 c 223.984 39.023 228.066 44.66 231.18
 50.84 c 232.566 53.598 235.93 54.707 238.684 53.316 c 241.441 51.93 242.551
 48.57 241.164 45.812 c 237.516 38.566 232.734 31.961 226.949 26.176 c 212.539
 11.77 193.387 3.836 173.012 3.836 c 152.637 3.836 133.484 11.77 119.078
 26.176 c 104.672 40.586 96.734 59.738 96.734 80.113 c 96.734 100.488 104.672
 119.641 119.078 134.047 c 123.234 138.203 127.754 141.777 132.535 144.773
 c 132.535 144.773 132.539 144.77 132.539 144.77 c 129.066 145.676 125.617
 146.688 122.207 147.828 c 119.277 148.809 117.699 151.973 118.68 154.902
 c 119.656 157.828 122.824 159.406 125.75 158.43 c 156.227 148.242 189.797
 148.242 220.273 158.43 c 220.863 158.625 221.461 158.719 222.047 158.719
 c 224.383 158.719 226.562 157.238 227.348 154.902 c 228.324 151.973 226.746
 148.809 223.816 147.828 c 220.406 146.688 216.961 145.672 213.484 144.77
 c 213.484 144.77 213.488 144.773 213.488 144.773 c 218.273 141.777 222.793
 138.203 226.949 134.047 c 230.625 130.371 233.871 126.355 236.688 122.09
 c 238.227 122.391 239.758 122.703 241.266 123.031 c 243.27 123.465 245.27
 123.934 247.25 124.426 c 247.188 124.668 247.121 124.91 247.07 125.156 
c 244.344 138.09 244.523 149.531 247.598 159.156 c 250.359 167.805 255.348
 174.816 262.418 179.988 c 270.75 186.082 280.809 188.715 289.922 188.715
 c 296.781 188.715 303.105 187.223 307.75 184.594 c 313.004 181.617 317.402
 175.348 320.887 165.938 c 322.496 167.816 324.023 169.742 325.461 171.711
 c 331.297 179.703 335.746 188.508 338.695 197.887 c 340.43 203.395 344.727
 207.727 350.195 209.48 c 365.926 214.52 l 370.051 215.84 372.824 219.641
 372.824 223.973 c 372.824 250.055 l 372.824 254.387 370.051 258.188 365.926
 259.508 c 340.582 267.625 l 336.527 268.926 333.098 271.711 330.922 275.473
 c 320.965 292.68 305.312 306.918 284.395 317.793 c 281.977 319.051 280.305
 321.301 279.801 323.965 c 271.684 366.941 l 271.457 368.129 270.422 368.984
 269.215 368.984 c 242.824 368.984 l 241.621 368.984 240.582 368.125 240.359
 366.941 c 235.863 343.191 l 234.98 338.52 230.598 335.414 225.879 336.129
 c 214.512 337.848 202.797 338.719 191.066 338.719 c 182.336 338.719 173.719
 338.23 165.453 337.27 c 160.883 336.746 156.621 339.859 155.77 344.375 
c 151.496 366.941 l 151.273 368.129 150.234 368.984 149.031 368.984 c 122.641
 368.984 l 121.434 368.984 120.398 368.125 120.168 366.926 c 112.355 326.332
 l 111.852 323.719 110.207 321.496 107.844 320.23 c 72.188 301.195 53.34
 269.395 53.34 228.262 c 53.34 207.48 57.887 189.105 66.852 173.645 c 75.219
 159.215 87.441 147.285 103.176 138.184 c 105.848 136.637 106.758 133.219
 105.215 130.547 c 103.668 127.875 100.25 126.965 97.578 128.508 c 67.07
 146.156 48.668 173.387 43.602 207.969 c 43.602 207.965 l 43.062 207.918
 42.523 207.871 41.988 207.816 c 42.086 204.086 41.41 200.32 39.941 196.664
 c 36.699 188.605 30.039 182.789 22.973 181.848 c 17.406 181.102 12.105 
183.465 8.43 188.324 c 3.098 195.367 3.965 200.945 5.633 204.383 c 8.449
 210.18 15.684 214.285 27.691 216.863 c 27.359 217.355 26.996 217.852 26.602
 218.352 c 19.508 227.25 11.148 229.215 5.723 229.402 c 2.543 229.508 0 
232.059 0 235.238 c 0 235.266 l 0 238.402 2.473 240.961 5.605 241.102 c 
6.008 241.121 6.426 241.133 6.863 241.133 c 13.73 241.133 24.754 238.598
 35.34 225.32 c 37.012 223.227 38.375 221.016 39.422 218.73 c 40.477 218.848
 41.488 218.953 42.461 219.043 c 42.461 219.039 42.461 219.039 42.461 219.035
 c 42.27 222.062 42.164 225.137 42.164 228.262 c 42.164 251.535 47.711 272.281
 58.652 289.938 c 68.738 306.211 83.184 319.535 101.594 329.559 c 109.191
 369.02 l 110.414 375.477 116.07 380.164 122.641 380.164 c 149.031 380.164
 l 155.602 380.164 161.258 375.477 162.477 369.02 c 166.34 348.613 l 174.363
 349.465 182.668 349.895 191.062 349.895 c 202.586 349.895 214.09 349.094
 225.305 347.508 c 229.375 369.023 l 230.598 375.477 236.254 380.164 242.824
 380.164 c 269.215 380.164 l 275.785 380.164 281.441 375.477 282.664 369.02
 c 290.566 327.176 l 312.891 315.371 329.723 299.859 340.594 281.07 c 341.379
 279.715 342.586 278.723 343.992 278.27 c 369.332 270.152 l 378.105 267.34
 384 259.266 384 250.051 c 384 223.973 l 384 214.758 378.105 206.684 369.332
 203.871 c h
315.957 137.453 m 313.809 155.848 308.039 171.586 302.242 174.867 c 295.652
 178.602 280.438 179.32 269.016 170.965 c 257.578 162.602 253.773 147.555
 258.008 127.461 c 258.43 125.441 259.867 123.695 261.84 122.793 c 289.82
 109.984 305.949 105.797 311.941 105.797 c 312.848 105.797 313.52 105.891
 313.969 106.066 c 315.77 107.984 318.129 118.891 315.957 137.453 c h
15.691 199.5 m 15.113 198.309 16.477 196.211 17.344 195.066 c 18.715 193.254
 19.977 192.887 20.934 192.887 c 21.137 192.887 21.324 192.902 21.496 192.926
 c 24.066 193.266 27.664 196.094 29.574 200.836 c 30.023 201.953 30.605 
203.801 30.742 206.105 c 23.004 204.504 16.996 202.191 15.691 199.5 c h
15.691 199.5 m f
178.438 73.707 m 178.438 53.711 l 185.336 54.203 187.898 57.355 190.262
 57.355 c 193.215 57.355 194.598 53.613 194.598 51.738 c 194.598 46.91 185.137
 44.844 178.438 44.645 c 178.438 41.984 l 178.438 40.805 176.961 39.719 
175.484 39.719 c 173.809 39.719 172.625 40.805 172.625 41.984 c 172.625 
44.84 l 163.266 45.828 153.906 50.754 153.906 63.168 c 153.906 75.777 163.758
 79.324 172.625 82.477 c 172.625 105.629 l 162.574 104.84 159.918 97.941
 156.664 97.941 c 154.203 97.941 152.133 101.195 152.133 103.559 c 152.133
 108.387 160.41 114.988 172.625 115.184 c 172.625 118.238 l 172.625 119.422
 173.809 120.504 175.484 120.504 c 176.961 120.504 178.438 119.422 178.438
 118.238 c 178.438 114.891 l 189.078 113.41 196.367 106.711 196.367 94.594
 c 196.367 81.195 187.008 76.859 178.438 73.707 c h
173.215 71.836 m 167.996 69.867 163.758 67.797 163.758 62.184 c 163.758
 57.059 167.699 54.598 173.215 53.906 c h
177.848 105.43 m 177.848 84.645 l 182.672 86.711 186.516 89.469 186.516
 95.676 c 186.516 101.293 183.168 104.445 177.848 105.43 c h
177.848 105.43 m f
Q Q
showpage
%%Trailer
end
%%EOF
