%!PS-Adobe-3.0 EPSF-3.0
%%Creator: cairo 1.15.12 (http://cairographics.org)
%%CreationDate: Sat Nov  2 14:21:25 2019
%%Pages: 1
%%DocumentData: Clean7Bit
%%LanguageLevel: 2
%%BoundingBox: 29 0 459 487
%%EndComments
%%BeginProlog
50 dict begin
/q { gsave } bind def
/Q { grestore } bind def
/cm { 6 array astore concat } bind def
/w { setlinewidth } bind def
/J { setlinecap } bind def
/j { setlinejoin } bind def
/M { setmiterlimit } bind def
/d { setdash } bind def
/m { moveto } bind def
/l { lineto } bind def
/c { curveto } bind def
/h { closepath } bind def
/re { exch dup neg 3 1 roll 5 3 roll moveto 0 rlineto
      0 exch rlineto 0 rlineto closepath } bind def
/S { stroke } bind def
/f { fill } bind def
/f* { eofill } bind def
/n { newpath } bind def
/W { clip } bind def
/W* { eoclip } bind def
/BT { } bind def
/ET { } bind def
/BDC { mark 3 1 roll /BDC pdfmark } bind def
/EMC { mark /EMC pdfmark } bind def
/cairo_store_point { /cairo_point_y exch def /cairo_point_x exch def } def
/Tj { show currentpoint cairo_store_point } bind def
/TJ {
  {
    dup
    type /stringtype eq
    { show } { -0.001 mul 0 cairo_font_matrix dtransform rmoveto } ifelse
  } forall
  currentpoint cairo_store_point
} bind def
/cairo_selectfont { cairo_font_matrix aload pop pop pop 0 0 6 array astore
    cairo_font exch selectfont cairo_point_x cairo_point_y moveto } bind def
/Tf { pop /cairo_font exch def /cairo_font_matrix where
      { pop cairo_selectfont } if } bind def
/Td { matrix translate cairo_font_matrix matrix concatmatrix dup
      /cairo_font_matrix exch def dup 4 get exch 5 get cairo_store_point
      /cairo_font where { pop cairo_selectfont } if } bind def
/Tm { 2 copy 8 2 roll 6 array astore /cairo_font_matrix exch def
      cairo_store_point /cairo_font where { pop cairo_selectfont } if } bind def
/g { setgray } bind def
/rg { setrgbcolor } bind def
/d1 { setcachedevice } bind def
/cairo_data_source {
  CairoDataIndex CairoData length lt
    { CairoData CairoDataIndex get /CairoDataIndex CairoDataIndex 1 add def }
    { () } ifelse
} def
/cairo_flush_ascii85_file { cairo_ascii85_file status { cairo_ascii85_file flushfile } if } def
/cairo_image { image cairo_flush_ascii85_file } def
/cairo_imagemask { imagemask cairo_flush_ascii85_file } def
%%EndProlog
%%BeginSetup
%%EndSetup
%%Page: 1 1
%%BeginPageSetup
%%PageBoundingBox: 29 0 459 487
%%EndPageSetup
q 29 0 430 487 rectclip
1 0 0 -1 0 487 cm q
0 g
249.859 265.785 m 248.957 265.59 248.031 265.555 247.121 265.691 c 237.973
 264.625 231.074 256.887 231.059 247.68 c 231.059 243.27 227.48 239.691 
223.07 239.691 c 218.656 239.691 215.082 243.27 215.082 247.68 c 215.105
 263.055 225.387 276.516 240.207 280.586 c 240.207 288.574 l 240.207 292.984
 243.785 296.562 248.195 296.562 c 252.609 296.562 256.184 292.984 256.184
 288.574 c 256.184 281.07 l 273.293 277.488 284.918 261.555 283.121 244.172
 c 281.32 226.785 266.672 213.574 249.195 213.57 c 239.18 213.57 231.059
 205.449 231.059 195.434 c 231.059 185.418 239.18 177.297 249.195 177.297
 c 259.211 177.297 267.332 185.418 267.332 195.434 c 267.332 199.844 270.91
 203.422 275.32 203.422 c 279.73 203.422 283.309 199.844 283.309 195.434
 c 283.285 179.293 271.977 165.371 256.184 162.043 c 256.184 154.773 l 256.184
 150.359 252.609 146.785 248.195 146.785 c 243.785 146.785 240.207 150.359
 240.207 154.773 c 240.207 162.531 l 223.723 167.031 213.113 183.035 215.387
 199.969 c 217.656 216.906 232.105 229.547 249.195 229.543 c 259.078 229.543
 267.141 237.457 267.32 247.34 c 267.504 257.219 259.734 265.426 249.859
 265.785 c h
249.859 265.785 m f
133.359 222.172 m 133.359 286.148 185.219 338.008 249.195 338.008 c 313.172
 338.008 365.031 286.148 365.031 222.172 c 365.031 158.195 313.172 106.336
 249.195 106.336 c 185.25 106.406 133.434 158.227 133.359 222.172 c h
249.195 122.312 m 304.348 122.312 349.055 167.02 349.055 222.172 c 349.055
 277.324 304.348 322.031 249.195 322.031 c 194.043 322.031 149.336 277.324
 149.336 222.172 c 149.398 167.047 194.07 122.375 249.195 122.312 c h
249.195 122.312 m f
404.41 357.703 m 341.836 387.27 l 333.195 371.199 316.621 360.973 298.383
 360.457 c 240.617 358.867 l 231.473 358.605 222.496 356.289 214.363 352.09
 c 208.484 349.043 l 178.391 333.355 142.516 333.395 112.453 349.145 c 112.816
 335.828 l 112.938 331.418 109.465 327.742 105.051 327.621 c 41.707 325.879
 l 37.297 325.758 33.625 329.234 33.504 333.645 c 29.68 472.648 l 29.559
 477.062 33.035 480.734 37.445 480.855 c 100.789 482.602 l 101.008 482.602
 l 105.336 482.602 108.879 479.156 108.996 474.832 c 109.18 468.18 l 125.637
 459.367 l 132.094 455.895 139.645 455.066 146.703 457.062 c 244.969 484.645
 l 245.141 484.695 245.312 484.734 245.488 484.773 c 252.594 486.258 259.832
 487.004 267.086 487 c 282.453 487.008 297.645 483.695 311.609 477.285 c
 311.953 477.129 312.285 476.945 312.602 476.738 c 455.082 384.578 l 458.633
 382.281 459.777 377.617 457.699 373.938 c 447.121 355.168 423.66 348.016
 404.41 357.703 c h
45.871 465.105 m 49.254 342.07 l 96.629 343.371 l 93.242 466.414 l h
304.414 463.016 m 287.062 470.848 267.68 473.008 249.027 469.199 c 151.023
 441.688 l 139.992 438.57 128.188 439.863 118.094 445.289 c 109.688 449.793
 l 111.938 367.988 l 138.586 350.266 172.762 348.441 201.141 363.23 c 207.02
 366.277 l 217.293 371.582 228.625 374.504 240.18 374.84 c 297.949 376.43
 l 314.176 376.898 327.957 388.449 331.25 404.348 c 245.199 401.973 l 240.789
 401.852 237.117 405.332 236.992 409.738 c 236.875 414.148 240.352 417.824
 244.762 417.945 c 339.723 420.559 l 339.945 420.559 l 344.27 420.555 347.809
 417.109 347.926 412.789 c 348.02 409.316 347.766 405.844 347.152 402.426
 c 411.336 372.098 l 411.398 372.07 411.461 372.039 411.52 372.008 c 420.625
 367.402 431.633 368.945 439.121 375.875 c h
304.414 463.016 m f
257.184 83.875 m 257.184 7.988 l 257.184 3.578 253.605 0 249.195 0 c 244.785
 0 241.207 3.578 241.207 7.988 c 241.207 83.875 l 241.207 88.289 244.785
 91.863 249.195 91.863 c 253.605 91.863 257.184 88.289 257.184 83.875 c 
h
257.184 83.875 m f
317.094 83.875 m 317.094 47.93 l 317.094 43.52 313.52 39.941 309.105 39.941
 c 304.695 39.941 301.117 43.52 301.117 47.93 c 301.117 83.875 l 301.117
 88.289 304.695 91.863 309.105 91.863 c 313.52 91.863 317.094 88.289 317.094
 83.875 c h
317.094 83.875 m f
197.27 83.875 m 197.27 47.93 l 197.27 43.52 193.695 39.941 189.281 39.941
 c 184.871 39.941 181.297 43.52 181.297 47.93 c 181.297 83.875 l 181.297
 88.289 184.871 91.863 189.281 91.863 c 193.695 91.863 197.27 88.289 197.27
 83.875 c h
197.27 83.875 m f
Q Q
showpage
%%Trailer
end
%%EOF
