%!PS-Adobe-3.0 EPSF-3.0
%%Creator: cairo 1.15.12 (http://cairographics.org)
%%CreationDate: Sat Nov  2 14:21:25 2019
%%Pages: 1
%%DocumentData: Clean7Bit
%%LanguageLevel: 2
%%BoundingBox: 0 0 360 360
%%EndComments
%%BeginProlog
50 dict begin
/q { gsave } bind def
/Q { grestore } bind def
/cm { 6 array astore concat } bind def
/w { setlinewidth } bind def
/J { setlinecap } bind def
/j { setlinejoin } bind def
/M { setmiterlimit } bind def
/d { setdash } bind def
/m { moveto } bind def
/l { lineto } bind def
/c { curveto } bind def
/h { closepath } bind def
/re { exch dup neg 3 1 roll 5 3 roll moveto 0 rlineto
      0 exch rlineto 0 rlineto closepath } bind def
/S { stroke } bind def
/f { fill } bind def
/f* { eofill } bind def
/n { newpath } bind def
/W { clip } bind def
/W* { eoclip } bind def
/BT { } bind def
/ET { } bind def
/BDC { mark 3 1 roll /BDC pdfmark } bind def
/EMC { mark /EMC pdfmark } bind def
/cairo_store_point { /cairo_point_y exch def /cairo_point_x exch def } def
/Tj { show currentpoint cairo_store_point } bind def
/TJ {
  {
    dup
    type /stringtype eq
    { show } { -0.001 mul 0 cairo_font_matrix dtransform rmoveto } ifelse
  } forall
  currentpoint cairo_store_point
} bind def
/cairo_selectfont { cairo_font_matrix aload pop pop pop 0 0 6 array astore
    cairo_font exch selectfont cairo_point_x cairo_point_y moveto } bind def
/Tf { pop /cairo_font exch def /cairo_font_matrix where
      { pop cairo_selectfont } if } bind def
/Td { matrix translate cairo_font_matrix matrix concatmatrix dup
      /cairo_font_matrix exch def dup 4 get exch 5 get cairo_store_point
      /cairo_font where { pop cairo_selectfont } if } bind def
/Tm { 2 copy 8 2 roll 6 array astore /cairo_font_matrix exch def
      cairo_store_point /cairo_font where { pop cairo_selectfont } if } bind def
/g { setgray } bind def
/rg { setrgbcolor } bind def
/d1 { setcachedevice } bind def
/cairo_data_source {
  CairoDataIndex CairoData length lt
    { CairoData CairoDataIndex get /CairoDataIndex CairoDataIndex 1 add def }
    { () } ifelse
} def
/cairo_flush_ascii85_file { cairo_ascii85_file status { cairo_ascii85_file flushfile } if } def
/cairo_image { image cairo_flush_ascii85_file } def
/cairo_imagemask { imagemask cairo_flush_ascii85_file } def
%%EndProlog
%%BeginSetup
%%EndSetup
%%Page: 1 1
%%BeginPageSetup
%%PageBoundingBox: 0 0 360 360
%%EndPageSetup
q 0 0 360 360 rectclip
1 0 0 -1 0 360 cm q
0 g
180 0 m 160.117 0 144 16.117 144 36 c 144 55.883 160.117 72 180 72 c 199.875
 71.98 215.98 55.875 216 36 c 216 16.117 199.883 0 180 0 c h
180 60 m 166.746 60 156 49.254 156 36 c 156 22.746 166.746 12 180 12 c 
193.254 12 204 22.746 204 36 c 204 49.254 193.254 60 180 60 c h
180 60 m f
204 78 m 202.586 78 l 201.316 78.629 l 187.891 85.316 172.109 85.316 158.684
 78.629 c 157.414 78 l 156 78 l 139.441 78.02 126.02 91.441 126 108 c 126
 144 l 126 153.941 134.059 162 144 162 c 216 162 l 225.941 162 234 153.941
 234 144 c 234 108 l 233.98 91.441 220.559 78.02 204 78 c h
222 144 m 222 147.312 219.312 150 216 150 c 144 150 l 140.688 150 138 147.312
 138 144 c 138 108 l 138 98.555 145.301 90.719 154.723 90.047 c 170.754 
97.488 189.246 97.488 205.277 90.047 c 214.699 90.719 222 98.555 222 108
 c h
222 144 m f
306 198 m 286.117 198 270 214.117 270 234 c 270 253.883 286.117 270 306
 270 c 325.883 270 342 253.883 342 234 c 341.98 214.125 325.875 198.02 306
 198 c h
306 258 m 292.746 258 282 247.254 282 234 c 282 220.746 292.746 210 306
 210 c 319.254 210 330 220.746 330 234 c 330 247.254 319.254 258 306 258
 c h
306 258 m f
330 276 m 328.586 276 l 327.316 276.602 l 313.891 283.285 298.109 283.285
 284.684 276.602 c 283.414 276 l 282 276 l 265.441 276.02 252.02 289.441
 252 306 c 252 342 l 252 351.941 260.059 360 270 360 c 342 360 l 351.941
 360 360 351.941 360 342 c 360 306 l 359.98 289.441 346.559 276.02 330 276
 c h
348 342 m 348 345.312 345.312 348 342 348 c 270 348 l 266.688 348 264 345.312
 264 342 c 264 306 l 264 296.555 271.301 288.719 280.723 288.047 c 296.754
 295.488 315.246 295.488 331.277 288.047 c 340.699 288.719 348 296.555 348
 306 c h
348 342 m f
54 198 m 34.117 198 18 214.117 18 234 c 18 253.883 34.117 270 54 270 c 
73.883 270 90 253.883 90 234 c 89.98 214.125 73.875 198.02 54 198 c h
54 258 m 40.746 258 30 247.254 30 234 c 30 220.746 40.746 210 54 210 c 
67.254 210 78 220.746 78 234 c 78 247.254 67.254 258 54 258 c h
54 258 m f
78 276 m 76.586 276 l 75.316 276.602 l 61.891 283.285 46.109 283.285 32.684
 276.602 c 31.414 276 l 30 276 l 13.441 276.02 0.02 289.441 0 306 c 0 342
 l 0 351.941 8.059 360 18 360 c 90 360 l 99.941 360 108 351.941 108 342 
c 108 306 l 107.98 289.441 94.559 276.02 78 276 c h
96 342 m 96 345.312 93.312 348 90 348 c 18 348 l 14.688 348 12 345.312 
12 342 c 12 306 l 12 296.555 19.301 288.719 28.723 288.047 c 44.754 295.488
 63.246 295.488 79.277 288.047 c 88.699 288.719 96 296.555 96 306 c h
96 342 m f
239.527 304.707 m 239.527 304.699 239.523 304.695 239.52 304.688 c 238.223
 301.637 234.695 300.219 231.648 301.52 c 204.555 312.871 174.465 314.945
 146.07 307.41 c 151.688 305.762 l 154.867 304.828 156.691 301.496 155.762
 298.312 c 154.828 295.133 151.496 293.309 148.316 294.238 c 124.316 301.277
 l 124.227 301.277 124.16 301.379 124.074 301.41 c 123.52 301.617 122.996
 301.906 122.527 302.27 c 122.316 302.379 122.117 302.508 121.926 302.645
 c 121.293 303.211 120.793 303.906 120.457 304.688 c 120.133 305.469 119.977
 306.316 120 307.164 c 120.148 307.977 120.348 308.777 120.602 309.562 c
 120.637 309.648 120.602 309.742 120.668 309.828 c 132.668 332.789 l 134.203
 335.73 137.828 336.867 140.766 335.336 c 143.707 333.801 144.844 330.172
 143.312 327.234 c 138.426 317.898 l 170.688 327.594 205.324 325.711 236.34
 312.57 c 239.391 311.277 240.82 307.758 239.527 304.707 c h
239.527 304.707 m f
340.242 157.758 m 337.898 155.414 334.102 155.414 331.758 157.758 c 323.27
 166.246 l 318.301 113.695 284.934 68.09 236.352 47.449 c 233.305 46.148
 229.777 47.566 228.48 50.617 c 227.18 53.664 228.598 57.188 231.648 58.488
 c 275.23 77.012 305.527 117.488 311.012 164.527 c 304.242 157.758 l 301.859
 155.457 298.059 155.523 295.758 157.906 c 293.512 160.23 293.512 163.918
 295.758 166.242 c 313.758 184.242 l 316.098 186.59 319.898 186.594 322.242
 184.254 c 322.246 184.25 322.25 184.246 322.254 184.242 c 340.254 166.242
 l 342.594 163.895 342.59 160.098 340.242 157.758 c h
340.242 157.758 m f
131.824 51.953 m 131.805 51.605 131.754 51.258 131.672 50.914 c 131.672
 50.863 131.605 50.824 131.578 50.766 c 131.555 50.707 131.578 50.664 131.578
 50.617 c 131.418 50.324 131.227 50.047 131.016 49.789 c 130.82 49.438 130.594
 49.105 130.332 48.797 c 129.977 48.484 129.586 48.215 129.16 48 c 128.953
 47.82 128.727 47.656 128.488 47.516 c 104.488 36.551 l 101.426 35.293 97.918
 36.758 96.66 39.824 c 95.469 42.723 96.711 46.051 99.512 47.461 c 111.938
 53.141 l 65.156 78.18 35.965 126.941 36 180 c 36 183.312 38.688 186 42 
186 c 45.312 186 48 183.312 48 180 c 47.969 133.281 72.676 90.035 112.938
 66.336 c 108.602 75.402 l 107.168 78.383 108.422 81.961 111.402 83.398 
c 112.211 83.797 113.098 84 114 84 c 116.305 83.996 118.402 82.676 119.398
 80.598 c 131.398 55.559 l 131.398 55.5 131.398 55.434 131.449 55.375 c 
131.605 54.965 131.711 54.535 131.773 54.102 c 131.875 53.777 131.953 53.449
 132 53.113 c 131.98 52.723 131.922 52.332 131.824 51.953 c h
131.824 51.953 m f
Q Q
showpage
%%Trailer
end
%%EOF
