%!PS-Adobe-3.0 EPSF-3.0
%%Creator: cairo 1.15.12 (http://cairographics.org)
%%CreationDate: Sat Nov  2 14:21:25 2019
%%Pages: 1
%%DocumentData: Clean7Bit
%%LanguageLevel: 2
%%BoundingBox: 0 0 496 496
%%EndComments
%%BeginProlog
50 dict begin
/q { gsave } bind def
/Q { grestore } bind def
/cm { 6 array astore concat } bind def
/w { setlinewidth } bind def
/J { setlinecap } bind def
/j { setlinejoin } bind def
/M { setmiterlimit } bind def
/d { setdash } bind def
/m { moveto } bind def
/l { lineto } bind def
/c { curveto } bind def
/h { closepath } bind def
/re { exch dup neg 3 1 roll 5 3 roll moveto 0 rlineto
      0 exch rlineto 0 rlineto closepath } bind def
/S { stroke } bind def
/f { fill } bind def
/f* { eofill } bind def
/n { newpath } bind def
/W { clip } bind def
/W* { eoclip } bind def
/BT { } bind def
/ET { } bind def
/BDC { mark 3 1 roll /BDC pdfmark } bind def
/EMC { mark /EMC pdfmark } bind def
/cairo_store_point { /cairo_point_y exch def /cairo_point_x exch def } def
/Tj { show currentpoint cairo_store_point } bind def
/TJ {
  {
    dup
    type /stringtype eq
    { show } { -0.001 mul 0 cairo_font_matrix dtransform rmoveto } ifelse
  } forall
  currentpoint cairo_store_point
} bind def
/cairo_selectfont { cairo_font_matrix aload pop pop pop 0 0 6 array astore
    cairo_font exch selectfont cairo_point_x cairo_point_y moveto } bind def
/Tf { pop /cairo_font exch def /cairo_font_matrix where
      { pop cairo_selectfont } if } bind def
/Td { matrix translate cairo_font_matrix matrix concatmatrix dup
      /cairo_font_matrix exch def dup 4 get exch 5 get cairo_store_point
      /cairo_font where { pop cairo_selectfont } if } bind def
/Tm { 2 copy 8 2 roll 6 array astore /cairo_font_matrix exch def
      cairo_store_point /cairo_font where { pop cairo_selectfont } if } bind def
/g { setgray } bind def
/rg { setrgbcolor } bind def
/d1 { setcachedevice } bind def
/cairo_data_source {
  CairoDataIndex CairoData length lt
    { CairoData CairoDataIndex get /CairoDataIndex CairoDataIndex 1 add def }
    { () } ifelse
} def
/cairo_flush_ascii85_file { cairo_ascii85_file status { cairo_ascii85_file flushfile } if } def
/cairo_image { image cairo_flush_ascii85_file } def
/cairo_imagemask { imagemask cairo_flush_ascii85_file } def
%%EndProlog
%%BeginSetup
%%EndSetup
%%Page: 1 1
%%BeginPageSetup
%%PageBoundingBox: 0 0 496 496
%%EndPageSetup
q 0 0 496 496 rectclip
1 0 0 -1 0 496 cm q
0 g
496 208 m 478.023 208 l 451.23 222.098 l 448.215 220.434 445.078 219.023
 441.695 218.176 c 407.992 209.742 l 407.992 205.91 l 422.902 195.504 432
 178.312 432 160 c 432 146.016 l 432 114.938 407.648 88.93 377.719 88.023
 c 376.199 87.984 374.703 88.039 373.199 88.113 c 381.938 67.656 l 339.574
 25.305 l 314.602 41.559 l 305.113 36.215 295.078 32.055 284.656 29.137 
c 278.488 0 l 217.52 0 l 211.352 29.145 l 200.93 32.062 190.887 36.223 181.406
 41.566 c 156.434 25.312 l 114.105 67.641 l 122.695 88.113 l 122.367 88.098
 122.055 88.039 121.727 88.031 c 106.406 87.586 91.977 93.176 81.016 103.816
 c 70.039 114.449 64 128.719 64 144 c 64 160 l 64 178.312 73.09 195.496 
88 205.902 c 88 209.742 l 66.016 215.238 l 26.168 192 l 0 192 l 0 357.77
 l 78.703 384 l 94.031 384 l 95.945 377.297 l 120.07 391.777 l 120.465 404.895
 130.984 415.449 144.09 415.91 c 144.551 428.961 155.039 439.449 168.09 
439.91 c 168.551 452.961 179.039 463.449 192.09 463.91 c 192.566 477.266
 203.504 488 216.969 488 c 221.969 488 226.871 486.441 230.992 483.664 c
 238.078 489.922 l 242.52 493.832 248.238 496 254.176 496 c 255.656 496 
l 268.969 496 279.801 485.238 279.969 471.969 c 293.137 471.801 303.801 
461.137 303.969 447.969 c 317.145 447.801 327.816 437.121 327.969 423.945
 c 341.266 423.633 352 412.77 352 399.398 c 352 398.594 351.961 397.801 
351.879 397 c 496 324.945 l h
416 146.016 m 416 160 l 416 174.199 408.328 187.465 395.977 194.617 c 391.977
 196.93 l 392.008 222.246 l 431.977 232.23 l 344 278.535 l 344 256.984 l
 344 246.23 339.656 236.383 332.543 229.105 c 360 222.246 l 360 196.91 l
 356.008 194.602 l 343.664 187.465 336 174.199 336 160 c 336 144 l 336 133.09
 340.312 122.887 348.152 115.289 c 355.984 107.695 366.375 103.602 377.238
 104.023 c 398.609 104.664 416 123.504 416 146.016 c h
260.062 272.246 m 223.848 260.672 l 207.344 255.383 189.48 254.594 172.586
 258.336 c 168 259.352 l 168 256.984 l 168 245.953 175.48 236.375 186.176
 233.695 c 232 222.246 l 232 196.91 l 228.008 194.602 l 215.664 187.465 
208 174.199 208 160 c 208 144 l 208 133.09 212.312 122.887 220.152 115.289
 c 227.984 107.695 238.441 103.602 249.238 104.023 c 270.609 104.664 288
 123.504 288 146.016 c 288 160 l 288 174.199 280.328 187.465 267.977 194.617
 c 263.977 196.93 l 264.008 222.246 l 309.824 233.695 l 320.52 236.375 328
 245.953 328 256.984 c 328 286.961 l 326.023 288 l 321.121 288 l 271.938
 273.945 l 268.062 272.848 264.07 272.398 260.062 272.246 c h
169.793 119.734 m 184.816 90.625 215.055 72 248 72 c 280.633 72 310.742
 90.375 325.879 119.09 c 322.07 126.727 320 135.184 320 144 c 320 160 l 
320 178.312 329.09 195.496 344 205.902 c 344 209.742 l 312 217.754 l 279.992
 209.742 l 279.992 205.91 l 294.902 195.504 304 178.312 304 160 c 304 146.016
 l 304 114.938 279.648 88.93 249.719 88.023 c 234.406 87.574 219.969 93.168
 209.008 103.809 c 198.039 114.449 192 128.719 192 144 c 192 160 l 192 178.312
 201.09 195.496 216 205.902 c 216 209.742 l 184 217.754 l 151.992 209.742
 l 151.992 205.91 l 166.902 195.504 176 178.312 176 160 c 176 146.016 l 
176 136.602 173.734 127.664 169.793 119.734 c h
133 71.352 m 158.559 45.793 l 181.055 60.434 l 185.359 57.793 l 196.145
 51.184 207.801 46.344 220 43.426 c 224.922 42.246 l 230.488 16 l 265.52
 16 l 271.07 42.238 l 275.992 43.414 l 288.191 46.336 299.848 51.176 310.633
 57.785 c 314.938 60.426 l 337.434 45.785 l 362.961 71.32 l 353.887 92.566
 l 347.711 95.223 341.984 98.961 337 103.793 c 336.672 104.113 336.391 104.457
 336.07 104.785 c 317.223 74.824 283.902 56 248 56 c 211.84 56 178.426 75
 159.625 105.266 c 154.594 100 148.609 95.734 141.977 92.754 c h
104 222.246 m 104 196.91 l 100.008 194.602 l 87.664 187.465 80 174.199 
80 160 c 80 144 l 80 133.09 84.312 122.887 92.152 115.289 c 99.984 107.695
 110.398 103.602 121.238 104.023 c 142.609 104.664 160 123.504 160 146.016
 c 160 160 l 160 174.199 152.328 187.465 139.977 194.617 c 135.977 196.93
 l 136.008 222.246 l 163.457 229.105 l 156.344 236.383 152 246.23 152 256.984
 c 152 262.91 l 127.047 268.457 l 127.695 266.191 l 128 251.406 l 85.809
 226.793 l h
16 208 m 21.832 208 l 79.367 241.559 l 50.336 357.68 l 16 346.23 l h
81.297 368 m 65.551 362.754 l 93.754 249.953 l 112 260.594 l 112 262.879
 l 81.969 368 l h
136 391.031 m 136 388.672 136.953 386.359 138.625 384.688 c 152.688 370.625
 l 154.359 368.953 156.672 368 159.031 368 c 163.977 368 168 372.023 168
 376.969 c 168 379.328 167.047 381.641 165.375 383.312 c 151.312 397.375
 l 149.641 399.047 147.328 400 144.969 400 c 140.023 400 136 395.977 136
 391.031 c h
160 415.031 m 160 412.672 160.953 410.359 162.625 408.688 c 176.688 394.625
 l 178.359 392.953 180.672 392 183.031 392 c 187.977 392 192 396.023 192
 400.969 c 192 403.328 191.047 405.641 189.375 407.312 c 175.312 421.375
 l 173.641 423.047 171.328 424 168.969 424 c 164.023 424 160 419.977 160
 415.031 c h
184 439.031 m 184 436.672 184.953 434.359 186.625 432.688 c 200.688 418.625
 l 202.359 416.953 204.672 416 207.031 416 c 211.977 416 216 420.023 216
 424.969 c 216 427.328 215.047 429.641 213.375 431.312 c 199.312 445.375
 l 197.641 447.047 195.328 448 192.969 448 c 188.023 448 184 443.977 184
 439.031 c h
216.969 472 m 212.023 472 208 467.977 208 463.031 c 208 460.672 208.953
 458.359 210.625 456.688 c 224.688 442.625 l 226.359 440.953 228.672 440
 231.031 440 c 235.977 440 240 444.023 240 448.969 c 240 451.328 239.047
 453.641 237.375 455.312 c 223.312 469.375 l 221.641 471.047 219.328 472
 216.969 472 c h
255.656 480 m 254.176 480 l 252.137 480 250.184 479.258 248.664 477.91 
c 242.68 472.633 l 248.688 466.625 l 250.832 464.48 252.496 461.93 253.727
 459.191 c 261 465.246 l 262.902 466.832 264 469.168 264 471.656 c 264 476.258
 260.258 480 255.656 480 c h
327.398 408 m 326.016 408 l 324.008 408 322.047 407.289 320.512 406 c 277.129
 369.848 l 266.879 382.145 l 309.008 417.246 l 310.902 418.832 312 421.168
 312 423.656 c 312 428.258 308.258 432 303.656 432 c 301.91 432 l 299.969
 432 298.07 431.312 296.574 430.062 c 253.121 393.855 l 242.871 406.152 
l 285 441.258 l 286.902 442.832 288 445.168 288 447.656 c 288 452.258 284.258
 456 279.656 456 c 276.586 456 273.594 454.91 271.238 452.953 c 253.383 
438.07 l 249.449 430.031 241.367 424.426 231.902 424.09 c 231.441 411.039
 220.953 400.551 207.902 400.09 c 207.441 387.039 196.953 376.551 183.902
 376.09 c 183.434 362.734 172.496 352 159.031 352 c 152.457 352 146.023 
354.664 141.375 359.312 c 127.312 373.375 l 126.473 374.215 125.777 375.168
 125.07 376.113 c 100.496 361.367 l 122.039 285.969 l 176.047 273.961 l 
190.215 270.793 205.152 271.48 218.969 275.902 c 230.754 279.672 l 190.801
 299.648 l 181.672 304.223 176 313.406 176 323.617 c 176 325.199 l 176 339.977
 188.023 352 202.801 352 c 207.656 352 212.434 350.68 216.586 348.176 c 
246.375 330.312 l 252.359 326.727 260.391 327.512 265.559 332.16 c 333.152
 392.992 l 334.961 394.633 336 396.961 336 399.398 c 336 404.145 332.145
 408 327.398 408 c h
480 315.055 m 345.223 382.449 l 344.785 381.984 344.328 381.543 343.848
 381.113 c 276.266 320.281 l 270.344 314.938 262.688 312 254.711 312 c 248.879
 312 243.152 313.586 238.137 316.594 c 208.336 334.465 l 206.664 335.473
 204.754 336 202.801 336 c 196.84 336 192 331.16 192 325.199 c 192 323.617
 l 192 319.496 194.289 315.801 197.969 313.961 c 242.594 291.648 l 250.23
 287.824 259.297 286.969 267.527 289.336 c 317.801 303.695 l 329.977 304
 l 480 225.039 l h
480 315.055 m f
Q Q
showpage
%%Trailer
end
%%EOF
