%!PS-Adobe-3.0 EPSF-3.0
%%Creator: cairo 1.15.12 (http://cairographics.org)
%%CreationDate: Sat Nov  2 14:21:25 2019
%%Pages: 1
%%DocumentData: Clean7Bit
%%LanguageLevel: 2
%%BoundingBox: 0 6 360 355
%%EndComments
%%BeginProlog
50 dict begin
/q { gsave } bind def
/Q { grestore } bind def
/cm { 6 array astore concat } bind def
/w { setlinewidth } bind def
/J { setlinecap } bind def
/j { setlinejoin } bind def
/M { setmiterlimit } bind def
/d { setdash } bind def
/m { moveto } bind def
/l { lineto } bind def
/c { curveto } bind def
/h { closepath } bind def
/re { exch dup neg 3 1 roll 5 3 roll moveto 0 rlineto
      0 exch rlineto 0 rlineto closepath } bind def
/S { stroke } bind def
/f { fill } bind def
/f* { eofill } bind def
/n { newpath } bind def
/W { clip } bind def
/W* { eoclip } bind def
/BT { } bind def
/ET { } bind def
/BDC { mark 3 1 roll /BDC pdfmark } bind def
/EMC { mark /EMC pdfmark } bind def
/cairo_store_point { /cairo_point_y exch def /cairo_point_x exch def } def
/Tj { show currentpoint cairo_store_point } bind def
/TJ {
  {
    dup
    type /stringtype eq
    { show } { -0.001 mul 0 cairo_font_matrix dtransform rmoveto } ifelse
  } forall
  currentpoint cairo_store_point
} bind def
/cairo_selectfont { cairo_font_matrix aload pop pop pop 0 0 6 array astore
    cairo_font exch selectfont cairo_point_x cairo_point_y moveto } bind def
/Tf { pop /cairo_font exch def /cairo_font_matrix where
      { pop cairo_selectfont } if } bind def
/Td { matrix translate cairo_font_matrix matrix concatmatrix dup
      /cairo_font_matrix exch def dup 4 get exch 5 get cairo_store_point
      /cairo_font where { pop cairo_selectfont } if } bind def
/Tm { 2 copy 8 2 roll 6 array astore /cairo_font_matrix exch def
      cairo_store_point /cairo_font where { pop cairo_selectfont } if } bind def
/g { setgray } bind def
/rg { setrgbcolor } bind def
/d1 { setcachedevice } bind def
/cairo_data_source {
  CairoDataIndex CairoData length lt
    { CairoData CairoDataIndex get /CairoDataIndex CairoDataIndex 1 add def }
    { () } ifelse
} def
/cairo_flush_ascii85_file { cairo_ascii85_file status { cairo_ascii85_file flushfile } if } def
/cairo_image { image cairo_flush_ascii85_file } def
/cairo_imagemask { imagemask cairo_flush_ascii85_file } def
%%EndProlog
%%BeginSetup
%%EndSetup
%%Page: 1 1
%%BeginPageSetup
%%PageBoundingBox: 0 6 360 355
%%EndPageSetup
q 0 6 360 349 rectclip
1 0 0 -1 0 360 cm q
0 g
305.152 120.012 m 305.148 120.012 305.145 120.012 305.141 120.012 c 5.141
 120.012 l 2.305 120.008 0.004 122.305 0 125.145 c 0 125.148 0 125.152 0
 125.156 c 0 269.156 l -0.004 271.992 2.293 274.293 5.129 274.297 c 5.133
 274.297 5.137 274.297 5.141 274.297 c 209.141 274.297 l 211.98 274.297 
214.285 271.996 214.285 269.156 c 214.285 266.316 211.98 264.012 209.141
 264.012 c 10.285 264.012 l 10.285 130.297 l 300 130.297 l 300 143.156 l
 299.996 145.992 302.293 148.293 305.129 148.297 c 305.133 148.297 305.137
 148.297 305.141 148.297 c 307.977 148.301 310.281 146.004 310.285 143.168
 c 310.285 143.164 310.285 143.16 310.285 143.156 c 310.285 125.156 l 310.285
 122.316 307.992 120.016 305.152 120.012 c h
305.152 120.012 m f
270.27 96.141 m 30.27 42.141 l 28.938 41.84 27.543 42.082 26.387 42.812
 c 25.234 43.547 24.422 44.707 24.121 46.039 c 12.121 100.039 l 11.504 102.812
 13.254 105.559 16.027 106.176 c 18.801 106.793 21.547 105.043 22.164 102.27
 c 33.043 53.305 l 268.016 106.172 l 268.387 106.258 268.766 106.301 269.148
 106.297 c 271.988 106.293 274.285 103.984 274.281 101.145 c 274.277 98.746
 272.613 96.668 270.27 96.141 c h
270.27 96.141 m f
241.129 66.383 m 97.129 6.383 l 94.625 5.34 91.742 6.414 90.527 8.84 c 
78.527 32.84 l 77.172 35.344 78.105 38.477 80.613 39.832 c 83.121 41.188
 86.25 40.254 87.605 37.746 c 87.66 37.648 87.711 37.547 87.758 37.445 c
 87.758 37.457 l 97.602 17.754 l 237.156 75.898 l 239.785 76.996 242.805
 75.758 243.898 73.129 c 244.996 70.5 243.758 67.48 241.129 66.383 c h
241.129 66.383 m f
244.766 144.012 m 197.141 144.012 l 194.301 144.012 192 146.316 192 149.156
 c 192 151.996 194.301 154.297 197.141 154.297 c 244.766 154.297 l 247.602
 154.297 249.906 151.996 249.906 149.156 c 249.906 146.316 247.602 144.012
 244.766 144.012 c h
244.766 144.012 m f
149.141 144.355 m 119.98 144.355 96.344 167.992 96.344 197.156 c 96.371
 226.305 119.992 249.926 149.141 249.953 c 178.305 249.953 201.941 226.316
 201.941 197.156 c 201.941 167.992 178.305 144.355 149.141 144.355 c h
149.141 240.355 m 125.281 240.355 105.941 221.016 105.941 197.156 c 105.969
 173.309 125.293 153.98 149.141 153.953 c 173 153.953 192.344 173.297 192.344
 197.156 c 192.344 221.016 173 240.355 149.141 240.355 c h
149.141 240.355 m f
293.141 161.156 m 261.344 161.156 227.141 168.668 227.141 185.156 c 227.141
 329.156 l 227.141 345.645 261.344 353.156 293.141 353.156 c 324.941 353.156
 359.141 345.645 359.141 329.156 c 359.141 185.156 l 359.141 168.668 324.941
 161.156 293.141 161.156 c h
347.141 329.066 m 346.234 332.395 328.242 341.156 293.141 341.156 c 258.043
 341.156 240.047 332.395 239.141 329.156 c 239.141 319.723 l 251.91 326.156
 273 329.156 293.141 329.156 c 313.285 329.156 334.379 326.125 347.141 319.715
 c h
347.141 305.066 m 346.234 308.395 328.242 317.156 293.141 317.156 c 258.043
 317.156 240.047 308.395 239.141 305.156 c 239.141 295.723 l 251.91 302.156
 273 305.156 293.141 305.156 c 313.285 305.156 334.379 302.125 347.141 295.715
 c h
347.141 281.066 m 346.234 284.395 328.242 293.156 293.141 293.156 c 258.043
 293.156 240.047 284.395 239.141 281.156 c 239.141 271.723 l 251.91 278.156
 273 281.156 293.141 281.156 c 313.285 281.156 334.379 278.125 347.141 271.715
 c h
347.141 257.066 m 346.234 260.395 328.242 269.156 293.141 269.156 c 258.043
 269.156 240.047 260.395 239.141 257.156 c 239.141 247.723 l 251.91 254.156
 273 257.156 293.141 257.156 c 313.285 257.156 334.379 254.125 347.141 247.715
 c h
347.141 233.066 m 346.234 236.395 328.242 245.156 293.141 245.156 c 258.043
 245.156 240.047 236.395 239.141 233.156 c 239.141 223.723 l 251.91 230.125
 273 233.156 293.141 233.156 c 313.285 233.156 334.379 230.125 347.141 223.715
 c h
347.141 209.066 m 346.234 212.395 328.242 221.156 293.141 221.156 c 258.043
 221.156 240.047 212.395 239.141 209.156 c 239.141 199.723 l 251.91 206.125
 273 209.156 293.141 209.156 c 313.285 209.156 334.379 206.125 347.141 199.715
 c h
293.141 197.156 m 258.098 197.156 240.109 188.418 239.141 185.262 c 239.141
 185.227 l 240.109 181.883 258.098 173.156 293.141 173.156 c 327.941 173.156
 345.941 181.758 347.141 185.156 c 345.941 188.551 327.941 197.156 293.141
 197.156 c h
293.141 197.156 m f
101.141 240.008 m 55.789 240.008 l 34.285 216.488 l 34.285 177.488 l 58.031
 154.297 l 101.141 154.297 l 103.98 154.297 106.285 151.996 106.285 149.156
 c 106.285 146.316 103.98 144.012 101.141 144.012 c 55.945 144.012 l 54.602
 144.008 53.309 144.535 52.344 145.473 c 25.543 171.613 l 24.539 172.781
 23.992 174.273 23.992 175.812 c 23.992 218.484 l 23.992 219.77 24.473 221.004
 25.34 221.953 c 49.715 248.617 l 50.691 249.684 52.07 250.293 53.516 250.289
 c 101.141 250.289 l 103.98 250.289 106.285 247.988 106.285 245.148 c 106.285
 242.309 103.98 240.008 101.141 240.008 c h
101.141 240.008 m f
152.141 191.156 m 146.141 191.156 l 144.277 191.156 143.141 190.109 143.141
 189.656 c 143.141 189.199 144.277 188.156 146.141 188.156 c 161.141 188.156
 l 164.457 188.156 167.141 185.469 167.141 182.156 c 167.141 178.84 164.457
 176.156 161.141 176.156 c 155.141 176.156 l 155.141 172.84 152.457 170.156
 149.141 170.156 c 145.828 170.156 143.141 172.84 143.141 176.156 c 143.141
 176.426 l 136.488 177.363 131.445 182.91 131.141 189.625 c 131.57 197.492
 138.273 203.535 146.141 203.156 c 152.141 203.156 l 154.008 203.156 155.141
 204.199 155.141 204.656 c 155.141 205.109 154.008 206.156 152.141 206.156
 c 137.141 206.156 l 133.828 206.156 131.141 208.84 131.141 212.156 c 131.141
 215.469 133.828 218.156 137.141 218.156 c 143.141 218.156 l 143.141 221.469
 145.828 224.156 149.141 224.156 c 152.457 224.156 155.141 221.469 155.141
 218.156 c 155.141 217.883 l 161.797 216.945 166.84 211.398 167.141 204.684
 c 166.711 196.816 160.012 190.773 152.141 191.156 c h
152.141 191.156 m f
Q Q
showpage
%%Trailer
end
%%EOF
