%!PS-Adobe-3.0 EPSF-3.0
%%Creator: cairo 1.15.12 (http://cairographics.org)
%%CreationDate: Sat Nov  2 14:21:25 2019
%%Pages: 1
%%DocumentData: Clean7Bit
%%LanguageLevel: 2
%%BoundingBox: 0 0 361 361
%%EndComments
%%BeginProlog
50 dict begin
/q { gsave } bind def
/Q { grestore } bind def
/cm { 6 array astore concat } bind def
/w { setlinewidth } bind def
/J { setlinecap } bind def
/j { setlinejoin } bind def
/M { setmiterlimit } bind def
/d { setdash } bind def
/m { moveto } bind def
/l { lineto } bind def
/c { curveto } bind def
/h { closepath } bind def
/re { exch dup neg 3 1 roll 5 3 roll moveto 0 rlineto
      0 exch rlineto 0 rlineto closepath } bind def
/S { stroke } bind def
/f { fill } bind def
/f* { eofill } bind def
/n { newpath } bind def
/W { clip } bind def
/W* { eoclip } bind def
/BT { } bind def
/ET { } bind def
/BDC { mark 3 1 roll /BDC pdfmark } bind def
/EMC { mark /EMC pdfmark } bind def
/cairo_store_point { /cairo_point_y exch def /cairo_point_x exch def } def
/Tj { show currentpoint cairo_store_point } bind def
/TJ {
  {
    dup
    type /stringtype eq
    { show } { -0.001 mul 0 cairo_font_matrix dtransform rmoveto } ifelse
  } forall
  currentpoint cairo_store_point
} bind def
/cairo_selectfont { cairo_font_matrix aload pop pop pop 0 0 6 array astore
    cairo_font exch selectfont cairo_point_x cairo_point_y moveto } bind def
/Tf { pop /cairo_font exch def /cairo_font_matrix where
      { pop cairo_selectfont } if } bind def
/Td { matrix translate cairo_font_matrix matrix concatmatrix dup
      /cairo_font_matrix exch def dup 4 get exch 5 get cairo_store_point
      /cairo_font where { pop cairo_selectfont } if } bind def
/Tm { 2 copy 8 2 roll 6 array astore /cairo_font_matrix exch def
      cairo_store_point /cairo_font where { pop cairo_selectfont } if } bind def
/g { setgray } bind def
/rg { setrgbcolor } bind def
/d1 { setcachedevice } bind def
/cairo_data_source {
  CairoDataIndex CairoData length lt
    { CairoData CairoDataIndex get /CairoDataIndex CairoDataIndex 1 add def }
    { () } ifelse
} def
/cairo_flush_ascii85_file { cairo_ascii85_file status { cairo_ascii85_file flushfile } if } def
/cairo_image { image cairo_flush_ascii85_file } def
/cairo_imagemask { imagemask cairo_flush_ascii85_file } def
%%EndProlog
%%BeginSetup
%%EndSetup
%%Page: 1 1
%%BeginPageSetup
%%PageBoundingBox: 0 0 361 361
%%EndPageSetup
q 0 0 361 361 rectclip
1 0 0 -1 0 361 cm q
0 g
30.004 36.004 78 12 re f
30.004 60.004 78 12 re f
30.004 84.004 54 12 re f
30.004 108.004 54 12 re f
0.004 348.004 360 12 re f
347.371 51.324 m 323.371 3.324 l 321.891 0.355 318.289 -0.848 315.324 0.633
 c 315.324 0.633 315.32 0.633 315.32 0.633 c 267.32 24.633 l 264.355 26.117
 263.152 29.723 264.633 32.688 c 266.113 35.652 269.719 36.855 272.684 35.375
 c 307.449 18.004 l 297.961 45.09 l 256.266 163.836 148.875 247.141 23.492
 258.004 c 24.512 270.004 l 154.621 258.734 266.055 172.277 309.297 49.047
 c 318.98 21.375 l 336.633 56.688 l 338.113 59.652 341.719 60.855 344.684
 59.375 c 347.652 57.895 348.852 54.289 347.371 51.324 c h
347.371 51.324 m f
72.004 288.004 m 30.004 288.004 l 26.688 288.004 24.004 290.691 24.004 
294.004 c 24.004 330.004 l 24.004 333.316 26.688 336.004 30.004 336.004 
c 72.004 336.004 l 75.316 336.004 78.004 333.316 78.004 330.004 c 78.004
 294.004 l 78.004 290.691 75.316 288.004 72.004 288.004 c h
66.004 324.004 m 36.004 324.004 l 36.004 300.004 l 66.004 300.004 l h
66.004 324.004 m f
138.004 270.004 m 96.004 270.004 l 92.688 270.004 90.004 272.691 90.004
 276.004 c 90.004 330.004 l 90.004 333.316 92.688 336.004 96.004 336.004
 c 138.004 336.004 l 141.316 336.004 144.004 333.316 144.004 330.004 c 144.004
 276.004 l 144.004 272.691 141.316 270.004 138.004 270.004 c h
132.004 324.004 m 102.004 324.004 l 102.004 282.004 l 132.004 282.004 l
 h
132.004 324.004 m f
204.004 240.004 m 162.004 240.004 l 158.688 240.004 156.004 242.691 156.004
 246.004 c 156.004 330.004 l 156.004 333.316 158.688 336.004 162.004 336.004
 c 204.004 336.004 l 207.316 336.004 210.004 333.316 210.004 330.004 c 210.004
 246.004 l 210.004 242.691 207.316 240.004 204.004 240.004 c h
198.004 324.004 m 168.004 324.004 l 168.004 252.004 l 198.004 252.004 l
 h
198.004 324.004 m f
270.004 198.004 m 228.004 198.004 l 224.688 198.004 222.004 200.691 222.004
 204.004 c 222.004 330.004 l 222.004 333.316 224.688 336.004 228.004 336.004
 c 270.004 336.004 l 273.316 336.004 276.004 333.316 276.004 330.004 c 276.004
 204.004 l 276.004 200.691 273.316 198.004 270.004 198.004 c h
264.004 324.004 m 234.004 324.004 l 234.004 210.004 l 264.004 210.004 l
 h
264.004 324.004 m f
336.004 114.004 m 294.004 114.004 l 290.688 114.004 288.004 116.691 288.004
 120.004 c 288.004 330.004 l 288.004 333.316 290.688 336.004 294.004 336.004
 c 336.004 336.004 l 339.316 336.004 342.004 333.316 342.004 330.004 c 342.004
 120.004 l 342.004 116.691 339.316 114.004 336.004 114.004 c h
330.004 324.004 m 300.004 324.004 l 300.004 126.004 l 330.004 126.004 l
 h
330.004 324.004 m f
Q Q
showpage
%%Trailer
end
%%EOF
