%!PS-Adobe-3.0 EPSF-3.0
%%Creator: cairo 1.15.12 (http://cairographics.org)
%%CreationDate: Sat Nov  2 14:21:25 2019
%%Pages: 1
%%DocumentData: Clean7Bit
%%LanguageLevel: 2
%%BoundingBox: 0 15 384 369
%%EndComments
%%BeginProlog
50 dict begin
/q { gsave } bind def
/Q { grestore } bind def
/cm { 6 array astore concat } bind def
/w { setlinewidth } bind def
/J { setlinecap } bind def
/j { setlinejoin } bind def
/M { setmiterlimit } bind def
/d { setdash } bind def
/m { moveto } bind def
/l { lineto } bind def
/c { curveto } bind def
/h { closepath } bind def
/re { exch dup neg 3 1 roll 5 3 roll moveto 0 rlineto
      0 exch rlineto 0 rlineto closepath } bind def
/S { stroke } bind def
/f { fill } bind def
/f* { eofill } bind def
/n { newpath } bind def
/W { clip } bind def
/W* { eoclip } bind def
/BT { } bind def
/ET { } bind def
/BDC { mark 3 1 roll /BDC pdfmark } bind def
/EMC { mark /EMC pdfmark } bind def
/cairo_store_point { /cairo_point_y exch def /cairo_point_x exch def } def
/Tj { show currentpoint cairo_store_point } bind def
/TJ {
  {
    dup
    type /stringtype eq
    { show } { -0.001 mul 0 cairo_font_matrix dtransform rmoveto } ifelse
  } forall
  currentpoint cairo_store_point
} bind def
/cairo_selectfont { cairo_font_matrix aload pop pop pop 0 0 6 array astore
    cairo_font exch selectfont cairo_point_x cairo_point_y moveto } bind def
/Tf { pop /cairo_font exch def /cairo_font_matrix where
      { pop cairo_selectfont } if } bind def
/Td { matrix translate cairo_font_matrix matrix concatmatrix dup
      /cairo_font_matrix exch def dup 4 get exch 5 get cairo_store_point
      /cairo_font where { pop cairo_selectfont } if } bind def
/Tm { 2 copy 8 2 roll 6 array astore /cairo_font_matrix exch def
      cairo_store_point /cairo_font where { pop cairo_selectfont } if } bind def
/g { setgray } bind def
/rg { setrgbcolor } bind def
/d1 { setcachedevice } bind def
/cairo_data_source {
  CairoDataIndex CairoData length lt
    { CairoData CairoDataIndex get /CairoDataIndex CairoDataIndex 1 add def }
    { () } ifelse
} def
/cairo_flush_ascii85_file { cairo_ascii85_file status { cairo_ascii85_file flushfile } if } def
/cairo_image { image cairo_flush_ascii85_file } def
/cairo_imagemask { imagemask cairo_flush_ascii85_file } def
%%EndProlog
%%BeginSetup
%%EndSetup
%%Page: 1 1
%%BeginPageSetup
%%PageBoundingBox: 0 15 384 369
%%EndPageSetup
q 0 15 384 354 rectclip
1 0 0 -1 0 384 cm q
0 g
234.664 107.539 m 236.129 109.004 238.051 109.734 239.969 109.734 c 241.887
 109.734 243.809 109.004 245.273 107.539 c 248.199 104.609 248.199 99.859
 245.273 96.93 c 245.172 96.828 l 242.242 93.898 237.492 93.898 234.562 
96.828 c 231.633 99.758 231.633 104.508 234.562 107.438 c h
234.664 107.539 m f
355.66 178.5 m 381.805 152.359 l 383.949 150.215 384.59 146.988 383.43 
144.184 c 382.266 141.383 379.531 139.555 376.5 139.555 c 322.312 139.555
 l 315.227 110.559 300.363 84.141 279.109 62.887 c 248.23 32.008 207.172
 15 163.5 15 c 119.828 15 78.77 32.008 47.887 62.887 c 17.008 93.77 0 134.828
 0 178.5 c 0 222.172 17.008 263.23 47.887 294.113 c 57.07 303.293 67.16 
311.242 77.945 317.887 c 55.348 357.805 l 54.035 360.129 54.051 362.973 
55.398 365.277 c 56.738 367.582 59.207 369 61.875 369 c 100.5 369 l 103.203
 369 105.695 367.547 107.027 365.195 c 123.004 336.969 l 136.078 340.285
 149.656 342 163.5 342 c 177.344 342 190.922 340.285 203.996 336.969 c 219.973
 365.195 l 221.305 367.547 223.797 369 226.5 369 c 265.125 369 l 267.793
 369 270.262 367.582 271.605 365.277 c 272.949 362.973 272.965 360.129 271.652
 357.805 c 249.059 317.887 l 259.84 311.242 269.93 303.297 279.113 294.113
 c 300.355 272.871 315.23 246.438 322.312 217.445 c 376.5 217.445 l 379.531
 217.445 382.27 215.617 383.43 212.816 c 384.59 210.012 383.949 206.785 
381.805 204.641 c h
341.949 171 m 289.605 171 l 306.051 154.555 l 358.395 154.555 l h
96.125 354 m 74.738 354 l 91.062 325.16 l 96.664 327.934 102.418 330.387
 108.301 332.492 c h
252.262 354 m 230.875 354 l 218.699 332.492 l 224.582 330.387 230.336 327.934
 235.938 325.16 c h
268.504 283.504 m 258.598 293.414 247.531 301.738 235.621 308.375 c 235.473
 308.449 235.324 308.516 235.18 308.598 c 235.09 308.648 235.008 308.707
 234.918 308.762 c 225.781 313.789 216.152 317.824 206.164 320.805 c 205.77
 320.883 205.383 321 205 321.145 c 191.684 324.996 177.746 327 163.5 327
 c 149.254 327 135.316 324.996 122 321.145 c 121.617 321 121.23 320.883 
120.836 320.805 c 110.844 317.824 101.219 313.789 92.082 308.766 c 91.992
 308.711 91.91 308.648 91.82 308.598 c 91.676 308.516 91.527 308.449 91.379
 308.379 c 79.469 301.738 68.402 293.414 58.496 283.504 c 30.445 255.457
 15 218.164 15 178.5 c 15 138.836 30.445 101.543 58.496 73.496 c 86.543 
45.445 123.836 30 163.5 30 c 203.164 30 240.457 45.445 268.504 73.496 c 
286.934 91.926 300.078 114.629 306.828 139.555 c 302.945 139.555 l 300.957
 139.555 299.047 140.348 297.641 141.754 c 277.734 161.656 l 275.727 148.023
 271.32 134.766 264.664 122.707 c 262.66 119.078 258.098 117.766 254.473
 119.766 c 250.844 121.766 249.527 126.328 251.531 129.957 c 258.648 142.852
 262.629 156.871 263.645 171 c 230.578 171 l 228.906 155.809 222.195 141.734
 211.23 130.773 c 198.48 118.023 181.531 111 163.5 111 c 145.469 111 128.52
 118.023 115.77 130.77 c 103.023 143.52 96 160.469 96 178.5 c 96 196.531
 103.023 213.48 115.77 226.23 c 128.52 238.977 145.469 246 163.5 246 c 181.531
 246 198.48 238.977 211.23 226.23 c 222.191 215.266 228.906 201.191 230.574
 186 c 263.613 186 l 261.824 209.445 251.93 232.195 234.562 249.562 c 215.582
 268.547 190.344 279 163.5 279 c 136.656 279 111.418 268.547 92.438 249.562
 c 73.453 230.582 63 205.344 63 178.5 c 63 151.656 73.453 126.418 92.438
 107.438 c 123.922 75.949 173.109 68.973 212.043 90.469 c 215.672 92.473
 220.234 91.156 222.234 87.531 c 224.238 83.902 222.922 79.34 219.293 77.34
 c 197.812 65.477 172.516 60.75 148.066 64.031 c 122.805 67.418 99.898 78.762
 81.828 96.828 c 60.016 118.645 48 147.648 48 178.5 c 48 209.352 60.016 
238.355 81.828 260.172 c 103.645 281.984 132.648 294 163.5 294 c 194.352
 294 223.355 281.984 245.172 260.172 c 262.898 242.445 274.141 220.066 277.762
 195.371 c 297.641 215.25 l 299.047 216.656 300.957 217.445 302.945 217.445
 c 306.828 217.445 l 300.078 242.371 286.926 265.082 268.504 283.504 c h
187.996 164.359 m 185.926 160.77 181.336 159.543 177.75 161.613 c 159.75
 172.004 l 157.43 173.344 156 175.82 156 178.5 c 156 181.18 157.43 183.656
 159.75 184.996 c 177.75 195.387 l 178.93 196.07 180.219 196.395 181.492
 196.395 c 184.086 196.395 186.605 195.047 187.996 192.641 c 189.211 190.535
 189.281 188.086 188.41 186 c 215.465 186 l 213.875 197.176 208.75 207.496
 200.621 215.621 c 190.707 225.539 177.523 231 163.5 231 c 149.477 231 136.293
 225.539 126.375 215.621 c 116.461 205.707 111 192.523 111 178.5 c 111 164.477
 116.461 151.293 126.379 141.375 c 136.293 131.461 149.477 126 163.5 126
 c 177.523 126 190.707 131.461 200.625 141.379 c 208.75 149.504 213.875 
159.824 215.465 171 c 188.41 171 l 189.281 168.914 189.211 166.465 187.996
 164.359 c h
306.051 202.445 m 289.605 186 l 341.949 186 l 358.395 202.445 l h
306.051 202.445 m f
Q Q
showpage
%%Trailer
end
%%EOF
