%!PS-Adobe-3.0 EPSF-3.0
%%Creator: cairo 1.15.12 (http://cairographics.org)
%%CreationDate: Sat Nov  2 14:21:25 2019
%%Pages: 1
%%DocumentData: Clean7Bit
%%LanguageLevel: 2
%%BoundingBox: 0 0 372 372
%%EndComments
%%BeginProlog
50 dict begin
/q { gsave } bind def
/Q { grestore } bind def
/cm { 6 array astore concat } bind def
/w { setlinewidth } bind def
/J { setlinecap } bind def
/j { setlinejoin } bind def
/M { setmiterlimit } bind def
/d { setdash } bind def
/m { moveto } bind def
/l { lineto } bind def
/c { curveto } bind def
/h { closepath } bind def
/re { exch dup neg 3 1 roll 5 3 roll moveto 0 rlineto
      0 exch rlineto 0 rlineto closepath } bind def
/S { stroke } bind def
/f { fill } bind def
/f* { eofill } bind def
/n { newpath } bind def
/W { clip } bind def
/W* { eoclip } bind def
/BT { } bind def
/ET { } bind def
/BDC { mark 3 1 roll /BDC pdfmark } bind def
/EMC { mark /EMC pdfmark } bind def
/cairo_store_point { /cairo_point_y exch def /cairo_point_x exch def } def
/Tj { show currentpoint cairo_store_point } bind def
/TJ {
  {
    dup
    type /stringtype eq
    { show } { -0.001 mul 0 cairo_font_matrix dtransform rmoveto } ifelse
  } forall
  currentpoint cairo_store_point
} bind def
/cairo_selectfont { cairo_font_matrix aload pop pop pop 0 0 6 array astore
    cairo_font exch selectfont cairo_point_x cairo_point_y moveto } bind def
/Tf { pop /cairo_font exch def /cairo_font_matrix where
      { pop cairo_selectfont } if } bind def
/Td { matrix translate cairo_font_matrix matrix concatmatrix dup
      /cairo_font_matrix exch def dup 4 get exch 5 get cairo_store_point
      /cairo_font where { pop cairo_selectfont } if } bind def
/Tm { 2 copy 8 2 roll 6 array astore /cairo_font_matrix exch def
      cairo_store_point /cairo_font where { pop cairo_selectfont } if } bind def
/g { setgray } bind def
/rg { setrgbcolor } bind def
/d1 { setcachedevice } bind def
/cairo_data_source {
  CairoDataIndex CairoData length lt
    { CairoData CairoDataIndex get /CairoDataIndex CairoDataIndex 1 add def }
    { () } ifelse
} def
/cairo_flush_ascii85_file { cairo_ascii85_file status { cairo_ascii85_file flushfile } if } def
/cairo_image { image cairo_flush_ascii85_file } def
/cairo_imagemask { imagemask cairo_flush_ascii85_file } def
%%EndProlog
%%BeginSetup
%%EndSetup
%%Page: 1 1
%%BeginPageSetup
%%PageBoundingBox: 0 0 372 372
%%EndPageSetup
q 0 0 372 372 rectclip
1 0 0 -1 0 372 cm q
0 g
301.895 324 m 288.004 282.324 l 283.148 267.773 270.766 257.035 255.668
 254.285 c 215.57 246.988 l 215.57 243.883 l 222.551 239.832 228.621 234.414
 233.457 228 c 245.57 228 l 255.496 228 263.57 219.926 263.57 210 c 263.57
 138 l 263.57 94.992 228.578 60 185.57 60 c 142.562 60 107.57 94.992 107.57
 138 c 107.57 180 l 107.57 191.566 115.797 201.246 126.703 203.504 c 130.07
 220.746 140.848 235.34 155.57 243.883 c 155.57 246.988 l 115.469 254.285
 l 100.379 257.035 87.988 267.773 83.141 282.324 c 80.738 289.531 l 60.305
 269.094 l 57.965 266.754 57.965 262.945 60.305 260.605 c 84.004 236.91 
l 39.52 192.426 l 12.734 219.211 l 4.805 227.141 0.434 237.691 0.434 248.91
 c 0.434 260.129 4.805 270.672 12.734 278.605 c 93.824 359.695 l 101.758
 367.625 112.305 372 123.523 372 c 134.746 372 145.285 367.625 153.031 359.875
 c 182.258 333.098 l 173.145 324 l h
251.57 210 m 251.57 213.312 248.879 216 245.57 216 c 240.523 216 l 242.266
 212.035 243.586 207.852 244.438 203.504 c 247.004 202.969 249.367 201.949
 251.57 200.664 c h
245.57 190.332 m 245.57 169.668 l 249.141 171.75 251.57 175.578 251.57 
180 c 251.57 184.422 249.141 188.25 245.57 190.332 c h
125.57 190.332 m 122 188.25 119.57 184.422 119.57 180 c 119.57 175.578 
122 171.75 125.57 169.668 c h
125.57 150 m 125.57 156.852 l 123.434 157.41 121.43 158.25 119.57 159.336
 c 119.57 138 l 119.57 101.609 149.18 72 185.57 72 c 221.961 72 251.57 101.609
 251.57 138 c 251.57 159.336 l 249.711 158.25 247.707 157.402 245.57 156.852
 c 245.57 150 l 239.57 150 l 221.828 150 205.148 143.09 192.598 130.543 
c 185.57 123.516 l 178.547 130.543 l 165.992 143.09 149.312 150 131.57 150
 c h
137.57 192 m 137.57 161.773 l 155.59 160.414 172.391 152.98 185.57 140.449
 c 198.754 152.98 215.555 160.422 233.57 161.773 c 233.57 192 l 233.57 200.746
 231.184 208.934 227.078 216 c 185.57 216 l 185.57 228 l 217.215 228 l 208.754
 235.445 197.695 240 185.57 240 c 159.105 240 137.57 218.465 137.57 192 
c h
203.57 249.234 m 203.57 249.516 l 185.57 267.516 l 167.57 249.516 l 167.57
 249.234 l 173.258 251.023 179.301 252 185.57 252 c 191.84 252 197.883 251.023
 203.57 249.234 c h
94.516 286.117 m 97.977 275.723 106.828 268.051 117.609 266.082 c 159.551
 258.461 l 185.57 284.484 l 211.586 258.469 l 253.52 266.09 l 264.305 268.055
 273.152 275.723 276.613 286.121 c 285.25 312 l 161.145 312 l 137.773 288.629
 l 111.809 312.121 l 109.547 314.395 105.59 314.395 103.324 312.121 c 90.219
 299.016 l h
39.512 209.395 m 67.027 236.91 l 60.512 243.426 l 32.996 215.91 l h
144.723 351.223 m 139.059 356.875 131.523 360 123.512 360 c 115.504 360
 107.969 356.875 102.297 351.211 c 21.207 270.125 l 15.543 264.461 12.422
 256.926 12.422 248.914 c 12.422 240.898 15.543 233.363 21.207 227.699 c
 24.508 224.398 l 52.023 251.914 l 51.809 252.133 l 44.793 259.152 44.793
 270.57 51.809 277.59 c 94.832 320.617 l 98.234 324.012 102.754 325.891 
107.566 325.891 c 112.379 325.891 116.895 324.02 120.074 320.824 c 120.523
 320.426 l 148.168 348.066 l h
157.023 339.941 m 129.441 312.359 l 137.367 305.195 l 164.902 332.73 l 
h
157.023 339.941 m f
353.57 0 m 269.57 0 l 259.648 0 251.57 8.074 251.57 18 c 251.57 66 l 251.57
 75.926 259.648 84 269.57 84 c 285.598 84 l 279.395 120.188 l 337.293 84
 l 353.57 84 l 363.496 84 371.57 75.926 371.57 66 c 371.57 18 l 371.57 8.074
 363.496 0 353.57 0 c h
359.57 66 m 359.57 69.305 356.879 72 353.57 72 c 333.848 72 l 295.742 95.812
 l 299.828 72 l 269.57 72 l 266.266 72 263.57 69.305 263.57 66 c 263.57 
18 l 263.57 14.695 266.266 12 269.57 12 c 353.57 12 l 356.879 12 359.57 
14.695 359.57 18 c h
359.57 66 m f
275.57 24 72 12 re f
275.57 48 48 12 re f
335.57 48 12 12 re f
185.57 18 m 107.176 18 39.645 72.227 22.09 147.871 c 10.719 128.914 l 0.43
 135.09 l 21.52 170.23 l 56.66 149.141 l 50.488 138.852 l 34.227 148.609
 l 51.23 79.41 113.457 30 185.57 30 c 201.332 30 216.887 32.34 231.797 36.961
 c 235.348 25.5 l 219.285 20.52 202.539 18 185.57 18 c h
185.57 18 m f
368.656 132.852 m 333.512 111.762 l 312.43 146.91 l 322.719 153.086 l 333.219
 135.582 l 338.746 151.754 341.57 168.664 341.57 186 c 341.57 221.684 329.211
 256.566 306.777 284.219 c 316.094 291.781 l 340.262 261.996 353.57 224.426
 353.57 186 c 353.57 167.645 350.613 149.723 344.848 132.562 c 362.48 143.141
 l h
368.656 132.852 m f
Q Q
showpage
%%Trailer
end
%%EOF
