%!PS-Adobe-3.0 EPSF-3.0
%%Creator: cairo 1.15.12 (http://cairographics.org)
%%CreationDate: Sat Nov  2 14:21:25 2019
%%Pages: 1
%%DocumentData: Clean7Bit
%%LanguageLevel: 2
%%BoundingBox: 0 11 493 482
%%EndComments
%%BeginProlog
50 dict begin
/q { gsave } bind def
/Q { grestore } bind def
/cm { 6 array astore concat } bind def
/w { setlinewidth } bind def
/J { setlinecap } bind def
/j { setlinejoin } bind def
/M { setmiterlimit } bind def
/d { setdash } bind def
/m { moveto } bind def
/l { lineto } bind def
/c { curveto } bind def
/h { closepath } bind def
/re { exch dup neg 3 1 roll 5 3 roll moveto 0 rlineto
      0 exch rlineto 0 rlineto closepath } bind def
/S { stroke } bind def
/f { fill } bind def
/f* { eofill } bind def
/n { newpath } bind def
/W { clip } bind def
/W* { eoclip } bind def
/BT { } bind def
/ET { } bind def
/BDC { mark 3 1 roll /BDC pdfmark } bind def
/EMC { mark /EMC pdfmark } bind def
/cairo_store_point { /cairo_point_y exch def /cairo_point_x exch def } def
/Tj { show currentpoint cairo_store_point } bind def
/TJ {
  {
    dup
    type /stringtype eq
    { show } { -0.001 mul 0 cairo_font_matrix dtransform rmoveto } ifelse
  } forall
  currentpoint cairo_store_point
} bind def
/cairo_selectfont { cairo_font_matrix aload pop pop pop 0 0 6 array astore
    cairo_font exch selectfont cairo_point_x cairo_point_y moveto } bind def
/Tf { pop /cairo_font exch def /cairo_font_matrix where
      { pop cairo_selectfont } if } bind def
/Td { matrix translate cairo_font_matrix matrix concatmatrix dup
      /cairo_font_matrix exch def dup 4 get exch 5 get cairo_store_point
      /cairo_font where { pop cairo_selectfont } if } bind def
/Tm { 2 copy 8 2 roll 6 array astore /cairo_font_matrix exch def
      cairo_store_point /cairo_font where { pop cairo_selectfont } if } bind def
/g { setgray } bind def
/rg { setrgbcolor } bind def
/d1 { setcachedevice } bind def
/cairo_data_source {
  CairoDataIndex CairoData length lt
    { CairoData CairoDataIndex get /CairoDataIndex CairoDataIndex 1 add def }
    { () } ifelse
} def
/cairo_flush_ascii85_file { cairo_ascii85_file status { cairo_ascii85_file flushfile } if } def
/cairo_image { image cairo_flush_ascii85_file } def
/cairo_imagemask { imagemask cairo_flush_ascii85_file } def
%%EndProlog
%%BeginSetup
%%EndSetup
%%Page: 1 1
%%BeginPageSetup
%%PageBoundingBox: 0 11 493 482
%%EndPageSetup
q 0 11 493 471 rectclip
1 0 0 -1 0 493 cm q
0 g
377.754 81.734 m 377.969 81.75 378.184 81.766 378.402 81.766 c 378.773 
81.766 379.141 81.734 379.504 81.684 c 389.211 81.883 396.98 89.797 396.992
 99.508 c 396.992 103.918 400.57 107.492 404.98 107.492 c 409.391 107.492
 412.969 103.918 412.969 99.508 c 412.949 83.629 401.895 69.895 386.387 
66.477 c 386.387 58.801 l 386.387 54.391 382.812 50.812 378.402 50.812 c
 373.992 50.812 370.414 54.391 370.414 58.801 c 370.414 66.84 l 354.02 71.223
 343.41 87.086 345.621 103.914 c 347.832 120.742 362.176 133.324 379.148
 133.324 c 389.004 133.324 396.992 141.316 396.992 151.172 c 396.992 161.023
 389.004 169.012 379.148 169.012 c 369.293 169.012 361.309 161.023 361.309
 151.172 c 361.309 146.758 357.73 143.184 353.32 143.184 c 348.91 143.184
 345.332 146.758 345.332 151.172 c 345.352 166.473 355.633 179.863 370.414
 183.836 c 370.414 192.59 l 370.414 197 373.992 200.578 378.402 200.578 
c 382.812 200.578 386.387 197 386.387 192.59 c 386.387 184.203 l 403.258
 180.512 414.633 164.699 412.773 147.531 c 410.918 130.363 396.418 117.352
 379.148 117.355 c 369.566 117.359 361.695 109.793 361.316 100.219 c 360.941
 90.645 368.199 82.48 377.754 81.738 c h
377.754 81.734 m f
379.605 11.762 m 330.469 11.762 288.535 43.824 272.824 86.758 c 74.582 
86.758 l 70.191 86.758 66.625 90.715 66.594 95.102 c 64.707 375.301 l 8.199
 375.301 l 3.785 375.301 0 378.496 0 382.914 c 0 418.469 l 0.102 451.945
 26.465 479.445 59.906 480.957 c 59.906 481.133 l 306.516 481.133 l 306.516
 480.898 l 308.512 480.973 309.336 481.133 310.598 481.133 c 310.77 481.133
 l 345.379 481.078 373.41 453.004 373.41 418.395 c 373.41 238.617 l 375.406
 238.727 377.52 238.785 379.586 238.785 c 442.117 238.785 493 187.805 493
 125.27 c 493 62.738 442.141 11.762 379.605 11.762 c h
62.945 465.156 m 62.895 465.156 l 37.055 465.121 16.09 444.23 15.977 418.387
 c 15.977 391.273 l 247.609 391.273 l 247.609 418.273 l 247.621 434.945 
254.277 450.922 266.102 462.672 c 266.941 463.512 267.98 464.16 268.859 
465.156 c h
357.434 418.387 m 357.438 444.184 336.555 465.105 310.762 465.156 c 310.609
 465.156 l 284.715 465.109 263.711 444.176 263.582 418.281 c 263.582 382.914
 l 263.648 380.871 262.871 378.891 261.422 377.449 c 259.977 376.008 258
 375.23 255.957 375.301 c 80.68 375.301 l 82.516 102.73 l 268.391 102.73
 l 266.977 110.043 266.242 117.469 266.203 124.914 c 266.188 140.66 269.473
 156.23 275.844 170.625 c 200.402 170.625 l 195.988 170.625 192.414 174.199
 192.414 178.609 c 192.414 183.023 195.988 186.598 200.402 186.598 c 284.512
 186.598 l 300.988 212.512 327.328 230.574 357.434 236.621 c h
379.605 222.816 m 325.801 222.816 282.18 179.195 282.184 125.387 c 282.184
 71.578 325.801 27.961 379.609 27.961 c 433.414 27.961 477.035 71.582 477.035
 125.387 c 476.977 179.168 433.391 222.758 379.605 222.816 c h
379.605 222.816 m f
149.133 223.781 m 135.031 223.781 123.566 234.887 123.566 248.535 c 123.566
 262.188 135.031 273.289 149.133 273.289 c 163.23 273.289 174.699 262.188
 174.699 248.535 c 174.699 234.887 163.23 223.781 149.133 223.781 c h
149.133 257.316 m 143.84 257.316 139.539 253.375 139.539 248.535 c 139.539
 243.691 143.844 239.758 149.133 239.758 c 154.418 239.758 158.727 243.695
 158.727 248.535 c 158.727 253.375 154.418 257.316 149.133 257.316 c h
149.133 257.316 m f
192.414 248.5 m 192.414 252.91 195.988 256.488 200.402 256.488 c 306.891
 256.488 l 311.301 256.488 314.875 252.91 314.875 248.5 c 314.875 244.09
 311.301 240.512 306.891 240.512 c 200.402 240.512 l 195.988 240.512 192.414
 244.09 192.414 248.5 c h
192.414 248.5 m f
149.133 154.348 m 135.031 154.348 123.566 165.457 123.566 179.105 c 123.566
 192.758 135.031 203.859 149.133 203.859 c 163.23 203.859 174.699 192.758
 174.699 179.105 c 174.699 165.457 163.23 154.348 149.133 154.348 c h
149.133 187.887 m 143.84 187.887 139.539 183.945 139.539 179.105 c 139.539
 174.266 143.844 170.324 149.133 170.324 c 154.418 170.324 158.727 174.262
 158.727 179.105 c 158.727 183.945 154.418 187.891 149.133 187.891 c h
149.133 187.887 m f
149.133 293.207 m 135.031 293.207 123.566 304.312 123.566 317.961 c 123.566
 331.613 135.031 342.715 149.133 342.715 c 163.23 342.715 174.699 331.613
 174.699 317.961 c 174.699 304.312 163.23 293.207 149.133 293.207 c h
149.133 326.738 m 143.84 326.738 139.539 322.805 139.539 317.961 c 139.539
 313.121 143.844 309.184 149.133 309.184 c 154.418 309.184 158.727 313.121
 158.727 317.961 c 158.727 322.801 154.418 326.738 149.133 326.738 c h
149.133 326.738 m f
306.891 310.402 m 200.402 310.402 l 195.988 310.402 192.414 313.98 192.414
 318.391 c 192.414 322.801 195.988 326.379 200.402 326.379 c 306.891 326.379
 l 311.301 326.379 314.875 322.801 314.875 318.391 c 314.875 313.98 311.301
 310.402 306.891 310.402 c h
306.891 310.402 m f
Q Q
showpage
%%Trailer
end
%%EOF
