%!PS-Adobe-3.0 EPSF-3.0
%%Creator: cairo 1.15.12 (http://cairographics.org)
%%CreationDate: Sat Nov  2 14:21:25 2019
%%Pages: 1
%%DocumentData: Clean7Bit
%%LanguageLevel: 2
%%BoundingBox: 0 0 360 361
%%EndComments
%%BeginProlog
50 dict begin
/q { gsave } bind def
/Q { grestore } bind def
/cm { 6 array astore concat } bind def
/w { setlinewidth } bind def
/J { setlinecap } bind def
/j { setlinejoin } bind def
/M { setmiterlimit } bind def
/d { setdash } bind def
/m { moveto } bind def
/l { lineto } bind def
/c { curveto } bind def
/h { closepath } bind def
/re { exch dup neg 3 1 roll 5 3 roll moveto 0 rlineto
      0 exch rlineto 0 rlineto closepath } bind def
/S { stroke } bind def
/f { fill } bind def
/f* { eofill } bind def
/n { newpath } bind def
/W { clip } bind def
/W* { eoclip } bind def
/BT { } bind def
/ET { } bind def
/BDC { mark 3 1 roll /BDC pdfmark } bind def
/EMC { mark /EMC pdfmark } bind def
/cairo_store_point { /cairo_point_y exch def /cairo_point_x exch def } def
/Tj { show currentpoint cairo_store_point } bind def
/TJ {
  {
    dup
    type /stringtype eq
    { show } { -0.001 mul 0 cairo_font_matrix dtransform rmoveto } ifelse
  } forall
  currentpoint cairo_store_point
} bind def
/cairo_selectfont { cairo_font_matrix aload pop pop pop 0 0 6 array astore
    cairo_font exch selectfont cairo_point_x cairo_point_y moveto } bind def
/Tf { pop /cairo_font exch def /cairo_font_matrix where
      { pop cairo_selectfont } if } bind def
/Td { matrix translate cairo_font_matrix matrix concatmatrix dup
      /cairo_font_matrix exch def dup 4 get exch 5 get cairo_store_point
      /cairo_font where { pop cairo_selectfont } if } bind def
/Tm { 2 copy 8 2 roll 6 array astore /cairo_font_matrix exch def
      cairo_store_point /cairo_font where { pop cairo_selectfont } if } bind def
/g { setgray } bind def
/rg { setrgbcolor } bind def
/d1 { setcachedevice } bind def
/cairo_data_source {
  CairoDataIndex CairoData length lt
    { CairoData CairoDataIndex get /CairoDataIndex CairoDataIndex 1 add def }
    { () } ifelse
} def
/cairo_flush_ascii85_file { cairo_ascii85_file status { cairo_ascii85_file flushfile } if } def
/cairo_image { image cairo_flush_ascii85_file } def
/cairo_imagemask { imagemask cairo_flush_ascii85_file } def
%%EndProlog
%%BeginSetup
%%EndSetup
%%Page: 1 1
%%BeginPageSetup
%%PageBoundingBox: 0 0 360 361
%%EndPageSetup
q 0 0 360 361 rectclip
1 0 0 -1 0 361 cm q
0 g
317.715 64.105 m 305.715 28.105 l 304.676 24.957 301.281 23.25 298.133 
24.289 c 297.852 24.383 297.578 24.496 297.312 24.629 c 261.312 42.629 l
 258.348 44.109 257.145 47.715 258.625 50.684 c 260.105 53.648 263.711 54.852
 266.676 53.371 c 286.285 43.566 l 234.684 137.934 140.582 198 42 198 c 
42 210 l 146.27 210 245.629 145.895 298.855 45.539 c 306.312 67.895 l 307.359
 71.043 310.762 72.746 313.91 71.699 c 317.059 70.652 318.762 67.25 317.715
 64.105 c h
317.715 64.105 m f
354 0 m 6 0 l 2.688 0 0 2.688 0 6 c 0 276 l 0 279.312 2.688 282 6 282 c
 111.879 282 l 90.277 352.234 l 89.305 355.402 91.082 358.762 94.25 359.734
 c 97.418 360.711 100.773 358.934 101.75 355.766 c 113.359 318 l 246.645
 318 l 258.266 355.766 l 259.238 358.934 262.598 360.711 265.766 359.734
 c 268.934 358.762 270.711 355.402 269.738 352.234 c 248.125 282 l 354 282
 l 357.316 282 360 279.312 360 276 c 360 6 l 360 2.688 357.316 0 354 0 c
 h
117.051 306 m 124.434 282 l 235.566 282 l 242.953 306 l h
348 270 m 12 270 l 12 12 l 348 12 l h
348 270 m f
72 222 m 48 222 l 44.688 222 42 224.688 42 228 c 42 252 l 42 255.312 44.688
 258 48 258 c 72 258 l 75.316 258 78 255.312 78 252 c 78 228 l 78 224.688
 75.316 222 72 222 c h
66 246 m 54 246 l 54 234 l 66 234 l h
66 246 m f
132 210 m 108 210 l 104.688 210 102 212.688 102 216 c 102 252 l 102 255.312
 104.688 258 108 258 c 132 258 l 135.316 258 138 255.312 138 252 c 138 216
 l 138 212.688 135.316 210 132 210 c h
126 246 m 114 246 l 114 222 l 126 222 l h
126 246 m f
192 186 m 168 186 l 164.688 186 162 188.688 162 192 c 162 252 l 162 255.312
 164.688 258 168 258 c 192 258 l 195.316 258 198 255.312 198 252 c 198 192
 l 198 188.688 195.316 186 192 186 c h
186 246 m 174 246 l 174 198 l 186 198 l h
186 246 m f
252 150 m 228 150 l 224.688 150 222 152.688 222 156 c 222 252 l 222 255.312
 224.688 258 228 258 c 252 258 l 255.316 258 258 255.312 258 252 c 258 156
 l 258 152.688 255.316 150 252 150 c h
246 246 m 234 246 l 234 162 l 246 162 l h
246 246 m f
312 84 m 288 84 l 284.688 84 282 86.688 282 90 c 282 252 l 282 255.312 
284.688 258 288 258 c 312 258 l 315.316 258 318 255.312 318 252 c 318 90
 l 318 86.688 315.316 84 312 84 c h
306 246 m 294 246 l 294 96 l 306 96 l h
306 246 m f
Q Q
showpage
%%Trailer
end
%%EOF
