%!PS-Adobe-3.0 EPSF-3.0
%%Creator: cairo 1.15.12 (http://cairographics.org)
%%CreationDate: Sat Nov  2 14:21:25 2019
%%Pages: 1
%%DocumentData: Clean7Bit
%%LanguageLevel: 2
%%BoundingBox: 0 0 360 360
%%EndComments
%%BeginProlog
50 dict begin
/q { gsave } bind def
/Q { grestore } bind def
/cm { 6 array astore concat } bind def
/w { setlinewidth } bind def
/J { setlinecap } bind def
/j { setlinejoin } bind def
/M { setmiterlimit } bind def
/d { setdash } bind def
/m { moveto } bind def
/l { lineto } bind def
/c { curveto } bind def
/h { closepath } bind def
/re { exch dup neg 3 1 roll 5 3 roll moveto 0 rlineto
      0 exch rlineto 0 rlineto closepath } bind def
/S { stroke } bind def
/f { fill } bind def
/f* { eofill } bind def
/n { newpath } bind def
/W { clip } bind def
/W* { eoclip } bind def
/BT { } bind def
/ET { } bind def
/BDC { mark 3 1 roll /BDC pdfmark } bind def
/EMC { mark /EMC pdfmark } bind def
/cairo_store_point { /cairo_point_y exch def /cairo_point_x exch def } def
/Tj { show currentpoint cairo_store_point } bind def
/TJ {
  {
    dup
    type /stringtype eq
    { show } { -0.001 mul 0 cairo_font_matrix dtransform rmoveto } ifelse
  } forall
  currentpoint cairo_store_point
} bind def
/cairo_selectfont { cairo_font_matrix aload pop pop pop 0 0 6 array astore
    cairo_font exch selectfont cairo_point_x cairo_point_y moveto } bind def
/Tf { pop /cairo_font exch def /cairo_font_matrix where
      { pop cairo_selectfont } if } bind def
/Td { matrix translate cairo_font_matrix matrix concatmatrix dup
      /cairo_font_matrix exch def dup 4 get exch 5 get cairo_store_point
      /cairo_font where { pop cairo_selectfont } if } bind def
/Tm { 2 copy 8 2 roll 6 array astore /cairo_font_matrix exch def
      cairo_store_point /cairo_font where { pop cairo_selectfont } if } bind def
/g { setgray } bind def
/rg { setrgbcolor } bind def
/d1 { setcachedevice } bind def
/cairo_data_source {
  CairoDataIndex CairoData length lt
    { CairoData CairoDataIndex get /CairoDataIndex CairoDataIndex 1 add def }
    { () } ifelse
} def
/cairo_flush_ascii85_file { cairo_ascii85_file status { cairo_ascii85_file flushfile } if } def
/cairo_image { image cairo_flush_ascii85_file } def
/cairo_imagemask { imagemask cairo_flush_ascii85_file } def
%%EndProlog
%%BeginSetup
%%EndSetup
%%Page: 1 1
%%BeginPageSetup
%%PageBoundingBox: 0 0 360 360
%%EndPageSetup
q 0 0 360 360 rectclip
1 0 0 -1 0 360 cm q
0 g
335.398 312.547 m 339.645 307.293 341.973 300.754 342 294 c 342 282 l 342
 265.434 328.566 252 312 252 c 295.434 252 282 265.434 282 282 c 282 294
 l 282.027 300.754 284.355 307.293 288.602 312.547 c 281.148 313.93 274.504
 318.09 270 324.188 c 265.496 318.09 258.852 313.93 251.398 312.547 c 255.645
 307.293 257.973 300.754 258 294 c 258 282 l 258 265.434 244.566 252 228
 252 c 211.434 252 198 265.434 198 282 c 198 294 l 198.027 300.754 200.355
 307.293 204.602 312.547 c 197.148 313.93 190.504 318.09 186 324.188 c 181.496
 318.09 174.852 313.93 167.398 312.547 c 171.645 307.293 173.973 300.754
 174 294 c 174 282 l 174 265.434 160.566 252 144 252 c 127.434 252 114 265.434
 114 282 c 114 294 l 114.027 300.754 116.355 307.293 120.602 312.547 c 106.371
 315.148 96.027 327.535 96 342 c 96 360 l 108 360 l 108 342 l 108 332.059
 116.059 324 126 324 c 162 324 l 171.941 324 180 332.059 180 342 c 180 360
 l 192 360 l 192 342 l 192 332.059 200.059 324 210 324 c 246 324 l 255.941
 324 264 332.059 264 342 c 264 360 l 276 360 l 276 342 l 276 332.059 284.059
 324 294 324 c 330 324 l 339.941 324 348 332.059 348 342 c 348 360 l 360
 360 l 360 342 l 359.973 327.535 349.629 315.148 335.398 312.547 c h
162 294 m 162 303.941 153.941 312 144 312 c 134.059 312 126 303.941 126
 294 c 126 282 l 126 272.059 134.059 264 144 264 c 153.941 264 162 272.059
 162 282 c h
246 294 m 246 303.941 237.941 312 228 312 c 218.059 312 210 303.941 210
 294 c 210 282 l 210 272.059 218.059 264 228 264 c 237.941 264 246 272.059
 246 282 c h
330 294 m 330 303.941 321.941 312 312 312 c 302.059 312 294 303.941 294
 294 c 294 282 l 294 272.059 302.059 264 312 264 c 321.941 264 330 272.059
 330 282 c h
330 294 m f
146.195 120.418 m 145.496 120.141 144.75 120 144 120 c 120 120 l 117.477
 120 115.223 121.578 114.359 123.949 c 108 141.438 l 107.789 140.867 l 103.211
 128.359 91.32 120.031 78 120 c 77.844 120 l 81.816 114.836 83.977 108.512
 84 102 c 84 90 l 84 73.434 70.566 60 54 60 c 37.434 60 24 73.434 24 90 
c 24 102 l 24.023 108.512 26.184 114.836 30.156 120 c 30 120 l 13.441 120.02
 0.02 133.441 0 150 c 0 222 l 0 225.312 2.688 228 6 228 c 24 228 l 24 286.199
 l 13.008 302.672 l 11.168 305.426 11.914 309.152 14.668 310.992 c 15.656
 311.648 16.812 312 18 312 c 90 312 l 93.312 312 96 309.312 96 306 c 96 
304.816 95.648 303.656 94.992 302.672 c 84 286.199 l 84 175.414 l 85.512
 178.414 l 91.574 190.535 106.312 195.441 118.43 189.379 c 123.801 186.691
 127.996 182.129 130.23 176.555 c 139.973 152.203 l 149.574 128.203 l 150.789
 125.121 149.277 121.637 146.195 120.418 c h
36 90 m 36 80.059 44.059 72 54 72 c 63.941 72 72 80.059 72 90 c 72 102 
l 72 111.941 63.941 120 54 120 c 44.059 120 36 111.941 36 102 c h
24 216 m 12 216 l 12 204 l 24 204 l h
60 300 m 60 228 l 48 228 l 48 300 l 29.215 300 l 34.992 291.328 l 35.648
 290.344 35.996 289.184 36 288 c 36 216 l 72 216 l 72 288 l 72.004 289.184
 72.352 290.344 73.008 291.328 c 78.785 300 l h
119.09 172.129 m 116.512 178.555 109.215 181.676 102.789 179.098 c 99.945
 177.961 97.617 175.816 96.246 173.074 c 83.398 147.316 l 81.957 144.336
 78.367 143.09 75.383 144.531 c 73.293 145.547 71.973 147.676 72 150 c 72
 204 l 36 204 l 36 150 l 36 146.688 33.312 144 30 144 c 26.688 144 24 146.688
 24 150 c 24 192 l 12 192 l 12 150 l 12 140.059 20.059 132 30 132 c 48 132
 l 48 192 l 60 192 l 60 132 l 78 132 l 86.277 132.016 93.664 137.191 96.512
 144.965 c 102.359 161.051 l 103.492 164.168 106.934 165.777 110.047 164.645
 c 111.719 164.039 113.035 162.723 113.641 161.051 c 115.477 156 l 125.539
 156 l h
130.34 144 m 119.84 144 l 124.199 132 l 135.137 132 l h
130.34 144 m f
354 36 m 357.312 36 360 33.312 360 30 c 360 6 l 360 2.688 357.312 0 354
 0 c 102 0 l 98.688 0 96 2.688 96 6 c 96 30 l 96 33.312 98.688 36 102 36
 c 108 36 l 108 108 l 120 108 l 120 36 l 336 36 l 336 168 l 144 168 l 144
 180 l 222 180 l 222 206.52 l 183 228.793 l 188.953 239.207 l 222 220.34
 l 222 240 l 234 240 l 234 220.34 l 267 239.207 l 272.953 228.793 l 234 
206.52 l 234 180 l 360 180 l 360 168 l 348 168 l 348 36 l h
108 24 m 108 12 l 348 12 l 348 24 l h
108 24 m f
295.457 66.18 m 271.457 60.18 l 268.543 71.82 l 279.781 74.629 l 234.238
 106.508 l 207.75 85.312 l 205.652 83.637 202.695 83.559 200.516 85.121 
c 158.516 115.121 l 165.484 124.879 l 203.797 97.52 l 230.25 118.688 l 232.332
 120.355 235.266 120.449 237.449 118.914 c 288 83.527 l 288 96 l 300 96 
l 300 72 l 300 69.25 298.129 66.848 295.457 66.18 c h
295.457 66.18 m f
Q Q
showpage
%%Trailer
end
%%EOF
