%!PS-Adobe-3.0 EPSF-3.0
%%Creator: cairo 1.15.12 (http://cairographics.org)
%%CreationDate: Sat Nov  2 14:21:25 2019
%%Pages: 1
%%DocumentData: Clean7Bit
%%LanguageLevel: 2
%%BoundingBox: 0 0 372 372
%%EndComments
%%BeginProlog
50 dict begin
/q { gsave } bind def
/Q { grestore } bind def
/cm { 6 array astore concat } bind def
/w { setlinewidth } bind def
/J { setlinecap } bind def
/j { setlinejoin } bind def
/M { setmiterlimit } bind def
/d { setdash } bind def
/m { moveto } bind def
/l { lineto } bind def
/c { curveto } bind def
/h { closepath } bind def
/re { exch dup neg 3 1 roll 5 3 roll moveto 0 rlineto
      0 exch rlineto 0 rlineto closepath } bind def
/S { stroke } bind def
/f { fill } bind def
/f* { eofill } bind def
/n { newpath } bind def
/W { clip } bind def
/W* { eoclip } bind def
/BT { } bind def
/ET { } bind def
/BDC { mark 3 1 roll /BDC pdfmark } bind def
/EMC { mark /EMC pdfmark } bind def
/cairo_store_point { /cairo_point_y exch def /cairo_point_x exch def } def
/Tj { show currentpoint cairo_store_point } bind def
/TJ {
  {
    dup
    type /stringtype eq
    { show } { -0.001 mul 0 cairo_font_matrix dtransform rmoveto } ifelse
  } forall
  currentpoint cairo_store_point
} bind def
/cairo_selectfont { cairo_font_matrix aload pop pop pop 0 0 6 array astore
    cairo_font exch selectfont cairo_point_x cairo_point_y moveto } bind def
/Tf { pop /cairo_font exch def /cairo_font_matrix where
      { pop cairo_selectfont } if } bind def
/Td { matrix translate cairo_font_matrix matrix concatmatrix dup
      /cairo_font_matrix exch def dup 4 get exch 5 get cairo_store_point
      /cairo_font where { pop cairo_selectfont } if } bind def
/Tm { 2 copy 8 2 roll 6 array astore /cairo_font_matrix exch def
      cairo_store_point /cairo_font where { pop cairo_selectfont } if } bind def
/g { setgray } bind def
/rg { setrgbcolor } bind def
/d1 { setcachedevice } bind def
/cairo_data_source {
  CairoDataIndex CairoData length lt
    { CairoData CairoDataIndex get /CairoDataIndex CairoDataIndex 1 add def }
    { () } ifelse
} def
/cairo_flush_ascii85_file { cairo_ascii85_file status { cairo_ascii85_file flushfile } if } def
/cairo_image { image cairo_flush_ascii85_file } def
/cairo_imagemask { imagemask cairo_flush_ascii85_file } def
%%EndProlog
%%BeginSetup
%%EndSetup
%%Page: 1 1
%%BeginPageSetup
%%PageBoundingBox: 0 0 372 372
%%EndPageSetup
q 0 0 372 372 rectclip
1 0 0 -1 0 372 cm q
0 g
372 186 m 372 83.441 288.559 0 186 0 c 153.848 0 122.52 8.328 94.746 24
 c 72 24 l 72 0 l 36 0 l 36 76.121 l 12.48 108.16 0 146.082 0 186 c 0 288.562
 83.441 372 186 372 c 208.855 372 231.16 367.891 252.312 359.812 c 264.383
 367.488 278.664 372 294 372 c 312.707 372 330.805 365.273 344.953 353.062
 c 337.109 343.98 l 325.141 354.312 309.836 360 294 360 c 257.609 360 228
 330.391 228 294 c 228 257.609 257.609 228 294 228 c 330.391 228 360 257.609
 360 294 c 360 309.211 354.973 323.508 345.449 335.348 c 354.805 342.871
 l 365.891 329.074 372 311.723 372 294 c 372 278.652 367.48 264.371 359.801
 252.293 c 367.871 231.137 372 208.855 372 186 c h
96 60 m 108 60 l 108 144 l 96 144 l h
72 36 m 84 36 l 84 144 l 72 144 l h
48 12 m 60 12 l 60 144 l 48 144 l h
180 359.852 m 88.824 356.734 15.266 283.176 12.148 192 c 180 192 l h
180 180 m 12.238 180 l 13.219 150.793 21.328 122.879 36 97.996 c 36 156
 l 168 156 l 168 96 l 144 96 l 144 72 l 120 72 l 120 48 l 96 48 l 96 37.152
 l 121.387 21.77 150.234 13.23 180 12.211 c h
120 144 m 120 84 l 132 84 l 132 144 l h
144 144 m 144 108 l 156 108 l 156 144 l h
359.852 180 m 308.484 180 l 352.609 135.875 l 356.844 149.922 359.328 164.711
 359.852 180 c h
329.617 87.898 m 262.602 154.914 l 271.086 163.398 l 336.188 98.297 l 340.844
 106.242 344.879 114.582 348.254 123.266 c 291.516 180 l 254.484 180 l 262.242
 172.242 l 253.758 163.758 l 237.516 180 l 200.484 180 l 313.121 67.363 
l 319.109 73.781 324.637 80.633 329.617 87.898 c h
192 12.148 m 207.289 12.672 222.078 15.156 236.125 19.391 c 192 63.516 
l h
192 134.484 m 264.918 61.566 l 256.434 53.082 l 192 117.516 l 192 80.484
 l 248.734 23.746 l 257.418 27.113 265.758 31.152 273.703 35.812 c 264.035
 45.48 l 272.52 53.965 l 284.102 42.383 l 291.367 47.363 298.219 52.883 
304.637 58.879 c 192 171.516 l h
294 216 m 250.992 216 216 250.992 216 294 c 216 316.566 225.691 336.859
 241.055 351.113 c 225.246 356.387 208.801 359.297 192 359.863 c 192 192
 l 359.863 192 l 359.297 208.793 356.363 225.227 351.098 241.039 c 336.84
 225.68 316.555 216 294 216 c h
294 216 m f
73.781 289.758 m 145.785 217.758 l 154.27 226.242 l 82.27 298.242 l h
73.781 289.758 m f
138 264 m 128.074 264 120 272.074 120 282 c 120 291.926 128.074 300 138
 300 c 147.926 300 156 291.926 156 282 c 156 272.074 147.926 264 138 264
 c h
138 288 m 134.695 288 132 285.312 132 282 c 132 278.688 134.695 276 138
 276 c 141.305 276 144 278.688 144 282 c 144 285.312 141.305 288 138 288
 c h
138 288 m f
90 216 m 80.074 216 72 224.074 72 234 c 72 243.926 80.074 252 90 252 c 
99.926 252 108 243.926 108 234 c 108 224.074 99.926 216 90 216 c h
90 240 m 86.695 240 84 237.312 84 234 c 84 230.688 86.695 228 90 228 c 
93.305 228 96 230.688 96 234 c 96 237.312 93.305 240 90 240 c h
90 240 m f
294 288 m 287.383 288 282 282.617 282 276 c 282 269.383 287.383 264 294
 264 c 300.617 264 306 269.383 306 276 c 318 276 l 318 264.848 310.32 255.535
 300 252.852 c 300 240 l 288 240 l 288 252.852 l 277.68 255.535 270 264.848
 270 276 c 270 289.234 280.766 300 294 300 c 300.617 300 306 305.383 306
 312 c 306 318.617 300.617 324 294 324 c 287.383 324 282 318.617 282 312
 c 270 312 l 270 323.152 277.68 332.465 288 335.148 c 288 348 l 300 348 
l 300 335.148 l 310.32 332.465 318 323.152 318 312 c 318 298.766 307.234
 288 294 288 c h
294 288 m f
336 288 12 12 re f
240 288 12 12 re f
Q Q
showpage
%%Trailer
end
%%EOF
