%!PS-Adobe-3.0 EPSF-3.0
%%Creator: cairo 1.15.12 (http://cairographics.org)
%%CreationDate: Sat Nov  2 14:21:25 2019
%%Pages: 1
%%DocumentData: Clean7Bit
%%LanguageLevel: 2
%%BoundingBox: 0 13 363 351
%%EndComments
%%BeginProlog
50 dict begin
/q { gsave } bind def
/Q { grestore } bind def
/cm { 6 array astore concat } bind def
/w { setlinewidth } bind def
/J { setlinecap } bind def
/j { setlinejoin } bind def
/M { setmiterlimit } bind def
/d { setdash } bind def
/m { moveto } bind def
/l { lineto } bind def
/c { curveto } bind def
/h { closepath } bind def
/re { exch dup neg 3 1 roll 5 3 roll moveto 0 rlineto
      0 exch rlineto 0 rlineto closepath } bind def
/S { stroke } bind def
/f { fill } bind def
/f* { eofill } bind def
/n { newpath } bind def
/W { clip } bind def
/W* { eoclip } bind def
/BT { } bind def
/ET { } bind def
/BDC { mark 3 1 roll /BDC pdfmark } bind def
/EMC { mark /EMC pdfmark } bind def
/cairo_store_point { /cairo_point_y exch def /cairo_point_x exch def } def
/Tj { show currentpoint cairo_store_point } bind def
/TJ {
  {
    dup
    type /stringtype eq
    { show } { -0.001 mul 0 cairo_font_matrix dtransform rmoveto } ifelse
  } forall
  currentpoint cairo_store_point
} bind def
/cairo_selectfont { cairo_font_matrix aload pop pop pop 0 0 6 array astore
    cairo_font exch selectfont cairo_point_x cairo_point_y moveto } bind def
/Tf { pop /cairo_font exch def /cairo_font_matrix where
      { pop cairo_selectfont } if } bind def
/Td { matrix translate cairo_font_matrix matrix concatmatrix dup
      /cairo_font_matrix exch def dup 4 get exch 5 get cairo_store_point
      /cairo_font where { pop cairo_selectfont } if } bind def
/Tm { 2 copy 8 2 roll 6 array astore /cairo_font_matrix exch def
      cairo_store_point /cairo_font where { pop cairo_selectfont } if } bind def
/g { setgray } bind def
/rg { setrgbcolor } bind def
/d1 { setcachedevice } bind def
/cairo_data_source {
  CairoDataIndex CairoData length lt
    { CairoData CairoDataIndex get /CairoDataIndex CairoDataIndex 1 add def }
    { () } ifelse
} def
/cairo_flush_ascii85_file { cairo_ascii85_file status { cairo_ascii85_file flushfile } if } def
/cairo_image { image cairo_flush_ascii85_file } def
/cairo_imagemask { imagemask cairo_flush_ascii85_file } def
%%EndProlog
%%BeginSetup
%%EndSetup
%%Page: 1 1
%%BeginPageSetup
%%PageBoundingBox: 0 13 363 351
%%EndPageSetup
q 0 13 363 338 rectclip
1 0 0 -1 0 363 cm q
0 g
191.398 156.977 m 187.426 160.949 187.426 167.324 191.398 171.301 c 207.824
 187.727 207.824 214.426 191.398 230.852 c 105.148 317.102 l 88.727 333.523
 62.023 333.523 45.602 317.102 c 32.625 304.125 l 16.199 287.699 16.199 
261 32.625 244.574 c 118.875 158.324 l 122.852 154.352 122.852 147.977 118.875
 144 c 114.898 140.023 108.523 140.023 104.551 144 c 18.301 230.25 l 6.523
 242.023 0 257.699 0 274.352 c 0 291 6.449 306.676 18.301 318.449 c 31.273
 331.426 l 43.426 343.574 59.398 349.648 75.375 349.648 c 91.352 349.648
 107.324 343.574 119.477 331.426 c 205.727 245.176 l 230.023 220.875 230.023
 181.273 205.727 156.977 c 201.824 153 195.375 153 191.398 156.977 c h
191.398 156.977 m f
343.875 43.648 m 330.898 30.676 l 306.602 6.375 267 6.375 242.699 30.676
 c 156.449 116.926 l 132.148 141.227 132.148 180.824 156.449 205.125 c 160.426
 209.102 166.801 209.102 170.773 205.125 c 174.75 201.148 174.75 194.773
 170.773 190.801 c 154.352 174.375 154.352 147.676 170.773 131.25 c 257.023
 45 l 273.449 28.574 300.148 28.574 316.574 45 c 329.551 57.977 l 345.977
 74.398 345.977 101.102 329.551 117.523 c 243.301 203.773 l 239.324 207.75
 239.324 214.125 243.301 218.102 c 245.25 220.051 247.875 221.102 250.426
 221.102 c 252.977 221.102 255.602 220.125 257.551 218.102 c 343.801 131.852
 l 355.574 120.074 362.102 104.398 362.102 87.75 c 362.102 71.102 355.648
 55.426 343.875 43.648 c h
343.875 43.648 m f
Q Q
showpage
%%Trailer
end
%%EOF
