%!PS-Adobe-3.0 EPSF-3.0
%%Creator: cairo 1.15.12 (http://cairographics.org)
%%CreationDate: Sat Nov  2 14:21:25 2019
%%Pages: 1
%%DocumentData: Clean7Bit
%%LanguageLevel: 2
%%BoundingBox: 0 0 361 361
%%EndComments
%%BeginProlog
50 dict begin
/q { gsave } bind def
/Q { grestore } bind def
/cm { 6 array astore concat } bind def
/w { setlinewidth } bind def
/J { setlinecap } bind def
/j { setlinejoin } bind def
/M { setmiterlimit } bind def
/d { setdash } bind def
/m { moveto } bind def
/l { lineto } bind def
/c { curveto } bind def
/h { closepath } bind def
/re { exch dup neg 3 1 roll 5 3 roll moveto 0 rlineto
      0 exch rlineto 0 rlineto closepath } bind def
/S { stroke } bind def
/f { fill } bind def
/f* { eofill } bind def
/n { newpath } bind def
/W { clip } bind def
/W* { eoclip } bind def
/BT { } bind def
/ET { } bind def
/BDC { mark 3 1 roll /BDC pdfmark } bind def
/EMC { mark /EMC pdfmark } bind def
/cairo_store_point { /cairo_point_y exch def /cairo_point_x exch def } def
/Tj { show currentpoint cairo_store_point } bind def
/TJ {
  {
    dup
    type /stringtype eq
    { show } { -0.001 mul 0 cairo_font_matrix dtransform rmoveto } ifelse
  } forall
  currentpoint cairo_store_point
} bind def
/cairo_selectfont { cairo_font_matrix aload pop pop pop 0 0 6 array astore
    cairo_font exch selectfont cairo_point_x cairo_point_y moveto } bind def
/Tf { pop /cairo_font exch def /cairo_font_matrix where
      { pop cairo_selectfont } if } bind def
/Td { matrix translate cairo_font_matrix matrix concatmatrix dup
      /cairo_font_matrix exch def dup 4 get exch 5 get cairo_store_point
      /cairo_font where { pop cairo_selectfont } if } bind def
/Tm { 2 copy 8 2 roll 6 array astore /cairo_font_matrix exch def
      cairo_store_point /cairo_font where { pop cairo_selectfont } if } bind def
/g { setgray } bind def
/rg { setrgbcolor } bind def
/d1 { setcachedevice } bind def
/cairo_data_source {
  CairoDataIndex CairoData length lt
    { CairoData CairoDataIndex get /CairoDataIndex CairoDataIndex 1 add def }
    { () } ifelse
} def
/cairo_flush_ascii85_file { cairo_ascii85_file status { cairo_ascii85_file flushfile } if } def
/cairo_image { image cairo_flush_ascii85_file } def
/cairo_imagemask { imagemask cairo_flush_ascii85_file } def
%%EndProlog
%%BeginSetup
%%EndSetup
%%Page: 1 1
%%BeginPageSetup
%%PageBoundingBox: 0 0 361 361
%%EndPageSetup
q 0 0 361 361 rectclip
1 0 0 -1 0 361 cm q
0 g
180.102 0.039 m 108.062 0.027 42.957 42.965 14.605 109.191 c 12.359 109.934
 l 13.23 112.543 l -24.102 204.617 20.273 309.523 112.348 346.855 c 133.855
 355.574 156.844 360.051 180.047 360.039 c 279.461 360.051 360.059 279.477
 360.074 180.066 c 360.09 80.652 279.512 0.051 180.102 0.039 c h
321.289 270.789 m 312.047 261.555 l 312.047 240.039 l 312.059 239.109 311.852
 238.191 311.449 237.355 c 288.047 190.621 l 288.047 168.039 l 288.047 166.031
 287.047 164.16 285.379 163.047 c 267.379 151.047 l 265.969 150.102 264.223
 149.805 262.578 150.219 c 240.535 155.727 l 203.508 139.836 l 198.414 104.148
 l 212.531 90.039 l 242.84 90.039 l 253.039 105.367 l 253.961 106.746 255.41
 107.684 257.047 107.953 c 293.047 113.953 l 294.012 114.117 295 114.035
 295.926 113.727 c 329.082 102.672 l 356.891 156.039 353.918 220.227 321.289
 270.789 c h
296.543 59.16 m 286.789 65.664 l 259.59 60.223 l 241.945 54.348 l 240.863
 53.984 239.703 53.938 238.598 54.219 c 216.289 59.793 l 206.508 56.535 
l 213.758 42.039 l 234.047 42.039 l 234.98 42.039 235.898 41.824 236.73 
41.406 c 257.488 31.027 l 271.785 38.488 284.938 47.965 296.543 59.16 c 
h
114.328 25.434 m 128.73 35.035 l 129.438 35.508 130.238 35.82 131.074 35.961
 c 160.152 40.809 l 157.312 49.297 l 142.164 54.355 l 140.809 54.809 139.656
 55.727 138.918 56.953 c 121.688 85.668 l 94.008 102.277 l 53.207 108.102
 l 50.25 108.52 48.051 111.051 48.047 114.039 c 48.047 132.039 l 48.047 
133.629 48.68 135.156 49.805 136.281 c 60.047 146.523 l 60.047 156.828 l
 35.09 140.184 l 26.035 113.023 l 43.262 73.664 74.832 42.344 114.328 25.434
 c h
97.246 222.156 m 70.129 216.727 l 60.047 196.621 l 60.047 182.523 l 82.402
 160.164 l 90.68 176.719 l 91.695 178.754 93.773 180.039 96.047 180.039 
c 134.652 180.039 l 150.906 207.129 l 151.992 208.934 153.941 210.035 156.047
 210.039 c 172.727 210.039 l 168.527 231.078 l 145.812 253.797 l 144.684
 254.918 144.051 256.445 144.047 258.039 c 144.047 273.039 l 122.449 289.238
 l 120.938 290.371 120.047 292.148 120.047 294.039 c 120.047 315.711 l 112.586
 313.238 l 102.047 286.887 l 102.047 228.039 l 102.047 225.188 100.043 222.727
 97.246 222.156 c h
79.211 314.395 m 22.641 271.953 -1.285 198.621 19.375 130.98 c 24.359 145.934
 l 24.781 147.199 25.609 148.289 26.719 149.031 c 56.629 168.969 l 49.805
 175.797 l 48.68 176.922 48.047 178.445 48.047 180.039 c 48.047 198.039 
l 48.047 198.969 48.262 199.887 48.68 200.719 c 60.68 224.719 l 61.508 226.379
 63.059 227.559 64.879 227.918 c 90.078 232.953 l 90.078 288.039 l 90.078
 288.801 90.223 289.555 90.504 290.262 c 102.504 320.262 l 103.16 321.902
 104.508 323.168 106.184 323.727 c 124.184 329.727 l 124.785 329.93 125.414
 330.035 126.047 330.039 c 129.363 330.039 132.047 327.352 132.047 324.039
 c 132.047 297.039 l 153.648 280.836 l 155.16 279.703 156.047 277.926 156.047
 276.039 c 156.047 260.523 l 178.289 238.281 l 179.125 237.441 179.695 236.375
 179.93 235.215 c 185.93 205.215 l 186.578 201.965 184.469 198.805 181.219
 198.152 c 180.836 198.078 180.441 198.039 180.047 198.039 c 159.445 198.039
 l 143.191 170.949 l 142.105 169.141 140.152 168.039 138.047 168.039 c 99.758
 168.039 l 89.449 147.355 l 88.586 145.629 86.945 144.422 85.039 144.117
 c 83.133 143.785 81.188 144.414 79.836 145.797 c 72.047 153.555 l 72.047
 144.039 l 72.047 142.445 71.414 140.922 70.289 139.797 c 60.047 129.555
 l 60.047 119.238 l 96.898 113.977 l 97.691 113.863 98.453 113.59 99.137
 113.18 c 129.137 95.18 l 129.98 94.676 130.684 93.969 131.191 93.129 c 
148.051 65.031 l 163.945 59.727 l 165.738 59.137 167.148 57.73 167.734 55.934
 c 173.734 37.934 l 174.777 34.789 173.066 31.395 169.922 30.355 c 169.633
 30.258 169.332 30.184 169.031 30.133 c 134.305 24.344 l 128.203 20.277 
l 165.961 7.984 206.855 9.508 243.594 24.566 c 232.633 30.039 l 210.047 
30.039 l 207.762 30.023 205.668 31.312 204.648 33.355 c 192.648 57.355 l
 191.168 60.32 192.375 63.926 195.34 65.402 c 195.594 65.527 195.855 65.637
 196.121 65.727 c 214.121 71.727 l 215.203 72.094 216.363 72.141 217.469
 71.859 c 239.777 66.285 l 256.121 71.727 l 256.355 71.809 256.598 71.875
 256.844 71.918 c 286.844 77.918 l 288.402 78.234 290.023 77.914 291.348
 77.031 c 305.004 67.922 l 311.727 75.406 317.766 83.477 323.051 92.035 
c 293.531 101.875 l 261.57 96.547 l 251.012 80.707 l 249.902 79.047 248.043
 78.047 246.047 78.039 c 210.047 78.039 l 208.457 78.039 206.93 78.672 205.805
 79.797 c 187.805 97.797 l 186.469 99.133 185.84 101.02 186.109 102.891 
c 192.109 144.891 l 192.41 146.965 193.773 148.734 195.707 149.551 c 237.707
 167.551 l 238.91 168.074 240.254 168.18 241.523 167.859 c 262.949 162.5
 l 276.047 171.246 l 276.047 192.039 l 276.039 192.965 276.242 193.883 276.648
 194.719 c 300.047 241.453 l 300.047 264.039 l 300.047 265.629 300.68 267.156
 301.805 268.281 c 314.359 280.836 l 258.691 355.039 153.41 370.062 79.211
 314.395 c h
79.211 314.395 m f
Q Q
showpage
%%Trailer
end
%%EOF
