%!PS-Adobe-3.0 EPSF-3.0
%%Creator: cairo 1.15.12 (http://cairographics.org)
%%CreationDate: Sat Nov  2 14:21:25 2019
%%Pages: 1
%%DocumentData: Clean7Bit
%%LanguageLevel: 2
%%BoundingBox: 35 0 323 358
%%EndComments
%%BeginProlog
50 dict begin
/q { gsave } bind def
/Q { grestore } bind def
/cm { 6 array astore concat } bind def
/w { setlinewidth } bind def
/J { setlinecap } bind def
/j { setlinejoin } bind def
/M { setmiterlimit } bind def
/d { setdash } bind def
/m { moveto } bind def
/l { lineto } bind def
/c { curveto } bind def
/h { closepath } bind def
/re { exch dup neg 3 1 roll 5 3 roll moveto 0 rlineto
      0 exch rlineto 0 rlineto closepath } bind def
/S { stroke } bind def
/f { fill } bind def
/f* { eofill } bind def
/n { newpath } bind def
/W { clip } bind def
/W* { eoclip } bind def
/BT { } bind def
/ET { } bind def
/BDC { mark 3 1 roll /BDC pdfmark } bind def
/EMC { mark /EMC pdfmark } bind def
/cairo_store_point { /cairo_point_y exch def /cairo_point_x exch def } def
/Tj { show currentpoint cairo_store_point } bind def
/TJ {
  {
    dup
    type /stringtype eq
    { show } { -0.001 mul 0 cairo_font_matrix dtransform rmoveto } ifelse
  } forall
  currentpoint cairo_store_point
} bind def
/cairo_selectfont { cairo_font_matrix aload pop pop pop 0 0 6 array astore
    cairo_font exch selectfont cairo_point_x cairo_point_y moveto } bind def
/Tf { pop /cairo_font exch def /cairo_font_matrix where
      { pop cairo_selectfont } if } bind def
/Td { matrix translate cairo_font_matrix matrix concatmatrix dup
      /cairo_font_matrix exch def dup 4 get exch 5 get cairo_store_point
      /cairo_font where { pop cairo_selectfont } if } bind def
/Tm { 2 copy 8 2 roll 6 array astore /cairo_font_matrix exch def
      cairo_store_point /cairo_font where { pop cairo_selectfont } if } bind def
/g { setgray } bind def
/rg { setrgbcolor } bind def
/d1 { setcachedevice } bind def
/cairo_data_source {
  CairoDataIndex CairoData length lt
    { CairoData CairoDataIndex get /CairoDataIndex CairoDataIndex 1 add def }
    { () } ifelse
} def
/cairo_flush_ascii85_file { cairo_ascii85_file status { cairo_ascii85_file flushfile } if } def
/cairo_image { image cairo_flush_ascii85_file } def
/cairo_imagemask { imagemask cairo_flush_ascii85_file } def
%%EndProlog
%%BeginSetup
%%EndSetup
%%Page: 1 1
%%BeginPageSetup
%%PageBoundingBox: 35 0 323 358
%%EndPageSetup
q 35 0 288 358 rectclip
1 0 0 -1 0 358 cm q
0 g
178.801 0 m 99.75 0 35.398 64.352 35.398 143.398 c 35.398 152.398 36.227
 161.477 37.949 170.324 c 38.023 170.852 38.324 172.426 38.926 175.125 c
 41.102 184.801 44.324 194.324 48.523 203.398 c 63.977 239.773 97.949 295.648
 172.5 355.5 c 174.375 357 176.625 357.75 178.875 357.75 c 181.125 357.75
 183.375 357 185.25 355.5 c 259.727 295.648 293.773 239.773 309.227 203.398
 c 313.426 194.324 316.648 184.875 318.824 175.125 c 319.426 172.426 319.727
 170.852 319.801 170.324 c 321.449 161.477 322.352 152.398 322.352 143.398
 c 322.199 64.352 257.852 0 178.801 0 c h
299.699 166.801 m 299.699 166.949 299.625 167.102 299.625 167.25 c 299.551
 167.625 299.324 168.75 298.949 170.477 c 298.949 170.551 298.949 170.551
 298.949 170.625 c 297.074 179.023 294.301 187.199 290.625 195.074 c 290.551
 195.148 290.551 195.301 290.477 195.375 c 276.449 228.602 245.699 279.301
 178.801 334.574 c 111.898 279.301 81.148 228.602 67.125 195.375 c 67.051
 195.301 67.051 195.148 66.977 195.074 c 63.375 187.273 60.602 179.023 58.648
 170.625 c 58.648 170.551 58.648 170.551 58.648 170.477 c 58.199 168.75 
58.051 167.625 57.977 167.25 c 57.977 167.102 57.898 166.949 57.898 166.727
 c 56.398 159 55.648 151.199 55.648 143.324 c 55.648 75.449 110.926 20.176
 178.801 20.176 c 246.676 20.176 301.949 75.449 301.949 143.324 c 301.949
 151.273 301.199 159.148 299.699 166.801 c h
299.699 166.801 m f
178.801 53.926 m 128.625 53.926 87.75 94.801 87.75 144.977 c 87.75 195.148
 128.625 236.023 178.801 236.023 c 228.977 236.023 269.852 195.148 269.852
 144.977 c 269.852 94.801 228.977 53.926 178.801 53.926 c h
178.801 215.773 m 139.727 215.773 108 183.977 108 144.977 c 108 105.977
 139.801 74.176 178.801 74.176 c 217.801 74.176 249.602 105.977 249.602 
144.977 c 249.602 183.977 217.875 215.773 178.801 215.773 c h
178.801 215.773 m f
Q Q
showpage
%%Trailer
end
%%EOF
