%!PS-Adobe-3.0 EPSF-3.0
%%Creator: cairo 1.15.12 (http://cairographics.org)
%%CreationDate: Sat Nov  2 14:21:25 2019
%%Pages: 1
%%DocumentData: Clean7Bit
%%LanguageLevel: 2
%%BoundingBox: 27 0 336 363
%%EndComments
%%BeginProlog
50 dict begin
/q { gsave } bind def
/Q { grestore } bind def
/cm { 6 array astore concat } bind def
/w { setlinewidth } bind def
/J { setlinecap } bind def
/j { setlinejoin } bind def
/M { setmiterlimit } bind def
/d { setdash } bind def
/m { moveto } bind def
/l { lineto } bind def
/c { curveto } bind def
/h { closepath } bind def
/re { exch dup neg 3 1 roll 5 3 roll moveto 0 rlineto
      0 exch rlineto 0 rlineto closepath } bind def
/S { stroke } bind def
/f { fill } bind def
/f* { eofill } bind def
/n { newpath } bind def
/W { clip } bind def
/W* { eoclip } bind def
/BT { } bind def
/ET { } bind def
/BDC { mark 3 1 roll /BDC pdfmark } bind def
/EMC { mark /EMC pdfmark } bind def
/cairo_store_point { /cairo_point_y exch def /cairo_point_x exch def } def
/Tj { show currentpoint cairo_store_point } bind def
/TJ {
  {
    dup
    type /stringtype eq
    { show } { -0.001 mul 0 cairo_font_matrix dtransform rmoveto } ifelse
  } forall
  currentpoint cairo_store_point
} bind def
/cairo_selectfont { cairo_font_matrix aload pop pop pop 0 0 6 array astore
    cairo_font exch selectfont cairo_point_x cairo_point_y moveto } bind def
/Tf { pop /cairo_font exch def /cairo_font_matrix where
      { pop cairo_selectfont } if } bind def
/Td { matrix translate cairo_font_matrix matrix concatmatrix dup
      /cairo_font_matrix exch def dup 4 get exch 5 get cairo_store_point
      /cairo_font where { pop cairo_selectfont } if } bind def
/Tm { 2 copy 8 2 roll 6 array astore /cairo_font_matrix exch def
      cairo_store_point /cairo_font where { pop cairo_selectfont } if } bind def
/g { setgray } bind def
/rg { setrgbcolor } bind def
/d1 { setcachedevice } bind def
/cairo_data_source {
  CairoDataIndex CairoData length lt
    { CairoData CairoDataIndex get /CairoDataIndex CairoDataIndex 1 add def }
    { () } ifelse
} def
/cairo_flush_ascii85_file { cairo_ascii85_file status { cairo_ascii85_file flushfile } if } def
/cairo_image { image cairo_flush_ascii85_file } def
/cairo_imagemask { imagemask cairo_flush_ascii85_file } def
%%EndProlog
%%BeginSetup
%%EndSetup
%%Page: 1 1
%%BeginPageSetup
%%PageBoundingBox: 27 0 336 363
%%EndPageSetup
q 27 0 309 363 rectclip
1 0 0 -1 0 363 cm q
0 g
179.773 195.148 m 180.148 195.148 180.523 195.148 180.977 195.148 c 181.125
 195.148 181.273 195.148 181.426 195.148 c 181.648 195.148 181.949 195.148
 182.176 195.148 c 204.148 194.773 221.926 187.051 235.051 172.273 c 263.926
 139.727 259.125 83.926 258.602 78.602 c 256.727 38.625 237.824 19.5 222.227
 10.574 c 210.602 3.898 197.023 0.301 181.875 0 c 181.352 0 l 181.273 0 
181.125 0 181.051 0 c 180.602 0 l 172.273 0 155.926 1.352 140.25 10.273 
c 124.5 19.199 105.301 38.324 103.426 78.602 c 102.898 83.926 98.102 139.727
 126.977 172.273 c 140.023 187.051 157.801 194.773 179.773 195.148 c h
123.449 80.477 m 123.449 80.25 123.523 80.023 123.523 79.875 c 126 26.102
 164.176 20.324 180.523 20.324 c 180.824 20.324 l 180.977 20.324 181.199
 20.324 181.426 20.324 c 201.676 20.773 236.102 29.023 238.426 79.875 c 
238.426 80.102 238.426 80.324 238.5 80.477 c 238.574 81 243.824 132 219.977
 158.852 c 210.523 169.5 197.926 174.75 181.352 174.898 c 181.199 174.898
 181.125 174.898 180.977 174.898 c 180.824 174.898 180.75 174.898 180.602
 174.898 c 164.102 174.75 151.426 169.5 142.051 158.852 c 118.273 132.148
 123.375 80.926 123.449 80.477 c h
123.449 80.477 m f
335.102 287.699 m 335.102 287.625 335.102 287.551 335.102 287.477 c 335.102
 286.875 335.023 286.273 335.023 285.602 c 334.574 270.75 333.602 236.023
 301.051 224.926 c 300.824 224.852 300.523 224.773 300.301 224.699 c 266.477
 216.074 238.352 196.574 238.051 196.352 c 233.477 193.125 227.176 194.25
 223.949 198.824 c 220.727 203.398 221.852 209.699 226.426 212.926 c 227.699
 213.824 257.551 234.602 294.898 244.199 c 312.375 250.426 314.324 269.102
 314.852 286.199 c 314.852 286.875 314.852 287.477 314.926 288.074 c 315
 294.824 314.551 305.25 313.352 311.25 c 301.199 318.148 253.574 342 181.125
 342 c 108.977 342 61.051 318.074 48.824 311.176 c 47.625 305.176 47.102
 294.75 47.25 288 c 47.25 287.398 47.324 286.801 47.324 286.125 c 47.852
 269.023 49.801 250.352 67.273 244.125 c 104.625 234.523 134.477 213.676
 135.75 212.852 c 140.324 209.625 141.449 203.324 138.227 198.75 c 135 194.176
 128.699 193.051 124.125 196.273 c 123.824 196.5 95.852 216 61.875 224.625
 c 61.574 224.699 61.352 224.773 61.125 224.852 c 28.574 236.023 27.602 
270.75 27.148 285.523 c 27.148 286.199 27.148 286.801 27.074 287.398 c 27.074
 287.477 27.074 287.551 27.074 287.625 c 27 291.523 26.926 311.551 30.898
 321.602 c 31.648 323.551 33 325.199 34.801 326.324 c 37.051 327.824 90.977
 362.176 181.199 362.176 c 271.426 362.176 325.352 327.75 327.602 326.324
 c 329.324 325.199 330.75 323.551 331.5 321.602 c 335.25 311.625 335.176
 291.602 335.102 287.699 c h
335.102 287.699 m f
Q Q
showpage
%%Trailer
end
%%EOF
