%!PS-Adobe-3.0 EPSF-3.0
%%Creator: cairo 1.15.12 (http://cairographics.org)
%%CreationDate: Sat Nov  2 14:21:25 2019
%%Pages: 1
%%DocumentData: Clean7Bit
%%LanguageLevel: 2
%%BoundingBox: 0 0 356 356
%%EndComments
%%BeginProlog
50 dict begin
/q { gsave } bind def
/Q { grestore } bind def
/cm { 6 array astore concat } bind def
/w { setlinewidth } bind def
/J { setlinecap } bind def
/j { setlinejoin } bind def
/M { setmiterlimit } bind def
/d { setdash } bind def
/m { moveto } bind def
/l { lineto } bind def
/c { curveto } bind def
/h { closepath } bind def
/re { exch dup neg 3 1 roll 5 3 roll moveto 0 rlineto
      0 exch rlineto 0 rlineto closepath } bind def
/S { stroke } bind def
/f { fill } bind def
/f* { eofill } bind def
/n { newpath } bind def
/W { clip } bind def
/W* { eoclip } bind def
/BT { } bind def
/ET { } bind def
/BDC { mark 3 1 roll /BDC pdfmark } bind def
/EMC { mark /EMC pdfmark } bind def
/cairo_store_point { /cairo_point_y exch def /cairo_point_x exch def } def
/Tj { show currentpoint cairo_store_point } bind def
/TJ {
  {
    dup
    type /stringtype eq
    { show } { -0.001 mul 0 cairo_font_matrix dtransform rmoveto } ifelse
  } forall
  currentpoint cairo_store_point
} bind def
/cairo_selectfont { cairo_font_matrix aload pop pop pop 0 0 6 array astore
    cairo_font exch selectfont cairo_point_x cairo_point_y moveto } bind def
/Tf { pop /cairo_font exch def /cairo_font_matrix where
      { pop cairo_selectfont } if } bind def
/Td { matrix translate cairo_font_matrix matrix concatmatrix dup
      /cairo_font_matrix exch def dup 4 get exch 5 get cairo_store_point
      /cairo_font where { pop cairo_selectfont } if } bind def
/Tm { 2 copy 8 2 roll 6 array astore /cairo_font_matrix exch def
      cairo_store_point /cairo_font where { pop cairo_selectfont } if } bind def
/g { setgray } bind def
/rg { setrgbcolor } bind def
/d1 { setcachedevice } bind def
/cairo_data_source {
  CairoDataIndex CairoData length lt
    { CairoData CairoDataIndex get /CairoDataIndex CairoDataIndex 1 add def }
    { () } ifelse
} def
/cairo_flush_ascii85_file { cairo_ascii85_file status { cairo_ascii85_file flushfile } if } def
/cairo_image { image cairo_flush_ascii85_file } def
/cairo_imagemask { imagemask cairo_flush_ascii85_file } def
%%EndProlog
%%BeginSetup
%%EndSetup
%%Page: 1 1
%%BeginPageSetup
%%PageBoundingBox: 0 0 356 356
%%EndPageSetup
q 0 0 356 356 rectclip
1 0 0 -1 0 356 cm q
0 g
280.844 220.129 m 273.566 212.555 264.793 208.504 255.492 208.504 c 246.266
 208.504 237.418 212.48 229.844 220.055 c 206.141 243.68 l 204.191 242.629
 202.242 241.656 200.367 240.68 c 197.668 239.328 195.117 238.055 192.941
 236.703 c 170.742 222.605 150.566 204.23 131.219 180.453 c 121.844 168.605
 115.543 158.629 110.969 148.504 c 117.117 142.879 122.816 137.031 128.367
 131.406 c 130.469 129.305 132.566 127.129 134.668 125.031 c 150.418 109.281
 150.418 88.879 134.668 73.129 c 114.191 52.656 l 111.867 50.328 109.469
 47.93 107.219 45.531 c 102.719 40.879 97.992 36.078 93.117 31.578 c 85.844
 24.379 77.141 20.555 67.992 20.555 c 58.844 20.555 49.992 24.379 42.492
 31.578 c 42.418 31.656 42.418 31.656 42.344 31.73 c 16.844 57.453 l 7.242
 67.055 1.766 78.754 0.566 92.328 c -1.234 114.23 5.219 134.629 10.168 147.98
 c 22.316 180.754 40.469 211.129 67.543 243.68 c 100.391 282.906 139.918
 313.879 185.066 335.703 c 202.316 343.879 225.344 353.555 251.066 355.203
 c 252.641 355.281 254.293 355.355 255.793 355.355 c 273.117 355.355 287.668
 349.129 299.066 336.754 c 299.141 336.605 299.293 336.531 299.367 336.379
 c 303.266 331.656 307.766 327.379 312.492 322.805 c 315.719 319.73 319.016
 316.504 322.242 313.129 c 329.668 305.406 333.566 296.406 333.566 287.18
 c 333.566 277.879 329.594 268.953 322.016 261.453 c h
307.691 299.105 m 307.617 299.105 307.617 299.18 307.691 299.105 c 304.766
 302.254 301.766 305.105 298.543 308.254 c 293.668 312.906 288.719 317.781
 284.066 323.254 c 276.492 331.355 267.566 335.18 255.867 335.18 c 254.742
 335.18 253.543 335.18 252.418 335.105 c 230.141 333.68 209.441 324.98 193.918
 317.555 c 151.469 297.004 114.191 267.828 83.219 230.855 c 57.641 200.031
 40.543 171.531 29.219 140.93 c 22.242 122.254 19.691 107.703 20.816 93.98
 c 21.566 85.203 24.941 77.93 31.168 71.703 c 56.742 46.129 l 60.418 42.68
 64.316 40.805 68.141 40.805 c 72.867 40.805 76.691 43.656 79.094 46.055
 c 79.168 46.129 79.242 46.203 79.316 46.281 c 83.891 50.555 88.242 54.98
 92.816 59.703 c 95.141 62.105 97.543 64.504 99.941 66.98 c 120.418 87.453
 l 128.367 95.406 128.367 102.754 120.418 110.703 c 118.242 112.879 116.141
 115.055 113.969 117.156 c 107.668 123.605 101.668 129.605 95.141 135.453
 c 94.992 135.605 94.844 135.68 94.766 135.828 c 88.316 142.281 89.516 148.578
 90.867 152.855 c 90.941 153.078 91.016 153.305 91.094 153.531 c 96.418 
166.43 103.918 178.578 115.316 193.055 c 115.391 193.129 l 136.094 218.629
 157.918 238.504 181.992 253.73 c 185.066 255.68 188.219 257.254 191.219
 258.754 c 193.918 260.105 196.469 261.379 198.641 262.73 c 198.941 262.879
 199.242 263.105 199.543 263.254 c 202.094 264.531 204.492 265.129 206.969
 265.129 c 213.191 265.129 217.094 261.23 218.367 259.953 c 244.016 234.305
 l 246.566 231.754 250.617 228.68 255.344 228.68 c 259.992 228.68 263.816
 231.605 266.141 234.156 c 266.219 234.23 266.219 234.23 266.293 234.305
 c 307.617 275.629 l 315.344 283.281 315.344 291.156 307.691 299.105 c h
307.691 299.105 m f
192.043 84.531 m 211.691 87.828 229.543 97.129 243.793 111.379 c 258.043
 125.629 267.266 143.48 270.641 163.129 c 271.469 168.078 275.742 171.531
 280.617 171.531 c 281.219 171.531 281.742 171.453 282.344 171.379 c 287.891
 170.48 291.566 165.23 290.668 159.68 c 286.617 135.906 275.367 114.23 258.191
 97.055 c 241.016 79.879 219.344 68.629 195.566 64.578 c 190.016 63.68 184.844
 67.355 183.867 72.828 c 182.891 78.305 186.492 83.629 192.043 84.531 c 
h
192.043 84.531 m f
354.941 156.754 m 348.266 117.605 329.816 81.98 301.469 53.629 c 273.117
 25.281 237.492 6.828 198.344 0.156 c 192.867 -0.82 187.691 2.93 186.719
 8.406 c 185.816 13.953 189.492 19.129 195.043 20.105 c 229.992 26.031 261.867
 42.605 287.219 67.879 c 312.566 93.23 329.066 125.105 334.992 160.055 c
 335.816 165.004 340.094 168.453 344.969 168.453 c 345.566 168.453 346.094
 168.379 346.691 168.305 c 352.168 167.48 355.918 162.23 354.941 156.754
 c h
354.941 156.754 m f
Q Q
showpage
%%Trailer
end
%%EOF
