%!PS-Adobe-3.0 EPSF-3.0
%%Creator: cairo 1.15.12 (http://cairographics.org)
%%CreationDate: Sat Nov  2 14:21:25 2019
%%Pages: 1
%%DocumentData: Clean7Bit
%%LanguageLevel: 2
%%BoundingBox: 0 26 366 340
%%EndComments
%%BeginProlog
50 dict begin
/q { gsave } bind def
/Q { grestore } bind def
/cm { 6 array astore concat } bind def
/w { setlinewidth } bind def
/J { setlinecap } bind def
/j { setlinejoin } bind def
/M { setmiterlimit } bind def
/d { setdash } bind def
/m { moveto } bind def
/l { lineto } bind def
/c { curveto } bind def
/h { closepath } bind def
/re { exch dup neg 3 1 roll 5 3 roll moveto 0 rlineto
      0 exch rlineto 0 rlineto closepath } bind def
/S { stroke } bind def
/f { fill } bind def
/f* { eofill } bind def
/n { newpath } bind def
/W { clip } bind def
/W* { eoclip } bind def
/BT { } bind def
/ET { } bind def
/BDC { mark 3 1 roll /BDC pdfmark } bind def
/EMC { mark /EMC pdfmark } bind def
/cairo_store_point { /cairo_point_y exch def /cairo_point_x exch def } def
/Tj { show currentpoint cairo_store_point } bind def
/TJ {
  {
    dup
    type /stringtype eq
    { show } { -0.001 mul 0 cairo_font_matrix dtransform rmoveto } ifelse
  } forall
  currentpoint cairo_store_point
} bind def
/cairo_selectfont { cairo_font_matrix aload pop pop pop 0 0 6 array astore
    cairo_font exch selectfont cairo_point_x cairo_point_y moveto } bind def
/Tf { pop /cairo_font exch def /cairo_font_matrix where
      { pop cairo_selectfont } if } bind def
/Td { matrix translate cairo_font_matrix matrix concatmatrix dup
      /cairo_font_matrix exch def dup 4 get exch 5 get cairo_store_point
      /cairo_font where { pop cairo_selectfont } if } bind def
/Tm { 2 copy 8 2 roll 6 array astore /cairo_font_matrix exch def
      cairo_store_point /cairo_font where { pop cairo_selectfont } if } bind def
/g { setgray } bind def
/rg { setrgbcolor } bind def
/d1 { setcachedevice } bind def
/cairo_data_source {
  CairoDataIndex CairoData length lt
    { CairoData CairoDataIndex get /CairoDataIndex CairoDataIndex 1 add def }
    { () } ifelse
} def
/cairo_flush_ascii85_file { cairo_ascii85_file status { cairo_ascii85_file flushfile } if } def
/cairo_image { image cairo_flush_ascii85_file } def
/cairo_imagemask { imagemask cairo_flush_ascii85_file } def
%%EndProlog
%%BeginSetup
%%EndSetup
%%Page: 1 1
%%BeginPageSetup
%%PageBoundingBox: 0 26 366 340
%%EndPageSetup
q 0 26 366 314 rectclip
1 0 0 -1 0 366 cm q
0 g
362.293 161.711 m 200.668 28.508 l 197.668 26.035 193.469 25.508 189.945
 27.16 c 186.418 28.809 184.168 32.41 184.168 36.309 c 184.168 106.508 l
 105.719 109.359 51.793 137.035 23.742 188.859 c -0.406 233.559 -0.18 286.508
 0.043 321.535 c 0.043 324.383 0.043 327.086 0.043 329.633 c 0.043 334.211
 3.117 338.258 7.617 339.461 c 8.445 339.684 9.344 339.758 10.168 339.758
 c 13.77 339.758 17.145 337.883 18.945 334.66 c 73.695 238.133 118.77 233.484
 184.094 233.258 c 184.094 303.234 l 184.094 307.133 186.344 310.734 189.945
 312.383 c 193.543 314.035 197.668 313.508 200.742 311.035 c 362.293 177.383
 l 364.617 175.434 365.969 172.586 365.969 169.586 c 365.969 166.586 364.617
 163.66 362.293 161.711 c h
204.418 281.711 m 204.418 223.133 l 204.418 220.434 203.367 217.883 201.418
 216.008 c 199.543 214.133 196.918 213.008 194.293 213.008 c 153.492 213.008
 122.219 214.133 91.844 228.309 c 65.594 240.535 42.867 261.309 20.445 293.934
 c 21.344 264.16 25.242 228.609 41.52 198.535 c 67.32 150.836 117.27 127.211
 194.293 126.535 c 199.844 126.461 204.344 121.961 204.344 116.41 c 204.344
 57.758 l 339.867 169.586 l h
204.418 281.711 m f
Q Q
showpage
%%Trailer
end
%%EOF
