%!PS-Adobe-3.0 EPSF-3.0
%%Creator: cairo 1.15.12 (http://cairographics.org)
%%CreationDate: Sat Nov  2 14:21:25 2019
%%Pages: 1
%%DocumentData: Clean7Bit
%%LanguageLevel: 2
%%BoundingBox: 1 0 44 45
%%EndComments
%%BeginProlog
50 dict begin
/q { gsave } bind def
/Q { grestore } bind def
/cm { 6 array astore concat } bind def
/w { setlinewidth } bind def
/J { setlinecap } bind def
/j { setlinejoin } bind def
/M { setmiterlimit } bind def
/d { setdash } bind def
/m { moveto } bind def
/l { lineto } bind def
/c { curveto } bind def
/h { closepath } bind def
/re { exch dup neg 3 1 roll 5 3 roll moveto 0 rlineto
      0 exch rlineto 0 rlineto closepath } bind def
/S { stroke } bind def
/f { fill } bind def
/f* { eofill } bind def
/n { newpath } bind def
/W { clip } bind def
/W* { eoclip } bind def
/BT { } bind def
/ET { } bind def
/BDC { mark 3 1 roll /BDC pdfmark } bind def
/EMC { mark /EMC pdfmark } bind def
/cairo_store_point { /cairo_point_y exch def /cairo_point_x exch def } def
/Tj { show currentpoint cairo_store_point } bind def
/TJ {
  {
    dup
    type /stringtype eq
    { show } { -0.001 mul 0 cairo_font_matrix dtransform rmoveto } ifelse
  } forall
  currentpoint cairo_store_point
} bind def
/cairo_selectfont { cairo_font_matrix aload pop pop pop 0 0 6 array astore
    cairo_font exch selectfont cairo_point_x cairo_point_y moveto } bind def
/Tf { pop /cairo_font exch def /cairo_font_matrix where
      { pop cairo_selectfont } if } bind def
/Td { matrix translate cairo_font_matrix matrix concatmatrix dup
      /cairo_font_matrix exch def dup 4 get exch 5 get cairo_store_point
      /cairo_font where { pop cairo_selectfont } if } bind def
/Tm { 2 copy 8 2 roll 6 array astore /cairo_font_matrix exch def
      cairo_store_point /cairo_font where { pop cairo_selectfont } if } bind def
/g { setgray } bind def
/rg { setrgbcolor } bind def
/d1 { setcachedevice } bind def
/cairo_data_source {
  CairoDataIndex CairoData length lt
    { CairoData CairoDataIndex get /CairoDataIndex CairoDataIndex 1 add def }
    { () } ifelse
} def
/cairo_flush_ascii85_file { cairo_ascii85_file status { cairo_ascii85_file flushfile } if } def
/cairo_image { image cairo_flush_ascii85_file } def
/cairo_imagemask { imagemask cairo_flush_ascii85_file } def
%%EndProlog
%%BeginSetup
%%EndSetup
%%Page: 1 1
%%BeginPageSetup
%%PageBoundingBox: 1 0 44 45
%%EndPageSetup
q 1 0 43 45 rectclip
1 0 0 -1 0 45 cm q
0 g
42.75 3 m 37.5 3 l 37.5 0.75 l 37.5 0.336 37.164 0 36.75 0 c 31.5 0 l 31.086
 0 30.75 0.336 30.75 0.75 c 30.75 3 l 14.25 3 l 14.25 0.75 l 14.25 0.336
 13.914 0 13.5 0 c 8.25 0 l 7.836 0 7.5 0.336 7.5 0.75 c 7.5 3 l 2.25 3 
l 1.836 3 1.5 3.336 1.5 3.75 c 1.5 44.25 l 1.5 44.664 1.836 45 2.25 45 c
 42.75 45 l 43.164 45 43.5 44.664 43.5 44.25 c 43.5 3.75 l 43.5 3.336 43.164
 3 42.75 3 c h
32.25 1.5 m 36 1.5 l 36 6 l 32.25 6 l h
9 1.5 m 12.75 1.5 l 12.75 6 l 9 6 l h
3 4.5 m 7.5 4.5 l 7.5 6.75 l 7.5 7.164 7.836 7.5 8.25 7.5 c 13.5 7.5 l 
13.914 7.5 14.25 7.164 14.25 6.75 c 14.25 4.5 l 30.75 4.5 l 30.75 6.75 l
 30.75 7.164 31.086 7.5 31.5 7.5 c 36.75 7.5 l 37.164 7.5 37.5 7.164 37.5
 6.75 c 37.5 4.5 l 42 4.5 l 42 11.25 l 3 11.25 l h
3 43.5 m 3 12.75 l 42 12.75 l 42 43.5 l h
3 43.5 m f
28.5 17.25 m 8.25 17.25 l 8.25 39 l 36.75 39 l 36.75 17.25 l h
23.25 18.75 m 28.5 18.75 l 28.5 24 l 23.25 24 l h
28.5 30.75 m 23.25 30.75 l 23.25 25.5 l 28.5 25.5 l h
16.5 25.5 m 21.75 25.5 l 21.75 30.75 l 16.5 30.75 l h
16.5 18.75 m 21.75 18.75 l 21.75 24 l 16.5 24 l h
9.75 18.75 m 15 18.75 l 15 24 l 9.75 24 l h
9.75 25.5 m 15 25.5 l 15 30.75 l 9.75 30.75 l h
15 37.5 m 9.75 37.5 l 9.75 32.25 l 15 32.25 l h
21.75 37.5 m 16.5 37.5 l 16.5 32.25 l 21.75 32.25 l h
28.5 37.5 m 23.25 37.5 l 23.25 32.25 l 28.5 32.25 l h
35.25 37.5 m 30 37.5 l 30 32.25 l 35.25 32.25 l h
35.25 30.75 m 30 30.75 l 30 25.5 l 35.25 25.5 l h
35.25 18.75 m 35.25 24 l 30 24 l 30 18.75 l h
35.25 18.75 m f
Q Q
showpage
%%Trailer
end
%%EOF
