%!PS-Adobe-3.0 EPSF-3.0
%%Creator: cairo 1.15.12 (http://cairographics.org)
%%CreationDate: Sat Nov  2 14:21:25 2019
%%Pages: 1
%%DocumentData: Clean7Bit
%%LanguageLevel: 2
%%BoundingBox: 0 12 340 328
%%EndComments
%%BeginProlog
50 dict begin
/q { gsave } bind def
/Q { grestore } bind def
/cm { 6 array astore concat } bind def
/w { setlinewidth } bind def
/J { setlinecap } bind def
/j { setlinejoin } bind def
/M { setmiterlimit } bind def
/d { setdash } bind def
/m { moveto } bind def
/l { lineto } bind def
/c { curveto } bind def
/h { closepath } bind def
/re { exch dup neg 3 1 roll 5 3 roll moveto 0 rlineto
      0 exch rlineto 0 rlineto closepath } bind def
/S { stroke } bind def
/f { fill } bind def
/f* { eofill } bind def
/n { newpath } bind def
/W { clip } bind def
/W* { eoclip } bind def
/BT { } bind def
/ET { } bind def
/BDC { mark 3 1 roll /BDC pdfmark } bind def
/EMC { mark /EMC pdfmark } bind def
/cairo_store_point { /cairo_point_y exch def /cairo_point_x exch def } def
/Tj { show currentpoint cairo_store_point } bind def
/TJ {
  {
    dup
    type /stringtype eq
    { show } { -0.001 mul 0 cairo_font_matrix dtransform rmoveto } ifelse
  } forall
  currentpoint cairo_store_point
} bind def
/cairo_selectfont { cairo_font_matrix aload pop pop pop 0 0 6 array astore
    cairo_font exch selectfont cairo_point_x cairo_point_y moveto } bind def
/Tf { pop /cairo_font exch def /cairo_font_matrix where
      { pop cairo_selectfont } if } bind def
/Td { matrix translate cairo_font_matrix matrix concatmatrix dup
      /cairo_font_matrix exch def dup 4 get exch 5 get cairo_store_point
      /cairo_font where { pop cairo_selectfont } if } bind def
/Tm { 2 copy 8 2 roll 6 array astore /cairo_font_matrix exch def
      cairo_store_point /cairo_font where { pop cairo_selectfont } if } bind def
/g { setgray } bind def
/rg { setrgbcolor } bind def
/d1 { setcachedevice } bind def
/cairo_data_source {
  CairoDataIndex CairoData length lt
    { CairoData CairoDataIndex get /CairoDataIndex CairoDataIndex 1 add def }
    { () } ifelse
} def
/cairo_flush_ascii85_file { cairo_ascii85_file status { cairo_ascii85_file flushfile } if } def
/cairo_image { image cairo_flush_ascii85_file } def
/cairo_imagemask { imagemask cairo_flush_ascii85_file } def
%%EndProlog
%%BeginSetup
%%EndSetup
%%Page: 1 1
%%BeginPageSetup
%%PageBoundingBox: 0 12 340 328
%%EndPageSetup
q 0 12 340 316 rectclip
1 0 0 -1 0 340 cm q
0 g
337.113 142.801 m 293.746 114.047 l 293.746 17.949 l 293.746 14.84 291.227
 12.324 288.121 12.324 c 51.504 12.324 l 48.395 12.324 45.879 14.84 45.879
 17.949 c 45.879 114.055 l 2.516 142.801 l 2.52 142.801 l 1 143.809 0 145.531
 0 147.488 c 0 321.684 l 0 324.789 2.52 327.309 5.625 327.309 c 334.004 
327.309 l 337.113 327.309 339.629 324.789 339.629 321.684 c 339.629 147.488
 l 339.629 145.531 338.629 143.809 337.113 142.801 c h
45.879 162.473 m 28.234 153.113 l 45.879 153.113 l h
11.25 156.84 m 140.605 225.457 l 11.25 311.203 l h
169.812 219.59 m 315.34 316.059 l 24.285 316.059 l h
199.023 225.457 m 328.379 156.84 l 328.379 311.203 l h
293.746 153.113 m 311.398 153.113 l 293.746 162.477 l h
315.34 141.863 m 293.746 141.863 l 293.746 127.547 l h
282.496 23.574 m 282.496 168.441 l 188.352 218.383 l 172.922 208.156 l 
171.035 206.906 168.59 206.906 166.703 208.156 c 151.277 218.383 l 57.129
 168.441 l 57.129 23.574 l h
45.879 141.863 m 24.289 141.863 l 45.879 127.551 l h
45.879 141.863 m f
169.812 160.254 m 214.625 160.254 l 217.734 160.254 220.25 157.734 220.25
 154.629 c 220.25 151.523 217.734 149.004 214.625 149.004 c 169.812 149.004
 l 148.203 149.004 130.621 131.422 130.621 109.812 c 130.621 108.152 l 130.621
 86.543 148.203 68.961 169.812 68.961 c 191.422 68.961 209 86.543 209 108.152
 c 209 112.305 l 209 116.98 205.195 120.785 200.52 120.785 c 195.84 120.785
 192.035 116.98 192.035 112.305 c 192.035 104.418 l 192.035 91.02 181.133
 80.121 167.734 80.121 c 154.34 80.121 143.438 91.02 143.438 104.418 c 143.438
 117.816 154.34 128.715 167.734 128.715 c 173.863 128.715 179.465 126.434
 183.742 122.676 c 187.223 128.289 193.441 132.035 200.52 132.035 c 211.398
 132.035 220.25 123.184 220.25 112.301 c 220.25 108.152 l 220.25 80.34 197.625
 57.711 169.812 57.711 c 142 57.711 119.371 80.34 119.371 108.152 c 119.371
 109.812 l 119.371 137.625 142 160.254 169.812 160.254 c h
167.734 117.465 m 160.543 117.465 154.688 111.613 154.688 104.418 c 154.688
 97.223 160.543 91.371 167.734 91.371 c 174.93 91.371 180.785 97.223 180.785
 104.418 c 180.785 111.613 174.93 117.465 167.734 117.465 c h
167.734 117.465 m f
Q Q
showpage
%%Trailer
end
%%EOF
