%!PS-Adobe-3.0 EPSF-3.0
%%Creator: cairo 1.15.12 (http://cairographics.org)
%%CreationDate: Sat Nov  2 14:21:25 2019
%%Pages: 1
%%DocumentData: Clean7Bit
%%LanguageLevel: 2
%%BoundingBox: 0 6 43 37
%%EndComments
%%BeginProlog
50 dict begin
/q { gsave } bind def
/Q { grestore } bind def
/cm { 6 array astore concat } bind def
/w { setlinewidth } bind def
/J { setlinecap } bind def
/j { setlinejoin } bind def
/M { setmiterlimit } bind def
/d { setdash } bind def
/m { moveto } bind def
/l { lineto } bind def
/c { curveto } bind def
/h { closepath } bind def
/re { exch dup neg 3 1 roll 5 3 roll moveto 0 rlineto
      0 exch rlineto 0 rlineto closepath } bind def
/S { stroke } bind def
/f { fill } bind def
/f* { eofill } bind def
/n { newpath } bind def
/W { clip } bind def
/W* { eoclip } bind def
/BT { } bind def
/ET { } bind def
/BDC { mark 3 1 roll /BDC pdfmark } bind def
/EMC { mark /EMC pdfmark } bind def
/cairo_store_point { /cairo_point_y exch def /cairo_point_x exch def } def
/Tj { show currentpoint cairo_store_point } bind def
/TJ {
  {
    dup
    type /stringtype eq
    { show } { -0.001 mul 0 cairo_font_matrix dtransform rmoveto } ifelse
  } forall
  currentpoint cairo_store_point
} bind def
/cairo_selectfont { cairo_font_matrix aload pop pop pop 0 0 6 array astore
    cairo_font exch selectfont cairo_point_x cairo_point_y moveto } bind def
/Tf { pop /cairo_font exch def /cairo_font_matrix where
      { pop cairo_selectfont } if } bind def
/Td { matrix translate cairo_font_matrix matrix concatmatrix dup
      /cairo_font_matrix exch def dup 4 get exch 5 get cairo_store_point
      /cairo_font where { pop cairo_selectfont } if } bind def
/Tm { 2 copy 8 2 roll 6 array astore /cairo_font_matrix exch def
      cairo_store_point /cairo_font where { pop cairo_selectfont } if } bind def
/g { setgray } bind def
/rg { setrgbcolor } bind def
/d1 { setcachedevice } bind def
/cairo_data_source {
  CairoDataIndex CairoData length lt
    { CairoData CairoDataIndex get /CairoDataIndex CairoDataIndex 1 add def }
    { () } ifelse
} def
/cairo_flush_ascii85_file { cairo_ascii85_file status { cairo_ascii85_file flushfile } if } def
/cairo_image { image cairo_flush_ascii85_file } def
/cairo_imagemask { imagemask cairo_flush_ascii85_file } def
%%EndProlog
%%BeginSetup
%%EndSetup
%%Page: 1 1
%%BeginPageSetup
%%PageBoundingBox: 0 6 43 37
%%EndPageSetup
q 0 6 43 31 rectclip
1 0 0 -1 0 43 cm q
0 g
42.43 20.762 m 22.18 6.512 l 21.953 6.352 21.652 6.332 21.402 6.461 c 21.156
 6.59 21 6.844 21 7.125 c 21 20.457 l 1.18 6.52 l 0.953 6.359 0.652 6.34
 0.402 6.469 c 0.156 6.598 0 6.855 0 7.133 c 0 35.617 l 0 35.895 0.156 36.152
 0.402 36.281 c 0.516 36.336 0.633 36.367 0.75 36.367 c 0.902 36.367 1.051
 36.32 1.18 36.23 c 21 22.293 l 21 35.625 l 21 35.906 21.156 36.16 21.402
 36.289 c 21.516 36.348 21.633 36.375 21.75 36.375 c 21.902 36.375 22.055
 36.328 22.18 36.238 c 42.43 21.988 l 42.633 21.848 42.75 21.617 42.75 21.375
 c 42.75 21.133 42.633 20.902 42.43 20.762 c h
1.5 34.172 m 1.5 8.578 l 19.695 21.375 l h
22.5 34.18 m 22.5 8.57 l 40.695 21.375 l h
22.5 34.18 m f
Q Q
showpage
%%Trailer
end
%%EOF
