%!PS-Adobe-3.0 EPSF-3.0
%%Creator: cairo 1.15.12 (http://cairographics.org)
%%CreationDate: Sat Nov  2 14:21:25 2019
%%Pages: 1
%%DocumentData: Clean7Bit
%%LanguageLevel: 2
%%BoundingBox: 0 0 384 384
%%EndComments
%%BeginProlog
50 dict begin
/q { gsave } bind def
/Q { grestore } bind def
/cm { 6 array astore concat } bind def
/w { setlinewidth } bind def
/J { setlinecap } bind def
/j { setlinejoin } bind def
/M { setmiterlimit } bind def
/d { setdash } bind def
/m { moveto } bind def
/l { lineto } bind def
/c { curveto } bind def
/h { closepath } bind def
/re { exch dup neg 3 1 roll 5 3 roll moveto 0 rlineto
      0 exch rlineto 0 rlineto closepath } bind def
/S { stroke } bind def
/f { fill } bind def
/f* { eofill } bind def
/n { newpath } bind def
/W { clip } bind def
/W* { eoclip } bind def
/BT { } bind def
/ET { } bind def
/BDC { mark 3 1 roll /BDC pdfmark } bind def
/EMC { mark /EMC pdfmark } bind def
/cairo_store_point { /cairo_point_y exch def /cairo_point_x exch def } def
/Tj { show currentpoint cairo_store_point } bind def
/TJ {
  {
    dup
    type /stringtype eq
    { show } { -0.001 mul 0 cairo_font_matrix dtransform rmoveto } ifelse
  } forall
  currentpoint cairo_store_point
} bind def
/cairo_selectfont { cairo_font_matrix aload pop pop pop 0 0 6 array astore
    cairo_font exch selectfont cairo_point_x cairo_point_y moveto } bind def
/Tf { pop /cairo_font exch def /cairo_font_matrix where
      { pop cairo_selectfont } if } bind def
/Td { matrix translate cairo_font_matrix matrix concatmatrix dup
      /cairo_font_matrix exch def dup 4 get exch 5 get cairo_store_point
      /cairo_font where { pop cairo_selectfont } if } bind def
/Tm { 2 copy 8 2 roll 6 array astore /cairo_font_matrix exch def
      cairo_store_point /cairo_font where { pop cairo_selectfont } if } bind def
/g { setgray } bind def
/rg { setrgbcolor } bind def
/d1 { setcachedevice } bind def
/cairo_data_source {
  CairoDataIndex CairoData length lt
    { CairoData CairoDataIndex get /CairoDataIndex CairoDataIndex 1 add def }
    { () } ifelse
} def
/cairo_flush_ascii85_file { cairo_ascii85_file status { cairo_ascii85_file flushfile } if } def
/cairo_image { image cairo_flush_ascii85_file } def
/cairo_imagemask { imagemask cairo_flush_ascii85_file } def
%%EndProlog
%%BeginSetup
%%EndSetup
%%Page: 1 1
%%BeginPageSetup
%%PageBoundingBox: 0 0 384 384
%%EndPageSetup
q 0 0 384 384 rectclip
1 0 0 -1 0 384 cm q
0 g
381.801 70.438 m 313.551 2.195 l 312.145 0.789 310.238 0 308.25 0 c 85.5
 0 l 73.094 0 63 10.094 63 22.5 c 63 36.797 l 26.156 51.25 0 87.16 0 129.066
 c 0 133.211 3.359 136.566 7.5 136.566 c 99.066 136.566 l 103.211 136.566
 106.566 133.211 106.566 129.066 c 106.566 37.5 l 106.566 33.359 103.211
 30 99.066 30 c 91.84 30 84.793 30.785 78 32.262 c 78 22.5 l 78 18.363 81.363
 15 85.5 15 c 300.75 15 l 300.75 60.75 l 300.75 73.156 310.844 83.25 323.25
 83.25 c 369 83.25 l 369 361.5 l 369 365.637 365.637 369 361.5 369 c 85.5
 369 l 81.363 369 78 365.637 78 361.5 c 78 297.25 l 78 293.109 74.641 289.75
 70.5 289.75 c 66.359 289.75 63 293.109 63 297.25 c 63 361.5 l 63 373.906
 73.094 384 85.5 384 c 361.5 384 l 373.906 384 384 373.906 384 361.5 c 384
 75.742 l 384 73.75 383.211 71.844 381.801 70.438 c h
91.566 45.332 m 91.566 121.566 l 15.332 121.566 l 18.918 81.184 51.184 
48.918 91.566 45.332 c h
323.25 68.25 m 319.113 68.25 315.75 64.887 315.75 60.75 c 315.75 25.605
 l 358.402 68.25 l h
323.25 68.25 m f
75.801 264.699 m 74.406 263.301 72.473 262.5 70.5 262.5 c 68.527 262.5 
66.594 263.301 65.199 264.699 c 63.801 266.094 63 268.027 63 270 c 63 271.973
 63.801 273.906 65.199 275.301 c 66.594 276.699 68.527 277.5 70.5 277.5 
c 72.473 277.5 74.406 276.699 75.801 275.301 c 77.199 273.906 78 271.973
 78 270 c 78 268.027 77.199 266.094 75.801 264.699 c h
75.801 264.699 m f
125.934 56.863 m 121.789 56.863 118.434 60.223 118.434 64.363 c 118.434
 148.434 l 34.363 148.434 l 30.223 148.434 26.863 151.789 26.863 155.934
 c 26.863 210.559 71.305 255 125.934 255 c 180.559 255 225 210.559 225 155.934
 c 225 101.305 180.559 56.863 125.934 56.863 c h
133.434 72.195 m 150.988 73.754 167.012 80.738 179.809 91.449 c 133.434
 137.824 l h
125.934 240 m 82.105 240 46 206.289 42.195 163.434 c 125.934 163.434 l 
128 163.434 129.875 162.594 131.234 161.238 c 131.234 161.238 131.234 161.238
 131.234 161.234 c 190.418 102.055 l 202.637 116.652 210 135.449 210 155.934
 c 210 202.285 172.285 240 125.934 240 c h
125.934 240 m f
328.555 236.703 m 316.148 236.703 306.055 246.797 306.055 259.203 c 306.055
 262.312 306.688 265.277 307.836 267.973 c 264.625 311.184 l 261.656 309.734
 258.324 308.922 254.805 308.922 c 251.367 308.922 248.109 309.699 245.195
 311.082 c 216.504 282.387 l 217.496 279.852 218.051 277.09 218.051 274.203
 c 218.051 261.797 207.957 251.703 195.551 251.703 c 183.141 251.703 173.051
 261.797 173.051 274.203 c 173.051 277.566 173.797 280.754 175.121 283.621
 c 147.602 311.141 l 144.668 309.738 141.391 308.953 137.93 308.953 c 125.523
 308.953 115.43 319.047 115.43 331.453 c 115.43 343.859 125.523 353.953 
137.93 353.953 c 150.336 353.953 160.43 343.859 160.43 331.453 c 160.43 
327.977 159.637 324.68 158.223 321.738 c 185.59 294.371 l 188.594 295.859
 191.973 296.703 195.551 296.703 c 199.59 296.703 203.379 295.629 206.66
 293.758 c 234.543 321.641 l 233.109 324.602 232.305 327.918 232.305 331.422
 c 232.305 343.828 242.398 353.922 254.805 353.922 c 267.211 353.922 277.305
 343.828 277.305 331.422 c 277.305 328.004 276.535 324.762 275.164 321.859
 c 317.969 279.051 l 321.125 280.742 324.73 281.703 328.555 281.703 c 340.961
 281.703 351.055 271.609 351.055 259.203 c 351.055 246.797 340.961 236.703
 328.555 236.703 c h
137.93 338.953 m 133.793 338.953 130.43 335.59 130.43 331.453 c 130.43 
327.316 133.793 323.953 137.93 323.953 c 139.941 323.953 141.77 324.754 
143.117 326.051 c 143.148 326.082 143.172 326.117 143.203 326.148 c 143.238
 326.184 143.277 326.215 143.316 326.246 c 144.621 327.598 145.43 329.434
 145.43 331.453 c 145.43 335.59 142.062 338.953 137.93 338.953 c h
195.551 281.703 m 191.414 281.703 188.051 278.34 188.051 274.203 c 188.051
 270.066 191.414 266.703 195.551 266.703 c 199.684 266.703 203.051 270.066
 203.051 274.203 c 203.051 278.34 199.684 281.703 195.551 281.703 c h
254.801 338.922 m 250.668 338.922 247.301 335.559 247.301 331.422 c 247.301
 327.285 250.668 323.922 254.801 323.922 c 258.938 323.922 262.301 327.285
 262.301 331.422 c 262.301 335.559 258.938 338.922 254.801 338.922 c h
328.555 266.703 m 324.418 266.703 321.055 263.34 321.055 259.203 c 321.055
 255.066 324.418 251.703 328.555 251.703 c 332.688 251.703 336.055 255.066
 336.055 259.203 c 336.055 263.34 332.688 266.703 328.555 266.703 c h
328.555 266.703 m f
291.066 176.25 m 251.484 176.25 l 247.34 176.25 243.984 179.609 243.984
 183.75 c 243.984 187.891 247.34 191.25 251.484 191.25 c 291.066 191.25 
l 295.211 191.25 298.566 187.891 298.566 183.75 c 298.566 179.609 295.211
 176.25 291.066 176.25 c h
291.066 176.25 m f
330.516 178.449 m 329.121 177.051 327.188 176.25 325.215 176.25 c 323.242
 176.25 321.309 177.051 319.914 178.449 c 318.516 179.844 317.715 181.777
 317.715 183.75 c 317.715 185.723 318.516 187.656 319.914 189.051 c 321.309
 190.445 323.234 191.25 325.215 191.25 c 327.188 191.25 329.121 190.449 
330.516 189.051 c 331.91 187.656 332.715 185.723 332.715 183.75 c 332.715
 181.777 331.914 179.844 330.516 178.449 c h
330.516 178.449 m f
343.098 104.25 m 251.484 104.25 l 247.34 104.25 243.984 107.609 243.984
 111.75 c 243.984 115.891 247.34 119.25 251.484 119.25 c 343.098 119.25 
l 347.242 119.25 350.598 115.891 350.598 111.75 c 350.598 107.609 347.242
 104.25 343.098 104.25 c h
343.098 104.25 m f
343.098 140.25 m 251.484 140.25 l 247.34 140.25 243.984 143.609 243.984
 147.75 c 243.984 151.891 247.34 155.25 251.484 155.25 c 343.098 155.25 
l 347.242 155.25 350.598 151.891 350.598 147.75 c 350.598 143.609 347.242
 140.25 343.098 140.25 c h
343.098 140.25 m f
Q Q
showpage
%%Trailer
end
%%EOF
