%!PS-Adobe-3.0 EPSF-3.0
%%Creator: cairo 1.15.12 (http://cairographics.org)
%%CreationDate: Sat Nov  2 14:21:25 2019
%%Pages: 1
%%DocumentData: Clean7Bit
%%LanguageLevel: 2
%%BoundingBox: 0 3 384 383
%%EndComments
%%BeginProlog
50 dict begin
/q { gsave } bind def
/Q { grestore } bind def
/cm { 6 array astore concat } bind def
/w { setlinewidth } bind def
/J { setlinecap } bind def
/j { setlinejoin } bind def
/M { setmiterlimit } bind def
/d { setdash } bind def
/m { moveto } bind def
/l { lineto } bind def
/c { curveto } bind def
/h { closepath } bind def
/re { exch dup neg 3 1 roll 5 3 roll moveto 0 rlineto
      0 exch rlineto 0 rlineto closepath } bind def
/S { stroke } bind def
/f { fill } bind def
/f* { eofill } bind def
/n { newpath } bind def
/W { clip } bind def
/W* { eoclip } bind def
/BT { } bind def
/ET { } bind def
/BDC { mark 3 1 roll /BDC pdfmark } bind def
/EMC { mark /EMC pdfmark } bind def
/cairo_store_point { /cairo_point_y exch def /cairo_point_x exch def } def
/Tj { show currentpoint cairo_store_point } bind def
/TJ {
  {
    dup
    type /stringtype eq
    { show } { -0.001 mul 0 cairo_font_matrix dtransform rmoveto } ifelse
  } forall
  currentpoint cairo_store_point
} bind def
/cairo_selectfont { cairo_font_matrix aload pop pop pop 0 0 6 array astore
    cairo_font exch selectfont cairo_point_x cairo_point_y moveto } bind def
/Tf { pop /cairo_font exch def /cairo_font_matrix where
      { pop cairo_selectfont } if } bind def
/Td { matrix translate cairo_font_matrix matrix concatmatrix dup
      /cairo_font_matrix exch def dup 4 get exch 5 get cairo_store_point
      /cairo_font where { pop cairo_selectfont } if } bind def
/Tm { 2 copy 8 2 roll 6 array astore /cairo_font_matrix exch def
      cairo_store_point /cairo_font where { pop cairo_selectfont } if } bind def
/g { setgray } bind def
/rg { setrgbcolor } bind def
/d1 { setcachedevice } bind def
/cairo_data_source {
  CairoDataIndex CairoData length lt
    { CairoData CairoDataIndex get /CairoDataIndex CairoDataIndex 1 add def }
    { () } ifelse
} def
/cairo_flush_ascii85_file { cairo_ascii85_file status { cairo_ascii85_file flushfile } if } def
/cairo_image { image cairo_flush_ascii85_file } def
/cairo_imagemask { imagemask cairo_flush_ascii85_file } def
%%EndProlog
%%BeginSetup
%%EndSetup
%%Page: 1 1
%%BeginPageSetup
%%PageBoundingBox: 0 3 384 383
%%EndPageSetup
q 0 3 384 380 rectclip
1 0 0 -1 0 385 cm q
0 g
256.465 246.27 m 247.367 246.27 239.965 239.863 239.965 231.988 c 239.965
 224.113 247.367 217.707 256.465 217.707 c 265.562 217.707 272.965 224.113
 272.965 231.988 c 272.965 236.129 276.324 239.488 280.465 239.488 c 284.605
 239.488 287.965 236.129 287.965 231.988 c 287.965 218.242 277.727 206.688
 263.965 203.551 c 263.965 199.652 l 263.965 195.508 260.605 192.152 256.465
 192.152 c 252.324 192.152 248.965 195.508 248.965 199.652 c 248.965 203.551
 l 235.207 206.688 224.965 218.242 224.965 231.988 c 224.965 248.133 239.098
 261.27 256.465 261.27 c 265.562 261.27 272.965 267.676 272.965 275.551 
c 272.965 283.426 265.562 289.832 256.465 289.832 c 247.367 289.832 239.965
 283.426 239.965 275.551 c 239.965 271.41 236.605 268.051 232.465 268.051
 c 228.324 268.051 224.965 271.41 224.965 275.551 c 224.965 289.293 235.207
 300.852 248.965 303.984 c 248.965 307.227 l 248.965 311.367 252.324 314.727
 256.465 314.727 c 260.605 314.727 263.965 311.367 263.965 307.227 c 263.965
 303.984 l 277.727 300.852 287.965 289.293 287.965 275.551 c 287.965 259.402
 273.836 246.27 256.465 246.27 c h
256.465 246.27 m f
338.613 201.656 m 328.812 186.391 315.012 174.176 298.695 166.332 c 294.961
 164.535 290.48 166.109 288.684 169.84 c 286.891 173.574 288.461 178.055
 292.195 179.852 c 320.629 193.52 339 222.723 339 254.25 c 339 267.742 335.676
 281.121 329.383 292.945 c 327.438 296.602 328.824 301.141 332.484 303.086
 c 333.605 303.684 334.809 303.969 336 303.969 c 338.684 303.969 341.277
 302.523 342.625 299.988 c 350.066 286.008 354 270.191 354 254.25 c 354 
235.531 348.68 217.344 338.613 201.656 c h
338.613 201.656 m f
268.254 156.75 m 267.75 156.75 l 263.609 156.75 260.25 160.109 260.25 164.25
 c 260.25 168.395 263.609 171.75 267.75 171.75 c 268.184 171.75 l 268.195
 171.75 268.207 171.75 268.219 171.75 c 272.348 171.75 275.699 168.418 275.719
 164.285 c 275.738 160.145 272.395 156.77 268.254 156.75 c h
268.254 156.75 m f
220.805 328.652 m 192.371 314.984 174 285.777 174 254.25 c 174 240.758 
177.328 227.379 183.617 215.559 c 185.562 211.902 184.176 207.359 180.52
 205.414 c 176.863 203.469 172.32 204.855 170.375 208.512 c 162.934 222.496
 159 238.312 159 254.25 c 159 272.973 164.324 291.156 174.391 306.844 c 
184.188 322.109 197.992 334.328 214.305 342.172 c 215.355 342.676 216.461
 342.914 217.551 342.914 c 220.344 342.914 223.023 341.348 224.316 338.66
 c 226.109 334.926 224.539 330.445 220.805 328.652 c h
220.805 328.652 m f
245.25 336.75 m 244.816 336.75 l 240.656 336.742 237.301 340.07 237.285
 344.215 c 237.266 348.355 240.609 351.73 244.75 351.75 c 245.25 351.75 
l 249.395 351.75 252.75 348.391 252.75 344.25 c 252.75 340.109 249.395 336.75
 245.25 336.75 c h
245.25 336.75 m f
290.559 131.375 m 289.645 129.199 288.527 127.152 287.223 125.25 c 306.75
 125.25 l 325.773 125.25 341.25 109.773 341.25 90.75 c 341.25 71.727 325.773
 56.25 306.75 56.25 c 246.691 56.25 l 250.508 50.699 252.75 43.98 252.75
 36.75 c 252.75 17.727 237.273 2.25 218.25 2.25 c 34.5 2.25 l 15.477 2.25
 0 17.727 0 36.75 c 0 55.773 15.477 71.25 34.5 71.25 c 94.559 71.25 l 90.742
 76.801 88.5 83.52 88.5 90.75 c 88.5 97.98 90.742 104.699 94.559 110.25 
c 75 110.25 l 55.977 110.25 40.5 125.727 40.5 144.75 c 40.5 155.676 45.609
 165.426 53.562 171.75 c 45.609 178.074 40.5 187.824 40.5 198.75 c 40.5 
209.676 45.609 219.426 53.562 225.75 c 45.609 232.074 40.5 241.824 40.5 
252.75 c 40.5 263.676 45.609 273.426 53.562 279.75 c 45.609 286.074 40.5
 295.824 40.5 306.75 c 40.5 325.773 55.977 341.25 75 341.25 c 163.387 341.25
 l 186.672 366.156 219.797 381.75 256.5 381.75 c 326.805 381.75 384 324.555
 384 254.25 c 384 195.738 344.379 146.312 290.559 131.375 c h
306.75 71.25 m 317.504 71.25 326.25 79.996 326.25 90.75 c 326.25 101.504
 317.504 110.25 306.75 110.25 c 123 110.25 l 112.246 110.25 103.5 101.504
 103.5 90.75 c 103.5 79.996 112.246 71.25 123 71.25 c h
34.5 56.25 m 23.746 56.25 15 47.504 15 36.75 c 15 25.996 23.746 17.25 34.5
 17.25 c 218.25 17.25 l 229.004 17.25 237.75 25.996 237.75 36.75 c 237.75
 47.504 229.004 56.25 218.25 56.25 c h
75 125.25 m 258.75 125.25 l 261.77 125.25 264.664 125.953 267.258 127.211
 c 263.711 126.91 260.125 126.75 256.5 126.75 c 221.293 126.75 189.371 141.098
 166.277 164.25 c 75 164.25 l 64.246 164.25 55.5 155.504 55.5 144.75 c 55.5
 133.996 64.246 125.25 75 125.25 c h
75 179.25 m 153.461 179.25 l 144.945 190.914 138.363 204.07 134.184 218.25
 c 75 218.25 l 64.246 218.25 55.5 209.504 55.5 198.75 c 55.5 187.996 64.246
 179.25 75 179.25 c h
75 233.25 m 130.738 233.25 l 129.602 240.086 129 247.098 129 254.25 c 129
 260.359 129.441 266.367 130.277 272.25 c 75 272.25 l 64.246 272.25 55.5
 263.504 55.5 252.75 c 55.5 241.996 64.246 233.25 75 233.25 c h
75 326.25 m 64.246 326.25 55.5 317.504 55.5 306.75 c 55.5 295.996 64.246
 287.25 75 287.25 c 133.34 287.25 l 137.125 301.359 143.273 314.508 151.336
 326.25 c h
256.5 366.75 m 194.469 366.75 144 316.285 144 254.25 c 144 192.219 194.469
 141.75 256.5 141.75 c 318.535 141.75 369 192.219 369 254.25 c 369 316.285
 318.535 366.75 256.5 366.75 c h
256.5 366.75 m f
Q Q
showpage
%%Trailer
end
%%EOF
