%!PS-Adobe-3.0 EPSF-3.0
%%Creator: cairo 1.15.12 (http://cairographics.org)
%%CreationDate: Sat Nov  2 14:21:25 2019
%%Pages: 1
%%DocumentData: Clean7Bit
%%LanguageLevel: 2
%%BoundingBox: 0 0 222 222
%%EndComments
%%BeginProlog
50 dict begin
/q { gsave } bind def
/Q { grestore } bind def
/cm { 6 array astore concat } bind def
/w { setlinewidth } bind def
/J { setlinecap } bind def
/j { setlinejoin } bind def
/M { setmiterlimit } bind def
/d { setdash } bind def
/m { moveto } bind def
/l { lineto } bind def
/c { curveto } bind def
/h { closepath } bind def
/re { exch dup neg 3 1 roll 5 3 roll moveto 0 rlineto
      0 exch rlineto 0 rlineto closepath } bind def
/S { stroke } bind def
/f { fill } bind def
/f* { eofill } bind def
/n { newpath } bind def
/W { clip } bind def
/W* { eoclip } bind def
/BT { } bind def
/ET { } bind def
/BDC { mark 3 1 roll /BDC pdfmark } bind def
/EMC { mark /EMC pdfmark } bind def
/cairo_store_point { /cairo_point_y exch def /cairo_point_x exch def } def
/Tj { show currentpoint cairo_store_point } bind def
/TJ {
  {
    dup
    type /stringtype eq
    { show } { -0.001 mul 0 cairo_font_matrix dtransform rmoveto } ifelse
  } forall
  currentpoint cairo_store_point
} bind def
/cairo_selectfont { cairo_font_matrix aload pop pop pop 0 0 6 array astore
    cairo_font exch selectfont cairo_point_x cairo_point_y moveto } bind def
/Tf { pop /cairo_font exch def /cairo_font_matrix where
      { pop cairo_selectfont } if } bind def
/Td { matrix translate cairo_font_matrix matrix concatmatrix dup
      /cairo_font_matrix exch def dup 4 get exch 5 get cairo_store_point
      /cairo_font where { pop cairo_selectfont } if } bind def
/Tm { 2 copy 8 2 roll 6 array astore /cairo_font_matrix exch def
      cairo_store_point /cairo_font where { pop cairo_selectfont } if } bind def
/g { setgray } bind def
/rg { setrgbcolor } bind def
/d1 { setcachedevice } bind def
/cairo_data_source {
  CairoDataIndex CairoData length lt
    { CairoData CairoDataIndex get /CairoDataIndex CairoDataIndex 1 add def }
    { () } ifelse
} def
/cairo_flush_ascii85_file { cairo_ascii85_file status { cairo_ascii85_file flushfile } if } def
/cairo_image { image cairo_flush_ascii85_file } def
/cairo_imagemask { imagemask cairo_flush_ascii85_file } def
%%EndProlog
%%BeginSetup
%%EndSetup
%%Page: 1 1
%%BeginPageSetup
%%PageBoundingBox: 0 0 222 222
%%EndPageSetup
q 0 0 222 222 rectclip
1 0 0 -1 0 222 cm q
0 g
111 0 m 49.793 0 0 49.793 0 111 c 0 172.203 49.793 221.996 111 221.996 
c 172.203 221.996 221.996 172.203 221.996 111 c 221.996 49.793 172.203 0
 111 0 c h
111 209.996 m 83.805 209.996 59.141 198.977 41.23 181.168 c 34.078 174.055
 28.008 165.859 23.281 156.852 c 16.082 143.137 12 127.535 12 111 c 12 56.41
 56.41 12 111 12 c 136.891 12 160.488 21.996 178.148 38.328 c 187.305 46.793
 194.863 56.961 200.316 68.324 c 206.52 81.254 209.996 95.727 209.996 111
 c 209.996 165.586 165.586 209.996 111 209.996 c h
111 209.996 m f
86.75 86.25 m 86.75 92.875 81.375 98.25 74.75 98.25 c 68.121 98.25 62.75
 92.875 62.75 86.25 c 62.75 79.621 68.121 74.25 74.75 74.25 c 81.375 74.25
 86.75 79.621 86.75 86.25 c h
86.75 86.25 m f
161 86.25 m 161 92.875 155.625 98.25 149 98.25 c 142.371 98.25 137 92.875
 137 86.25 c 137 79.621 142.371 74.25 149 74.25 c 155.625 74.25 161 79.621
 161 86.25 c h
161 86.25 m f
110.785 172.496 m 134 172.496 156.25 160.625 168.988 140.91 c 158.91 134.398
 l 147.211 152.5 125.816 162.602 104.391 160.129 c 87.695 158.203 72.254
 148.586 63.086 134.398 c 53.008 140.91 l 64.102 158.078 82.793 169.719 
103.016 172.051 c 105.609 172.352 108.203 172.496 110.785 172.496 c h
110.785 172.496 m f
Q Q
showpage
%%Trailer
end
%%EOF
