%!PS-Adobe-3.0 EPSF-3.0
%%Creator: cairo 1.15.12 (http://cairographics.org)
%%CreationDate: Sat Nov  2 14:21:25 2019
%%Pages: 1
%%DocumentData: Clean7Bit
%%LanguageLevel: 2
%%BoundingBox: 0 27 384 357
%%EndComments
%%BeginProlog
50 dict begin
/q { gsave } bind def
/Q { grestore } bind def
/cm { 6 array astore concat } bind def
/w { setlinewidth } bind def
/J { setlinecap } bind def
/j { setlinejoin } bind def
/M { setmiterlimit } bind def
/d { setdash } bind def
/m { moveto } bind def
/l { lineto } bind def
/c { curveto } bind def
/h { closepath } bind def
/re { exch dup neg 3 1 roll 5 3 roll moveto 0 rlineto
      0 exch rlineto 0 rlineto closepath } bind def
/S { stroke } bind def
/f { fill } bind def
/f* { eofill } bind def
/n { newpath } bind def
/W { clip } bind def
/W* { eoclip } bind def
/BT { } bind def
/ET { } bind def
/BDC { mark 3 1 roll /BDC pdfmark } bind def
/EMC { mark /EMC pdfmark } bind def
/cairo_store_point { /cairo_point_y exch def /cairo_point_x exch def } def
/Tj { show currentpoint cairo_store_point } bind def
/TJ {
  {
    dup
    type /stringtype eq
    { show } { -0.001 mul 0 cairo_font_matrix dtransform rmoveto } ifelse
  } forall
  currentpoint cairo_store_point
} bind def
/cairo_selectfont { cairo_font_matrix aload pop pop pop 0 0 6 array astore
    cairo_font exch selectfont cairo_point_x cairo_point_y moveto } bind def
/Tf { pop /cairo_font exch def /cairo_font_matrix where
      { pop cairo_selectfont } if } bind def
/Td { matrix translate cairo_font_matrix matrix concatmatrix dup
      /cairo_font_matrix exch def dup 4 get exch 5 get cairo_store_point
      /cairo_font where { pop cairo_selectfont } if } bind def
/Tm { 2 copy 8 2 roll 6 array astore /cairo_font_matrix exch def
      cairo_store_point /cairo_font where { pop cairo_selectfont } if } bind def
/g { setgray } bind def
/rg { setrgbcolor } bind def
/d1 { setcachedevice } bind def
/cairo_data_source {
  CairoDataIndex CairoData length lt
    { CairoData CairoDataIndex get /CairoDataIndex CairoDataIndex 1 add def }
    { () } ifelse
} def
/cairo_flush_ascii85_file { cairo_ascii85_file status { cairo_ascii85_file flushfile } if } def
/cairo_image { image cairo_flush_ascii85_file } def
/cairo_imagemask { imagemask cairo_flush_ascii85_file } def
%%EndProlog
%%BeginSetup
%%EndSetup
%%Page: 1 1
%%BeginPageSetup
%%PageBoundingBox: 0 27 384 357
%%EndPageSetup
q 0 27 384 330 rectclip
1 0 0 -1 0 384 cm q
0 g
370.875 83.25 m 312 83.25 l 312 71.91 l 320.898 71.105 328.254 64.73 330.227
 55.848 c 333.086 42.973 l 333.957 39.066 333.016 35.035 330.512 31.91 c
 328.008 28.789 324.277 27 320.277 27 c 63.723 27 l 59.723 27 55.992 28.789
 53.488 31.91 c 50.984 35.035 50.043 39.066 50.914 42.973 c 53.773 55.848
 l 55.746 64.73 63.102 71.105 72 71.91 c 72 83.25 l 13.5 83.25 l 6.184 83.25
 0 89.262 0 96.375 c 0 115.125 l 0 130.137 11.98 142.438 27 143.211 c 27
 151.875 l 27 171.52 43.148 187.5 63 187.5 c 81.07 187.5 l 96.32 224.34 
129.402 251.988 169.5 259.625 c 169.5 279.375 l 169.5 288.082 162.715 295.469
 154.055 296.191 c 153.906 296.203 153.758 296.227 153.613 296.25 c 147.375
 296.25 l 138.07 296.25 130.5 303.82 130.5 313.125 c 130.5 318.75 l 119.625
 318.75 l 109.078 318.75 100.5 327.328 100.5 337.875 c 100.5 348.422 109.078
 357 119.625 357 c 264.375 357 l 274.922 357 283.5 348.422 283.5 337.875
 c 283.5 327.328 274.922 318.75 264.375 318.75 c 253.5 318.75 l 253.5 313.125
 l 253.5 303.82 245.93 296.25 236.625 296.25 c 231.375 296.25 l 222.07 296.25
 214.5 288.68 214.5 279.375 c 214.5 259.625 l 254.598 251.988 287.68 224.34
 302.93 187.5 c 321.375 187.5 l 341.02 187.5 357 171.52 357 151.875 c 357
 143.227 l 371.988 142.637 384 130.258 384 115.125 c 384 96.375 l 384 89.137
 378.113 83.25 370.875 83.25 c h
312 117 m 323.25 117 l 323.25 148.125 l 323.25 151.227 320.727 153.75 317.625
 153.75 c 311.402 153.75 l 311.797 149.801 312 145.801 312 141.75 c h
72.598 153.75 m 66.75 153.75 l 63.555 153.75 60.75 151.121 60.75 148.125
 c 60.75 117 l 72 117 l 72 141.75 l 72 145.801 72.203 149.801 72.598 153.75
 c h
63 176.25 m 49.352 176.25 38.25 165.316 38.25 151.875 c 38.25 137.625 l
 38.25 134.52 35.73 132 32.625 132 c 28.5 132 l 19.148 132 11.25 124.273
 11.25 115.125 c 11.25 96.375 l 11.25 95.445 12.387 94.5 13.5 94.5 c 72 
94.5 l 72 105.75 l 55.125 105.75 l 52.02 105.75 49.5 108.27 49.5 111.375
 c 49.5 148.125 l 49.5 157.273 57.398 165 66.75 165 c 74.27 165 l 75.023
 168.816 75.957 172.57 77.062 176.25 c h
242.25 313.125 m 242.25 318.75 l 177.75 318.75 l 174.645 318.75 172.125
 321.27 172.125 324.375 c 172.125 327.48 174.645 330 177.75 330 c 264.375
 330 l 268.719 330 272.25 333.531 272.25 337.875 c 272.25 342.219 268.719
 345.75 264.375 345.75 c 119.625 345.75 l 115.281 345.75 111.75 342.219 
111.75 337.875 c 111.75 333.531 115.281 330 119.625 330 c 151.5 330 l 154.605
 330 157.125 327.48 157.125 324.375 c 157.125 321.27 154.605 318.75 151.5
 318.75 c 141.75 318.75 l 141.75 313.125 l 141.75 310.023 144.273 307.5 
147.375 307.5 c 236.625 307.5 l 239.727 307.5 242.25 310.023 242.25 313.125
 c h
208.891 296.25 m 175.055 296.25 l 178.629 291.516 180.75 285.652 180.75
 279.375 c 180.75 261.219 l 184.453 261.566 188.203 261.75 192 261.75 c 
195.793 261.75 199.543 261.566 203.25 261.219 c 203.25 279.375 l 203.25 
285.703 205.352 291.547 208.891 296.25 c h
192 250.5 m 146.367 250.5 107.215 222.246 91.102 182.312 c 91.113 182.168
 91.125 182.023 91.125 181.875 c 91.125 180.289 90.469 178.863 89.414 177.84
 c 85.426 166.539 83.25 154.395 83.25 141.75 c 83.25 72 l 260.5 72 l 263.605
 72 266.125 69.48 266.125 66.375 c 266.125 63.27 263.605 60.75 260.5 60.75
 c 73.906 60.75 l 69.48 60.75 65.715 57.73 64.754 53.41 c 61.895 40.531 
l 61.723 39.766 62.051 39.215 62.262 38.953 c 62.473 38.691 62.941 38.25
 63.723 38.25 c 320.277 38.25 l 321.059 38.25 321.527 38.688 321.738 38.953
 c 321.949 39.215 322.277 39.766 322.105 40.531 c 319.246 53.41 l 318.285
 57.73 314.52 60.75 310.094 60.75 c 286.75 60.75 l 283.641 60.75 281.125
 63.27 281.125 66.375 c 281.125 69.48 283.641 72 286.75 72 c 300.75 72 l
 300.75 141.75 l 300.75 154.395 298.574 166.539 294.586 177.84 c 293.531
 178.863 292.875 180.289 292.875 181.875 c 292.875 182.023 292.887 182.168
 292.898 182.312 c 276.785 222.246 237.633 250.5 192 250.5 c h
372.75 115.125 m 372.75 124.43 365.18 132 355.875 132 c 351.375 132 l 348.27
 132 345.75 134.52 345.75 137.625 c 345.75 151.875 l 345.75 165.316 334.816
 176.25 321.375 176.25 c 306.938 176.25 l 308.043 172.57 308.98 168.816 
309.73 165 c 317.625 165 l 326.93 165 334.5 157.43 334.5 148.125 c 334.5
 111.375 l 334.5 108.27 331.98 105.75 328.875 105.75 c 312 105.75 l 312 
94.5 l 370.875 94.5 l 371.91 94.5 372.75 95.34 372.75 96.375 c h
372.75 115.125 m f
236.652 131.062 m 212.09 127.496 l 201.102 105.238 l 199.379 101.746 195.891
 99.578 192 99.578 c 188.105 99.578 184.617 101.746 182.895 105.238 c 171.91
 127.496 l 147.348 131.062 l 143.496 131.625 140.355 134.273 139.152 137.973
 c 137.949 141.676 138.934 145.664 141.723 148.379 c 159.496 165.707 l 155.297
 190.168 l 154.641 194.004 156.188 197.809 159.336 200.098 c 162.484 202.387
 166.582 202.684 170.031 200.871 c 192 189.32 l 213.969 200.871 l 215.465
 201.66 217.09 202.047 218.703 202.047 c 220.797 202.047 222.879 201.391
 224.66 200.098 c 227.809 197.809 229.355 194.004 228.699 190.168 c 224.504
 165.707 l 242.277 148.383 l 245.062 145.664 246.047 141.676 244.848 137.973
 c 243.645 134.273 240.504 131.625 236.652 131.062 c h
216.238 158.055 m 213.848 160.383 212.754 163.742 213.316 167.039 c 217.234
 189.879 l 196.723 179.094 l 195.242 178.316 193.621 177.93 192 177.93 c
 190.379 177.93 188.754 178.316 187.273 179.094 c 166.762 189.879 l 170.68
 167.035 l 171.246 163.742 170.152 160.383 167.762 158.055 c 151.168 141.879
 l 174.102 138.547 l 177.406 138.066 180.262 135.988 181.742 132.992 c 192
 112.211 l 202.258 132.992 l 203.734 135.988 206.594 138.066 209.898 138.547
 c 232.832 141.879 l h
216.238 158.055 m f
Q Q
showpage
%%Trailer
end
%%EOF
