%!PS-Adobe-3.0 EPSF-3.0
%%Creator: cairo 1.15.12 (http://cairographics.org)
%%CreationDate: Sat Nov  2 14:21:25 2019
%%Pages: 1
%%DocumentData: Clean7Bit
%%LanguageLevel: 2
%%BoundingBox: 0 0 384 384
%%EndComments
%%BeginProlog
50 dict begin
/q { gsave } bind def
/Q { grestore } bind def
/cm { 6 array astore concat } bind def
/w { setlinewidth } bind def
/J { setlinecap } bind def
/j { setlinejoin } bind def
/M { setmiterlimit } bind def
/d { setdash } bind def
/m { moveto } bind def
/l { lineto } bind def
/c { curveto } bind def
/h { closepath } bind def
/re { exch dup neg 3 1 roll 5 3 roll moveto 0 rlineto
      0 exch rlineto 0 rlineto closepath } bind def
/S { stroke } bind def
/f { fill } bind def
/f* { eofill } bind def
/n { newpath } bind def
/W { clip } bind def
/W* { eoclip } bind def
/BT { } bind def
/ET { } bind def
/BDC { mark 3 1 roll /BDC pdfmark } bind def
/EMC { mark /EMC pdfmark } bind def
/cairo_store_point { /cairo_point_y exch def /cairo_point_x exch def } def
/Tj { show currentpoint cairo_store_point } bind def
/TJ {
  {
    dup
    type /stringtype eq
    { show } { -0.001 mul 0 cairo_font_matrix dtransform rmoveto } ifelse
  } forall
  currentpoint cairo_store_point
} bind def
/cairo_selectfont { cairo_font_matrix aload pop pop pop 0 0 6 array astore
    cairo_font exch selectfont cairo_point_x cairo_point_y moveto } bind def
/Tf { pop /cairo_font exch def /cairo_font_matrix where
      { pop cairo_selectfont } if } bind def
/Td { matrix translate cairo_font_matrix matrix concatmatrix dup
      /cairo_font_matrix exch def dup 4 get exch 5 get cairo_store_point
      /cairo_font where { pop cairo_selectfont } if } bind def
/Tm { 2 copy 8 2 roll 6 array astore /cairo_font_matrix exch def
      cairo_store_point /cairo_font where { pop cairo_selectfont } if } bind def
/g { setgray } bind def
/rg { setrgbcolor } bind def
/d1 { setcachedevice } bind def
/cairo_data_source {
  CairoDataIndex CairoData length lt
    { CairoData CairoDataIndex get /CairoDataIndex CairoDataIndex 1 add def }
    { () } ifelse
} def
/cairo_flush_ascii85_file { cairo_ascii85_file status { cairo_ascii85_file flushfile } if } def
/cairo_image { image cairo_flush_ascii85_file } def
/cairo_imagemask { imagemask cairo_flush_ascii85_file } def
%%EndProlog
%%BeginSetup
%%EndSetup
%%Page: 1 1
%%BeginPageSetup
%%PageBoundingBox: 0 0 384 384
%%EndPageSetup
q 0 0 384 384 rectclip
1 0 0 -1 0 384 cm q
0 g
358.398 76.801 m 344.281 76.801 332.801 88.281 332.801 102.398 c 332.801
 116.52 344.281 128 358.398 128 c 372.52 128 384 116.52 384 102.398 c 384
 88.281 372.52 76.801 358.398 76.801 c h
358.398 115.199 m 351.34 115.199 345.602 109.461 345.602 102.398 c 345.602
 95.34 351.34 89.598 358.398 89.598 c 365.461 89.598 371.199 95.34 371.199
 102.398 c 371.199 109.461 365.461 115.199 358.398 115.199 c h
358.398 115.199 m f
25.602 288 m 11.48 288 0 299.48 0 313.602 c 0 327.719 11.48 339.199 25.602
 339.199 c 39.719 339.199 51.199 327.719 51.199 313.602 c 51.199 299.48 
39.719 288 25.602 288 c h
25.602 326.398 m 18.539 326.398 12.801 320.66 12.801 313.602 c 12.801 306.539
 18.539 300.801 25.602 300.801 c 32.66 300.801 38.398 306.539 38.398 313.602
 c 38.398 320.66 32.66 326.398 25.602 326.398 c h
25.602 326.398 m f
345.992 84.891 m 290.777 58.234 l 287.59 56.691 283.77 58.035 282.234 61.215
 c 280.699 64.398 282.035 68.223 285.215 69.762 c 340.43 96.418 l 341.324
 96.852 342.273 97.055 343.207 97.055 c 345.586 97.055 347.871 95.727 348.973
 93.434 c 350.508 90.254 349.172 86.426 345.992 84.891 c h
345.992 84.891 m f
288 332.801 m 273.883 332.801 262.398 344.281 262.398 358.398 c 262.398
 372.516 273.883 384 288 384 c 302.117 384 313.602 372.52 313.602 358.398
 c 313.602 344.281 302.117 332.801 288 332.801 c h
288 371.199 m 280.941 371.199 275.199 365.461 275.199 358.398 c 275.199
 351.34 280.941 345.602 288 345.602 c 295.059 345.602 300.801 351.34 300.801
 358.398 c 300.801 365.461 295.059 371.199 288 371.199 c h
288 371.199 m f
275.59 340.891 m 220.379 314.234 l 217.191 312.691 213.371 314.031 211.832
 317.219 c 210.297 320.398 211.637 324.227 214.816 325.762 c 270.027 352.418
 l 270.926 352.852 271.871 353.055 272.805 353.055 c 275.188 353.055 277.473
 351.727 278.574 349.434 c 280.109 346.254 278.77 342.426 275.59 340.891
 c h
275.59 340.891 m f
192 172.801 m 177.883 172.801 166.398 184.281 166.398 198.398 c 166.398
 212.52 177.883 224 192 224 c 206.117 224 217.602 212.52 217.602 198.398
 c 217.602 184.281 206.117 172.801 192 172.801 c h
192 211.199 m 184.941 211.199 179.199 205.461 179.199 198.398 c 179.199
 191.34 184.941 185.598 192 185.598 c 199.059 185.598 204.801 191.34 204.801
 198.398 c 204.801 205.461 199.059 211.199 192 211.199 c h
192 211.199 m f
180.75 181.605 m 138.336 148.551 l 135.547 146.395 131.527 146.875 129.352
 149.664 c 127.18 152.453 127.672 156.473 130.465 158.648 c 172.875 191.707
 l 174.047 192.613 175.43 193.059 176.805 193.059 c 178.715 193.059 180.594
 192.211 181.863 190.594 c 184.031 187.801 183.539 183.781 180.75 181.605
 c h
180.75 181.605 m f
307.199 166.398 m 268.383 166.398 236.801 197.984 236.801 236.801 c 236.801
 275.617 268.383 307.199 307.199 307.199 c 346.016 307.199 377.602 275.617
 377.602 236.801 c 377.602 197.984 346.016 166.398 307.199 166.398 c h
307.199 294.398 m 275.438 294.398 249.602 268.562 249.602 236.801 c 249.602
 205.035 275.438 179.199 307.199 179.199 c 338.965 179.199 364.801 205.035
 364.801 236.801 c 364.801 268.562 338.965 294.398 307.199 294.398 c h
307.199 294.398 m f
307.199 192 m 293.082 192 281.602 203.48 281.602 217.602 c 281.602 231.719
 293.082 243.199 307.199 243.199 c 321.32 243.199 332.801 231.719 332.801
 217.602 c 332.801 203.48 321.32 192 307.199 192 c h
307.199 230.398 m 300.141 230.398 294.398 224.66 294.398 217.602 c 294.398
 210.539 300.141 204.801 307.199 204.801 c 314.258 204.801 320 210.539 320
 217.602 c 320 224.66 314.258 230.398 307.199 230.398 c h
307.199 230.398 m f
325.766 256 m 288.633 256 l 277.695 256 268.801 264.66 268.801 275.297 
c 268.801 292.168 l 268.801 294.449 270.016 296.562 271.992 297.707 c 282.719
 303.918 294.891 307.199 307.199 307.199 c 319.508 307.199 331.68 303.918
 342.406 297.707 c 344.383 296.57 345.602 294.449 345.602 292.172 c 345.602
 275.301 l 345.602 264.66 336.703 256 325.766 256 c h
332.801 288.352 m 316.871 296.289 297.531 296.289 281.598 288.352 c 281.598
 275.301 l 281.598 271.719 284.754 268.801 288.633 268.801 c 325.766 268.801
 l 329.645 268.801 332.801 271.719 332.801 275.301 c h
332.801 288.352 m f
153.602 243.199 m 114.785 243.199 83.199 274.785 83.199 313.602 c 83.199
 352.418 114.785 384 153.602 384 c 192.418 384 224 352.414 224 313.602 c
 224 274.785 192.418 243.199 153.602 243.199 c h
153.602 371.199 m 121.836 371.199 96 345.363 96 313.602 c 96 281.836 121.836
 256 153.602 256 c 185.363 256 211.199 281.836 211.199 313.602 c 211.199
 345.363 185.363 371.199 153.602 371.199 c h
153.602 371.199 m f
153.602 268.801 m 139.48 268.801 128 280.281 128 294.398 c 128 308.52 139.48
 320 153.602 320 c 167.719 320 179.199 308.52 179.199 294.398 c 179.199 
280.281 167.719 268.801 153.602 268.801 c h
153.602 307.199 m 146.539 307.199 140.801 301.461 140.801 294.398 c 140.801
 287.34 146.539 281.598 153.602 281.598 c 160.66 281.598 166.398 287.34 
166.398 294.398 c 166.398 301.461 160.66 307.199 153.602 307.199 c h
153.602 307.199 m f
172.168 332.801 m 135.035 332.801 l 124.098 332.801 115.199 341.461 115.199
 352.098 c 115.199 368.965 l 115.199 371.25 116.414 373.363 118.395 374.508
 c 129.121 380.715 141.293 384 153.602 384 c 165.906 384 178.078 380.715
 188.805 374.508 c 190.785 373.371 192 371.25 192 368.973 c 192 352.102 
l 192 341.461 183.105 332.801 172.168 332.801 c h
179.199 365.152 m 163.27 373.086 143.93 373.086 128 365.152 c 128 352.102
 l 128 348.52 131.156 345.602 135.031 345.602 c 172.164 345.602 l 176.043
 345.602 179.199 348.52 179.199 352.102 c h
179.199 365.152 m f
70.398 83.199 m 31.586 83.199 0 114.785 0 153.602 c 0 192.418 31.586 224
 70.398 224 c 109.215 224 140.801 192.418 140.801 153.602 c 140.801 114.785
 109.215 83.199 70.398 83.199 c h
70.398 211.199 m 38.637 211.199 12.801 185.363 12.801 153.602 c 12.801 
121.836 38.637 96 70.398 96 c 102.164 96 128 121.836 128 153.602 c 128 185.363
 102.164 211.199 70.398 211.199 c h
70.398 211.199 m f
70.398 108.801 m 56.281 108.801 44.801 120.281 44.801 134.398 c 44.801 
148.52 56.281 160 70.398 160 c 84.52 160 96 148.52 96 134.398 c 96 120.281
 84.52 108.801 70.398 108.801 c h
70.398 147.199 m 63.34 147.199 57.602 141.461 57.602 134.398 c 57.602 127.34
 63.34 121.602 70.398 121.602 c 77.461 121.602 83.199 127.34 83.199 134.398
 c 83.199 141.461 77.461 147.199 70.398 147.199 c h
70.398 147.199 m f
88.965 172.801 m 51.836 172.801 l 40.898 172.801 32 181.461 32 192.098 
c 32 208.965 l 32 211.25 33.215 213.363 35.195 214.508 c 45.922 220.715 
58.094 224 70.398 224 c 82.707 224 94.879 220.715 105.605 214.508 c 107.586
 213.371 108.801 211.25 108.801 208.973 c 108.801 192.102 l 108.801 181.461
 99.902 172.801 88.965 172.801 c h
96 205.152 m 80.07 213.086 60.73 213.086 44.801 205.152 c 44.801 192.102
 l 44.801 188.52 47.953 185.602 51.832 185.602 c 88.965 185.602 l 92.844
 185.602 96 188.52 96 192.102 c h
96 205.152 m f
224 0 m 185.184 0 153.602 31.586 153.602 70.398 c 153.602 109.215 185.184
 140.801 224 140.801 c 262.816 140.801 294.402 109.215 294.402 70.398 c 
294.398 31.586 262.816 0 224 0 c h
224 128 m 192.238 128 166.398 102.164 166.398 70.398 c 166.398 38.637 192.238
 12.801 224 12.801 c 255.762 12.801 281.602 38.637 281.602 70.398 c 281.602
 102.164 255.762 128 224 128 c h
224 128 m f
224 25.602 m 209.883 25.602 198.402 37.082 198.402 51.199 c 198.402 65.316
 209.883 76.801 224 76.801 c 238.117 76.801 249.602 65.316 249.602 51.199
 c 249.602 37.082 238.117 25.602 224 25.602 c h
224 64 m 216.941 64 211.199 58.258 211.199 51.199 c 211.199 44.141 216.941
 38.398 224 38.398 c 231.059 38.398 236.801 44.141 236.801 51.199 c 236.801
 58.258 231.059 64 224 64 c h
224 64 m f
242.566 89.602 m 205.434 89.602 l 194.496 89.602 185.602 98.258 185.602
 108.895 c 185.602 125.766 l 185.602 128.051 186.816 130.164 188.793 131.309
 c 199.52 137.516 211.691 140.801 224 140.801 c 236.309 140.801 248.48 137.516
 259.207 131.309 c 261.184 130.172 262.398 128.051 262.398 125.773 c 262.398
 108.902 l 262.398 98.258 253.504 89.602 242.566 89.602 c h
249.602 121.953 m 233.672 129.887 214.328 129.887 198.398 121.953 c 198.398
 108.902 l 198.398 105.32 201.555 102.402 205.434 102.402 c 242.566 102.402
 l 246.445 102.402 249.598 105.32 249.598 108.902 c 249.598 121.953 l h
249.602 121.953 m f
164.871 66.234 m 162.574 63.559 158.535 63.238 155.848 65.535 c 111.496
 103.488 l 108.805 105.785 108.492 109.824 110.789 112.512 c 112.059 113.992
 113.848 114.754 115.652 114.754 c 117.125 114.754 118.605 114.246 119.812
 113.211 c 164.164 75.258 l 166.855 72.961 167.168 68.922 164.871 66.234
 c h
164.871 66.234 m f
305.918 168.965 m 267.52 117.766 l 265.402 114.93 261.387 114.375 258.559
 116.484 c 255.73 118.605 255.16 122.617 257.277 125.441 c 295.68 176.641
 l 296.941 178.316 298.859 179.199 300.805 179.199 c 302.137 179.199 303.488
 178.785 304.641 177.918 c 307.469 175.801 308.039 171.789 305.918 168.965
 c h
305.918 168.965 m f
253.395 257.965 m 251.277 255.137 247.266 254.566 244.434 256.684 c 208.684
 283.492 l 205.855 285.613 205.285 289.625 207.402 292.449 c 208.664 294.125
 210.586 295.008 212.531 295.008 c 213.867 295.008 215.211 294.586 216.363
 293.727 c 252.113 266.918 l 254.945 264.801 255.516 260.785 253.395 257.965
 c h
253.395 257.965 m f
89.602 307.199 m 44.801 307.199 l 41.266 307.199 38.398 310.059 38.398 
313.602 c 38.398 317.141 41.266 320 44.801 320 c 89.598 320 l 93.133 320
 96 317.141 96 313.602 c 96 310.059 93.133 307.199 89.602 307.199 c h
89.602 307.199 m f
70.398 0 m 56.281 0 44.801 11.48 44.801 25.602 c 44.801 39.719 56.281 51.199
 70.398 51.199 c 84.52 51.199 96 39.719 96 25.602 c 96 11.48 84.52 0 70.398
 0 c h
70.398 38.398 m 63.34 38.398 57.602 32.66 57.602 25.602 c 57.602 18.539
 63.34 12.801 70.398 12.801 c 77.461 12.801 83.199 18.539 83.199 25.602 
c 83.199 32.66 77.461 38.398 70.398 38.398 c h
70.398 38.398 m f
70.398 38.398 m 66.867 38.398 64 41.262 64 44.801 c 64 89.598 l 64 93.141
 66.867 96 70.398 96 c 73.934 96 76.801 93.141 76.801 89.598 c 76.801 44.801
 l 76.801 41.262 73.934 38.398 70.398 38.398 c h
70.398 38.398 m f
Q Q
showpage
%%Trailer
end
%%EOF
