%!PS-Adobe-3.0 EPSF-3.0
%%Creator: cairo 1.15.12 (http://cairographics.org)
%%CreationDate: Sat Nov  2 14:21:25 2019
%%Pages: 1
%%DocumentData: Clean7Bit
%%LanguageLevel: 2
%%BoundingBox: 0 0 384 384
%%EndComments
%%BeginProlog
50 dict begin
/q { gsave } bind def
/Q { grestore } bind def
/cm { 6 array astore concat } bind def
/w { setlinewidth } bind def
/J { setlinecap } bind def
/j { setlinejoin } bind def
/M { setmiterlimit } bind def
/d { setdash } bind def
/m { moveto } bind def
/l { lineto } bind def
/c { curveto } bind def
/h { closepath } bind def
/re { exch dup neg 3 1 roll 5 3 roll moveto 0 rlineto
      0 exch rlineto 0 rlineto closepath } bind def
/S { stroke } bind def
/f { fill } bind def
/f* { eofill } bind def
/n { newpath } bind def
/W { clip } bind def
/W* { eoclip } bind def
/BT { } bind def
/ET { } bind def
/BDC { mark 3 1 roll /BDC pdfmark } bind def
/EMC { mark /EMC pdfmark } bind def
/cairo_store_point { /cairo_point_y exch def /cairo_point_x exch def } def
/Tj { show currentpoint cairo_store_point } bind def
/TJ {
  {
    dup
    type /stringtype eq
    { show } { -0.001 mul 0 cairo_font_matrix dtransform rmoveto } ifelse
  } forall
  currentpoint cairo_store_point
} bind def
/cairo_selectfont { cairo_font_matrix aload pop pop pop 0 0 6 array astore
    cairo_font exch selectfont cairo_point_x cairo_point_y moveto } bind def
/Tf { pop /cairo_font exch def /cairo_font_matrix where
      { pop cairo_selectfont } if } bind def
/Td { matrix translate cairo_font_matrix matrix concatmatrix dup
      /cairo_font_matrix exch def dup 4 get exch 5 get cairo_store_point
      /cairo_font where { pop cairo_selectfont } if } bind def
/Tm { 2 copy 8 2 roll 6 array astore /cairo_font_matrix exch def
      cairo_store_point /cairo_font where { pop cairo_selectfont } if } bind def
/g { setgray } bind def
/rg { setrgbcolor } bind def
/d1 { setcachedevice } bind def
/cairo_data_source {
  CairoDataIndex CairoData length lt
    { CairoData CairoDataIndex get /CairoDataIndex CairoDataIndex 1 add def }
    { () } ifelse
} def
/cairo_flush_ascii85_file { cairo_ascii85_file status { cairo_ascii85_file flushfile } if } def
/cairo_image { image cairo_flush_ascii85_file } def
/cairo_imagemask { imagemask cairo_flush_ascii85_file } def
%%EndProlog
%%BeginSetup
%%EndSetup
%%Page: 1 1
%%BeginPageSetup
%%PageBoundingBox: 0 0 384 384
%%EndPageSetup
q 0 0 384 384 rectclip
1 0 0 -1 0 384 cm q
0 g
232.5 142.5 m 228.359 142.5 225 145.859 225 150 c 225 154.141 228.359 157.5
 232.5 157.5 c 236.641 157.5 240 154.141 240 150 c 240 145.859 236.641 142.5
 232.5 142.5 c h
232.5 142.5 m f
375.211 332.789 m 275.102 232.68 l 291.41 208.113 300 179.668 300 150 c
 300 67.289 232.711 0 150 0 c 67.289 0 0 67.289 0 150 c 0 232.711 67.289
 300 150 300 c 179.668 300 208.113 291.41 232.68 275.102 c 260.352 302.773
 l 260.355 302.777 260.359 302.781 260.363 302.785 c 332.789 375.211 l 338.457
 380.879 345.988 384 354 384 c 362.012 384 369.543 380.879 375.207 375.215
 c 380.879 369.547 384 362.016 384 354 c 384 345.984 380.879 338.453 375.211
 332.789 c h
229.152 259.297 m 206 276.113 178.633 285 150 285 c 75.562 285 15 224.438
 15 150 c 15 75.562 75.562 15 150 15 c 224.438 15 285 75.562 285 150 c 285
 178.633 276.113 206 259.297 229.152 c 250.883 240.742 240.742 250.883 229.152
 259.297 c h
244.887 266.094 m 252.648 259.746 259.746 252.648 266.094 244.887 c 287.371
 266.164 l 280.902 273.801 273.801 280.902 266.164 287.371 c h
364.605 364.605 m 361.77 367.438 358.004 369 354 369 c 349.996 369 346.23
 367.438 343.395 364.605 c 276.801 298.008 l 284.395 291.488 291.488 284.395
 298.008 276.801 c 364.605 343.398 l 367.438 346.23 369 349.992 369 354 
c 369 358.008 367.438 361.77 364.605 364.605 c h
364.605 364.605 m f
150 30 m 83.832 30 30 83.832 30 150 c 30 216.168 83.832 270 150 270 c 216.168
 270 270 216.168 270 150 c 270 83.832 216.168 30 150 30 c h
150 255 m 92.102 255 45 207.898 45 150 c 45 92.102 92.102 45 150 45 c 207.898
 45 255 92.102 255 150 c 255 207.898 207.898 255 150 255 c h
150 255 m f
234.047 117.805 m 227.59 100.996 216.348 86.625 201.527 76.246 c 186.359
 65.617 168.539 60 150 60 c 145.859 60 142.5 63.359 142.5 67.5 c 142.5 71.641
 145.859 75 150 75 c 180.824 75 208.973 94.363 220.047 123.184 c 221.191
 126.168 224.035 127.996 227.051 127.996 c 227.945 127.996 228.852 127.836
 229.738 127.496 c 233.605 126.012 235.535 121.672 234.047 117.805 c h
234.047 117.805 m f
Q Q
showpage
%%Trailer
end
%%EOF
