<svg id="play" xmlns="http://www.w3.org/2000/svg" width="50" height="50" viewBox="0 0 50 50">
  <g id="Group_83" data-name="Group 83">
    <g id="Group_82" data-name="Group 82">
      <path id="Path_175" data-name="Path 175" d="M25,0A25,25,0,1,0,50,25,25.028,25.028,0,0,0,25,0Zm0,47.917A22.917,22.917,0,1,1,47.917,25,22.943,22.943,0,0,1,25,47.917Z" fill="#fff"/>
      <path id="Path_176" data-name="Path 176" d="M208.189,158.872,193.605,149.5a1.042,1.042,0,0,0-1.605.876v18.75a1.041,1.041,0,0,0,1.605.876l14.583-9.375a1.041,1.041,0,0,0,0-1.752Zm-14.105,8.342V152.281l11.615,7.467Z" transform="translate(-173.25 -134.748)" fill="#fff"/>
    </g>
  </g>
</svg>
